"time","open","close","high","low","vwap","n_trades","n_buy","n_sell","vol_base","vol_quote","vol_buy_base","vol_buy_quote","vol_sell_base","vol_sell_quote","stddev","mean"
2019-01-01,0.1896,0.1721,0.1896,0.1721,0.177966666666667,3,1,2,664.71138405,116.19331033341,100,18.96,564.71138405,97.23331033341,0,0.1721
2019-01-02,0.1896,0.1721,0.1933,0.1721,0.181197252765785,7,4,3,567.20380757,101.256735095513,488.30662524,87.67853001652,78.89718233,13.578205078993,0,0.1721
2019-01-03,0.19,0.192,0.1945,0.1898,0.19242939450828,13,10,3,2883.39272079,556.091090308981,2375.09945747,457.228050593241,508.29326332,98.86303971574,0.00190496427496393,0.192
2019-01-04,0.192,0.19933,0.19933,0.192,0.197620138098954,2,2,0,176.91197166,34.9613682708074,176.91197166,34.9613682708074,0,0,0.0051830927060974,0.195665
2019-01-05,0.19932,0.2,0.2,0.17263,0.190880497771343,7,5,2,1765,350.099041097993,1665,332.812041097993,100,17.287,0.00040414518843275,0.199766666666667
2019-01-06,0.1985,0.17411,0.1985,0.17343,0.183738142033258,16,7,9,3879.26528522,686.70818808533,990.71992133,181.005805865296,2888.54536389,505.702382220034,0.00228395490323256,0.17411
2019-01-07,0.21857,0.218,0.21857,0.21292,0.217801618722538,4,4,0,1100,238.890237445076,1100,238.890237445076,0,0,0.00285291079425909,0.21621
2019-01-08,0.21799,0.24,0.24,0.18001,0.215007536868503,27,22,5,10266.02155827,2353.34112329012,8945.29253065,2095.44274754104,1320.72902762,257.898375749077,7.07106781184311e-06,0.239995
2019-01-09,0.2001,0.243,0.2432,0.20001,0.23255242870153,31,25,6,6417.77106142,1463.76770198753,4980.03248832,1175.94116286376,1437.7385731,287.826539123774,0,0.243
2019-01-10,0.2428,0.2,0.2428,0.2,0.206980941807224,20,3,17,6871.11587507,1391.37534812942,258,61.0155,6613.11587507,1330.35984812942,6.36396103067744e-05,0.2
2019-01-11,0.2,0.2,0.2,0.2,0.2,1,0,1,998,199.6,0,0,998,199.6,NA,0.2
2019-01-12,0.20011,0.20011,0.20011,0.20011,0.20011,2,0,2,396.11285714,79.2661438422854,0,0,396.11285714,79.2661438422854,NA,0.20011
2019-01-13,0.20011,0.2,0.20011,0.2,0.200013912709816,7,0,7,12686.49237001,2537.30476741629,0,0,12686.49237001,2537.30476741629,0,0.2
2019-01-14,0.2,0.2,0.2,0.2,0.2,1,0,1,2638.97766982,527.795533964,0,0,2638.97766982,527.795533964,NA,0.2
2019-01-15,0.2,0.2,0.2,0.2,0.2,2,0,2,1622.88,324.576,0,0,1622.88,324.576,NA,0.2
2019-01-16,0.2,0.2,0.21874,0.2,0.202670422334132,6,1,5,5338.88723268,1068.91484129862,58,12.68692,5280.88723268,1056.22792129862,0.0132511810794359,0.20937
2019-01-17,0.21854,0.2,0.2199,0.2,0.208648599700644,29,13,16,74484.0063907,15628.4655242201,46707.19997972,9823.0925608873,27776.80641098,5805.3729633328,7.07106781184311e-06,0.2
2019-01-18,0.202,0.2,0.222,0.2,0.206089479492598,31,9,22,9544.31786834,1952.1292254898,2040.58507916,447.984625198798,7503.73278918,1504.144600291,0.00120208152801712,0.2
2019-01-20,0.2,0.2,0.2277,0.2,0.204616666666667,6,1,5,14368.05026303,2880.788802334,259.16064,59.010877728,14108.88962303,2821.777924606,NA,0.2
2019-01-21,0.2,0.19,0.2,0.19,0.195454147576294,6,1,5,2880.64653817,567.705656082117,247.61196527,47.0462734013,2633.0345729,520.659382680817,0.00472500000000001,0.19
2019-01-22,0.18172,0.18172,0.18172,0.18172,0.18172,1,0,1,63.884,11.60900048,0,0,63.884,11.60900048,NA,0.18172
2019-01-23,0.183,0.183,0.183,0.183,0.183,2,0,2,116,21.228,0,0,116,21.228,NA,0.183
2019-01-24,0.183,0.19895,0.335,0.1821,0.231256249232145,145,44,101,216187.48743687,50321.5827717764,92650.57645113,22434.8466816196,123536.91098574,27886.7360901568,0.000679504809191422,0.19895
2019-01-25,0.18501,0.199,0.199,0.18501,0.194190125125234,6,5,1,586.93189036,115.522860935757,506.93191678,100.722065823721,79.99997358,14.8007951120358,0.000730000000000006,0.199
2019-01-26,0.18426,0.205,0.205,0.18174,0.197526224775073,8,4,4,2085.94750452,396.733494083143,669.41559887,136.69127776835,1416.53190565,260.042216314793,0.00057735026918963,0.204333333333333
2019-01-27,0.18356,0.18171,0.18356,0.18171,0.182084671317806,7,0,7,1572.85100184,286.476599544346,0,0,1572.85100184,286.476599544346,1.52752523165257e-05,0.18171
2019-01-28,0.18171,0.1511,0.19176,0.15038,0.174195194566154,15,2,13,2618.18626745,421.975352817403,178,34.10448,2440.18626745,387.870872817403,0.00397394011026838,0.1511
2019-01-30,0.183,0.185,0.185,0.15,0.163127945445287,19,6,13,6225.64560017,1020.89166470111,2252.09397559,410.67217486786,3973.55162458,610.21948983325,0.00390889626365295,0.181538
2019-01-31,0.1541,0.1562,0.1562,0.1541,0.15515,2,0,2,329.92720072,51.328684608464,0,0,329.92720072,51.328684608464,NA,0.1562
2019-02-01,0.1541,0.1541,0.1541,0.1541,0.1541,1,0,1,173.42,26.724022,0,0,173.42,26.724022,NA,0.1541
2019-02-02,0.1541,0.1531,0.1541,0.1531,0.1537151627175,3,0,3,220.00599,33.7797751286,0,0,220.00599,33.7797751286,0.000254558441227166,0.15328
2019-02-03,0.15407,0.1531,0.17929,0.1531,0.159123949594642,4,3,1,343.85,54.410775,262,41.87954,81.85,12.531235,0,0
2019-02-04,0.1531,0.16,0.18088,0.13329,0.16108508611679,9,2,7,3949.206375,579.22446405345,300,54.0842136756,3649.206375,525.14025037785,0.000593969696196705,0.16042
2019-02-05,0.178,0.142,0.178,0.1333,0.148311936245143,10,3,7,713.88649446,104.777741796691,176,29.064,537.88649446,75.713741796691,0,0.142
2019-02-06,0.142,0.14076,0.16112,0.13329,0.140432917133398,23,3,20,7151.83064981,977.947323035569,431.6,69.11624,6720.23064981,908.831083035568,0.00122398257068201,0.14076
2019-02-08,0.136,0.15999,0.15999,0.136,0.147995,2,2,0,514.54981498,79.1505635419049,514.54981498,79.1505635419049,0,0,NA,0.15999
2019-02-10,0.145,0.145,0.145,0.145,0.145,2,2,0,304.695,44.180775,304.695,44.180775,0,0,NA,0.145
2019-02-11,0.13611,0.1361,0.13611,0.1361,0.136107679283627,2,0,2,299,40.6961961058045,0,0,299,40.6961961058045,7.07106781187255e-06,0.136105
2019-02-12,0.138,0.13611,0.14402,0.13611,0.139577321456117,9,5,4,3579.62716004,493.008723849612,1579.62716004,219.58479511291,2000,273.423928736702,0.00394668637382467,0.1381
2019-02-13,0.1361,0.1361,0.1361,0.1361,0.1361,2,0,2,489.80054847,66.661854646767,0,0,489.80054847,66.661854646767,0,0.1361
2019-02-14,0.13502,0.13618,0.1584,0.135,0.146295087572777,14,6,8,3043.03543216,423.858750875343,1101.59333512,161.177473152876,1941.44209704,262.681277722468,5.77350269190604e-06,0.136186666666667
2019-02-15,0.13639,0.14699,0.14699,0.13622,0.143261639310541,7,4,3,1527.03303646,215.272369009285,696.03303646,102.034449009285,831,113.23792,0.000684178339323876,0.14699
2019-02-17,0.14697,0.1361,0.14697,0.136,0.139554887960751,16,8,8,6324.2902796,867.116901989077,1245.20443936,175.437336364353,5079.08584024,691.679565624725,0,0.1361
2019-02-18,0.1433,0.136,0.1749,0.136,0.146913307209066,32,20,12,8707.19370323,1284.50389692977,4664.44078309,720.23875699668,4042.75292014,564.265139933085,0.00222713461008279,0.136
2019-02-19,0.15371,0.1373,0.15371,0.136,0.140954954154369,29,15,14,15279.37654021,2100.32374246119,9933.90781974,1367.8756050115,5345.46872047,732.44813744969,0,0.1373
2019-02-20,0.13731,0.1373,0.13732,0.1373,0.137307575885155,7,0,7,1119.64312706,153.736310764065,0,0,1119.64312706,153.736310764065,9.99999999999265e-06,0.1373
2019-02-21,0.13731,0.14762,0.14794,0.1373,0.140403193529347,15,3,12,3533.49717885,494.304647953918,866.78539309,127.833698306253,2666.71178576,366.470949647665,0.000438406204335666,0.14731
2019-02-22,0.14,0.14,0.14762,0.14,0.142492866677064,10,4,6,3430.37183717,490.250969896577,1335.05322472,196.902597901848,2095.31861245,293.348371994729,7.07106781184311e-06,0.140005
2019-02-23,0.14,0.14762,0.14762,0.14,0.141524,6,1,5,3408.07181047,478.6540534658,200,29.524,3208.07181047,449.1300534658,0,0.14762
2019-02-24,0.14762,0.13329,0.14762,0.13329,0.140618671098494,14,2,12,2131.37878771,296.5710370794,430,63.4766,1701.37878771,233.0944370794,0.000355000000000021,0.1334675
2019-02-25,0.13329,0.13736,0.13736,0.1254,0.131556229442313,12,3,9,2740.21950922,352.082889090344,675.49421729,91.1943647887334,2064.72529193,260.888524301611,2.40831891575778e-05,0.13736
2019-02-26,0.14,0.13,0.14,0.13,0.133,6,6,0,11563.55241402,1608.5118138226,11563.55241402,1608.5118138226,0,0,0,0.13
2019-02-27,0.13,0.1255,0.13,0.1255,0.1291,5,4,1,1774.53944977,230.2401734701,1674.54944977,217.6914284701,99.99,12.548745,NA,0.1255
2019-02-28,0.13,0.13,0.13,0.13,0.13,3,3,0,2321.89813621,301.8467577073,2321.89813621,301.8467577073,0,0,NA,0.13
2019-03-01,0.142,0.122,0.142,0.1211,0.12871386770652,7,3,4,514.98294927,66.921239513628,297.35893357,40.09950963337,217.6240157,26.821729880258,0.0104873749495922,0.122
2019-03-02,0.1261,0.12609,0.1261,0.12609,0.126092556310132,3,0,3,2506.30848581,316.030436975783,0,0,2506.30848581,316.030436975783,7.07106781186273e-06,0.12609
2019-03-03,0.13929,0.13984,0.13984,0.13929,0.139696615845531,18,18,0,3409.86571734,475.808970535402,3409.86571734,475.808970535402,0,0,0.000311126983722078,0.13984
2019-03-05,0.135,0.121,0.13576,0.121,0.128231112696703,4,2,2,1494.82185958,192.729780714063,819.88802117,111.057805754039,674.93383841,81.6719749600236,7.07106781187255e-06,0.121005
2019-03-06,0.14151,0.14151,0.14151,0.14151,0.14151,2,2,0,326.75396278,46.2389532729978,326.75396278,46.2389532729978,0,0,NA,0.14151
2019-03-08,0.13,0.131,0.14152,0.13,0.134146065983472,4,2,2,1319.64742302,177.910326989283,549.00824891,77.6507373857432,770.63917411,100.25958960354,7.07106781186764e-05,0.131
2019-03-09,0.14566,0.13114,0.179,0.131,0.160773985686678,27,16,11,9156.53654459,1504.87478988827,7525.68194378,1236.63410844044,1630.85460081,268.240681447827,0.0339411254969543,0.13114
2019-03-10,0.14016,0.14016,0.14016,0.14016,0.14016,1,0,1,122.4,17.155584,0,0,122.4,17.155584,NA,0.14016
2019-03-12,0.16,0.15169,0.184,0.14223,0.15733364988308,20,10,10,7493.98946229,1238.75236674319,4382.59862365,780.925711311838,3111.39083864,457.826655431349,0.000689420046125719,0.15169
2019-03-13,0.153,0.1531,0.1531,0.1527,0.15292878754504,3,0,3,3900.2573448,596.77255255096,0,0,3900.2573448,596.77255255096,0.000212132034355951,0.1531
2019-03-14,0.1693,0.19,0.19999,0.157,0.174615140606131,21,20,1,5789.35721193,1054.1714013815,5689.35721193,1038.4714013815,100,15.7,0.000127017059221712,0.189853333333333
2019-03-15,0.19565,0.22444,0.22568,0.18789,0.205580646296353,24,18,6,8690.09895195,1842.58880567261,2838.76038716,585.62063386522,5851.33856479,1256.96817180739,0.00302361262951014,0.22444
2019-03-16,0.21282,0.21235,0.2347,0.21235,0.221424606374937,17,13,4,1380.06036205,306.21479592972,965.65797923,218.075449937893,414.40238282,88.139345991827,5.00000000000115e-06,0.21235
2019-03-17,0.21075,0.22342,0.24,0.21075,0.222082822877669,31,19,12,6340,1468.21959151143,4884,1150.84879151143,1456,317.3708,7.07106781187255e-06,0.223415
2019-03-18,0.23,0.22244,0.24,0.22244,0.228637217620175,4,3,1,981.20881074,220.38410142916,246.05396174,56.8562568176,735.154849,163.52784461156,0.00707106781186547,0.22244
2019-03-19,0.24,0.22258,0.24,0.22258,0.23129,2,1,1,322.35143966,74.7513455184,172.35143966,41.3643455184,150,33.387,NA,0.22258
2019-03-20,0.2306,0.24,0.24,0.21001,0.233049663699052,16,8,8,13062.90091178,2914.51874840512,2893.78173916,693.477117374894,10169.11917262,2221.04163103022,2.12132034355882e-05,0.24
2019-03-21,0.24465,0.24013,0.2459,0.22019,0.236145,8,0,8,7221.92188366,1746.58497807742,0,0,7221.92188366,1746.58497807742,0,0.24013
2019-03-22,0.24,0.21542,0.24,0.21542,0.223613333333333,3,1,2,377.3,84.252146,121,29.04,256.3,55.212146,NA,0.21542
2019-03-24,0.23001,0.23001,0.23001,0.23001,0.23001,2,0,2,152,34.96152,0,0,152,34.96152,NA,0.23001
2019-03-25,0.23,0.216,0.23,0.216,0.223539177515675,4,0,4,647.87023241,143.00397020056,0,0,647.87023241,143.00397020056,0.00282842712474619,0.218
2019-03-26,0.225,0.21746,0.231,0.21746,0.226296751816556,10,9,1,747.58642061,169.28411476091,652.72642061,148.65585916091,94.86,20.6282556,0.00166986740277699,0.21746
2019-03-27,0.248,0.24996,0.24996,0.21967,0.239363041784129,4,3,1,381.63993318,92.2200013678338,286.82993318,71.3930886678338,94.81,20.8269127,0.000643467170879764,0.24996
2019-03-28,0.24996,0.24998,0.24999,0.22057,0.239544749289167,10,6,4,5866.26164762,1380.36439346906,2389.84287567,596.835813795641,3476.41877195,783.528579673415,0.00140007142674938,0.24899
2019-03-29,0.247,0.222,0.24999,0.222,0.243365493306147,8,6,2,578.99969685,140.649300408224,453.20169685,112.111085261144,125.798,28.53821514708,0.00424264068711929,0.225
2019-03-30,0.225,0.24999,0.24999,0.22468,0.232695150830006,6,3,3,1028.97344176,239.437130230414,324.36282647,81.0391009892353,704.61061529,158.398029241178,0.013457486640033,0.237056666666667
2019-03-31,0.249,0.249,0.249,0.249,0.249,1,1,0,76,18.924,76,18.924,0,0,NA,0.249
2019-04-01,0.23701,0.247,0.248,0.22589,0.239506890823001,7,2,5,508.37167932,122.145452223241,220,54.46,288.37167932,67.6854522232414,0.00785595633898254,0.247
2019-04-02,0.247,0.24999,0.24999,0.23,0.242550015762492,13,10,3,4529.91609812,1093.07409156838,2418.4269596,593.200399708776,2111.48913852,499.8736918596,7.07106781187255e-06,0.24999
2019-04-03,0.24953,0.251,0.251,0.22899,0.247534517379686,32,29,3,41266.56361857,10330.4151572113,40451.4207874,10140.5550676785,815.14283117,189.860089532849,0.000127017059221725,0.251
2019-04-04,0.24107,0.224,0.251,0.224,0.242097041787081,7,2,5,2499.35396585,614.982929002511,1899.35396585,476.73784542835,600,138.245083574161,0.00058889727457341,0.22468
2019-04-05,0.224,0.224,0.224,0.224,0.224,1,0,1,291.55185232,65.30761491968,0,0,291.55185232,65.30761491968,NA,0.224
2019-04-06,0.224,0.224,0.224,0.224,0.224,3,0,3,300,67.2,0,0,300,67.2,0,0.224
2019-04-07,0.22458,0.22853,0.24881,0.22441,0.228578053053092,5,1,4,5381.44358884,1224.37781219431,82.63436895,20.5602573384495,5298.80921989,1203.81755485586,0.0172534054609518,0.22853
2019-04-08,0.2269,0.21556,0.2269,0.21556,0.2197841634435,9,0,9,5544.8,1233.63304403604,0,0,5544.8,1233.63304403604,0.00152826465546478,0.21556
2019-04-09,0.22287,0.22209,0.22287,0.22209,0.22248,2,0,2,309.76,68.9427984,0,0,309.76,68.9427984,NA,0.22209
2019-04-10,0.23999,0.251,0.251,0.23933,0.244812697327081,6,6,0,1588.79210343,395.762308883408,1588.79210343,395.762308883408,0,0,0.00563359831723917,0.245656
2019-04-11,0.22,0.21,0.22,0.21,0.214545267050465,14,0,14,1621.29510149,348.821014429635,0,0,1621.29510149,348.821014429635,7.07106781187255e-06,0.210005
2019-04-12,0.21001,0.202,0.21001,0.19691,0.202855936843081,9,4,5,2214.24054313,441.960274575356,511.57021241,103.79878290682,1702.67033072,338.161491668536,0,0.202
2019-04-13,0.202,0.198,0.202,0.18839,0.197175384615385,13,11,2,1570.25415618,309.3231690362,1335.25415618,264.9910190362,235,44.33215,NA,0.198
2019-04-14,0.1888,0.198,0.198,0.1888,0.1957,4,3,1,704.50112863,136.859350065448,418.42793262,82.84873065876,286.07319601,54.010619406688,NA,0.198
2019-04-17,0.198,0.1938,0.198,0.1938,0.1959,3,2,1,457.2555536,89.45528628768,199.8,39.5604,257.4555536,49.89488628768,0,0.1938
2019-04-18,0.21,0.21,0.21,0.21,0.21,1,1,0,13.87427169,2.9135970549,13.87427169,2.9135970549,0,0,NA,0.21
2019-04-19,0.22697,0.22697,0.22697,0.22697,0.22697,1,1,0,86,19.51942,86,19.51942,0,0,NA,0.22697
2019-04-20,0.20202,0.20202,0.20202,0.20202,0.20202,1,0,1,86.712,17.51755824,0,0,86.712,17.51755824,NA,0.20202
2019-04-22,0.20202,0.19932,0.20202,0.19872,0.200144706761079,3,0,3,230.758,46.204160077314,0,0,230.758,46.204160077314,0.0023334523779156,0.19932
2019-04-23,0.20152,0.228,0.228,0.1943,0.207709860772846,5,2,3,4489.25860082,904.662523576785,46,10.4643768418912,4443.25860082,894.198146734894,0.000728319984622156,0.227485
2019-04-24,0.228,0.17245,0.23452,0.17245,0.190770192606035,13,3,10,4913.92032436,922.344723950623,548.89192037,127.015049437311,4365.02840399,795.329674513312,0.034110110426871,0.211656666666667
2019-04-25,0.23475,0.23475,0.23475,0.23475,0.23475,1,1,0,200,46.95,200,46.95,0,0,NA,0.23475
2019-04-26,0.16954,0.14638,0.17001,0.14638,0.165304249032577,9,0,9,3598.4776961,590.147532851102,0,0,3598.4776961,590.147532851102,0.0115304592999007,0.1593975
2019-04-27,0.1464,0.146,0.1464,0.146,0.146192506730509,7,0,7,9492.10391342,1389.43134318228,0,0,9492.10391342,1389.43134318228,5.00000000000115e-06,0.146
2019-04-28,0.15,0.162,0.162,0.15,0.157195643919941,15,2,13,14647.96412114,2340.39278537371,12955.74716776,2072.84698571679,1692.21695338,267.545799656912,0,0.162
2019-04-29,0.152,0.151,0.17,0.151,0.155224189431526,4,1,3,556.95000001,84.84463367713,24,4.08,532.95000001,80.76463367713,0.0134350288425444,0.1605
2019-04-30,0.1527,0.15,0.17,0.15,0.158180047926465,6,1,5,3471.76487599,530.181781806812,50,8.5,3421.76487599,521.681781806812,0.001802775637732,0.1515
2019-05-01,0.165,0.14111,0.165,0.13936,0.149839434751535,8,3,5,2038.84337593,285.82263099442,252.8,36.460928,1786.04337593,249.36170299442,7.0710678118647e-05,0.14111
2019-05-03,0.15055,0.15055,0.15055,0.15055,0.15055,1,0,1,39.92,6.009956,0,0,39.92,6.009956,NA,0.15055
2019-05-04,0.16,0.16,0.16,0.1506,0.155971428571429,7,4,3,954.30259607,147.8121102872,435.54673607,69.6874777712,518.75586,78.124632516,NA,0.16
2019-05-05,0.16,0.16,0.18,0.16,0.164143050208659,12,8,4,1788.93335332,308.651045737891,1353.46154727,238.97298205183,435.47180605,69.6780636860605,7.07106781187255e-06,0.160005
2019-05-06,0.18099,0.181,0.181,0.18099,0.180998167938931,3,3,0,131,23.71076,131,23.71076,0,0,5.77350269187799e-06,0.180996666666667
2019-05-07,0.15501,0.155,0.18099,0.155,0.160330994309722,5,1,4,258.53225519,40.69673955445,24,4.34376,234.53225519,36.35297955445,0.0150024475780898,0.163666666666667
2019-05-08,0.15501,0.155,0.165,0.155,0.156668189745452,9,1,8,1086.78594983,169.38604499435,93.37427707,15.40675571655,993.41167276,153.9792892778,5.77350269190003e-06,0.155
2019-05-09,0.155,0.141,0.15501,0.141,0.151505,4,0,4,488.47556218,75.1345601379,0,0,488.47556218,75.1345601379,NA,0.141
2019-05-10,0.141,0.141,0.141,0.141,0.141,1,0,1,24,3.384,0,0,24,3.384,NA,0.141
2019-05-11,0.141,0.15,0.15,0.139,0.143333333333333,5,3,2,916.2614188,132.42389518316,774.53326998,112.53473849718,141.72814882,19.88915668598,0,0.15
2019-05-13,0.17,0.17,0.17,0.17,0.17,1,1,0,159.68,27.1456,159.68,27.1456,0,0,NA,0.17
2019-05-14,0.17966,0.17,0.18159,0.1554,0.173256381466795,20,11,9,2919.19418027,512.863065774995,1969.10032666,356.053905584567,950.09385361,156.809160190428,0.000417193000900078,0.17
2019-05-15,0.18159,0.19,0.19,0.17002,0.180460953626587,12,6,6,4719.26989335,875.74231197523,3894.5250501,728.202339519,824.74484325,147.53997245623,0,0.19
2019-05-16,0.19,0.2,0.22989,0.19,0.201126114808525,37,19,18,6037.63723908,1194.27414625518,1332.97020774,293.062160359037,4704.66703134,901.211985896147,0,0.2
2019-05-17,0.2,0.15109,0.2,0.15109,0.184861478597652,8,1,7,3551.49464379,672.552088663102,193.29896907,36.7248711336093,3358.19567472,635.827217529493,7.07106781184311e-06,0.15109
2019-05-18,0.18735,0.147,0.21384,0.147,0.170485514996226,15,3,12,1829.61335965,302.559535140885,472,94.443502833538,1357.61335965,208.116032307347,0.00265883701751617,0.152398571428571
2019-05-19,0.19565,0.18,0.19711,0.15405,0.170722317930122,23,15,8,4336.61571619,737.99831626874,2895.04989904,511.548443399025,1441.56581715,226.449872869715,7.07106781184311e-06,0.179995
2019-05-20,0.17999,0.17999,0.18,0.15,0.161471392312377,17,4,13,1540.05385135,239.686897406073,120,21.59926,1420.05385135,218.087637406073,5.77350269190003e-06,0.17999
2019-05-21,0.15001,0.162,0.178,0.1495,0.161543756995019,15,9,6,2204.53062053,354.632141208326,977.05062053,169.139108182486,1227.48,185.49303302584,0.00122474487139159,0.163
2019-05-22,0.17022,0.152,0.177,0.152,0.157396764383227,96,15,81,19977.58198559,3142.96884976948,4294.99483021,738.805320055257,15682.58715538,2404.16352971422,0.00288675134594813,0.153666666666667
2019-05-23,0.15002,0.15246,0.197,0.14003,0.15957957995101,101,34,67,58894.95419417,9500.1815853035,17326.58020586,3241.80402282428,41568.37398831,6258.37756247922,9.23760430703404e-05,0.152406666666667
2019-05-24,0.15301,0.16737,0.2,0.14585,0.169424747440597,35,23,12,13837.57246204,2474.93542628219,10434.88840754,1951.75483823961,3402.6840545,523.180588042574,0.000127279220613578,0.16737
2019-05-25,0.16819,0.1696,0.192,0.16591,0.170434835406658,68,9,59,8040.71817135,1372.94652074307,905.07043134,166.069370216607,7135.64774001,1206.87715052646,0,0.1696
2019-05-26,0.18052,0.16513,0.18053,0.1651,0.169101698367078,7,3,4,996.55893826,166.593330511951,566.40350778,95.3604918688323,430.15543048,71.2328386431188,0.000275771644662755,0.16513
2019-05-27,0.17183,0.16719,0.18608,0.16512,0.173916760484238,17,8,9,3357.33893885,563.841606995325,453.65254491,82.7470805359478,2903.68639394,481.094526459377,0.000120208152801716,0.16719
2019-05-28,0.16804,0.1681,0.17541,0.16803,0.169436666003766,12,3,9,628.30377061,106.81370233747,145,25.43329076,483.30377061,81.3804115774698,5.77350269190604e-06,0.1681
2019-05-29,0.17998,0.17051,0.1989,0.1677,0.176561259704077,32,23,9,6207.13337836,1166.8184179802,5389.75077893,1028.76863250391,817.38259943,138.049785476298,0.000951678342018277,0.17051
2019-05-30,0.17204,0.18345,0.1977,0.17199,0.184699570118661,47,22,25,5777.28105986,1064.33099125227,2382.73587036,456.766717425985,3394.5451895,607.564273826288,7.07106781187255e-06,0.18345
2019-05-31,0.182,0.1966,0.1966,0.172,0.179322026464984,18,5,13,7041.58795196,1268.67794903879,544,106.73706042175,6497.58795196,1161.94088861704,0.000423992924469261,0.195852
2019-06-01,0.1726,0.17,0.17262,0.16735,0.17031913618786,17,2,15,1894.5635309,325.042763890271,193.3043305,32.861736185,1701.2592004,292.181027705271,0,0.17
2019-06-02,0.1898,0.17,0.1898,0.16735,0.178714497259827,6,2,4,453.49444742,78.2664918814,64,12.1472,389.49444742,66.1192918814,7.07106781186273e-06,0.170005
2019-06-03,0.17001,0.171,0.1945,0.17,0.17748596198064,10,2,8,200.26794848,35.9253062416,74,14.393,126.26794848,21.5323062416,7.07106781186273e-06,0.171005
2019-06-04,0.171,0.14733,0.18877,0.14733,0.16633063701021,16,3,13,4031.97291105,663.845955868596,1871.82187989,320.50668566119,2160.15103116,343.339270207406,0.0293025050123705,0.16805
2019-06-05,0.149,0.17805,0.18236,0.149,0.17015728,9,8,1,702.99695,122.13496555,650,114.23842,52.99695,7.89654555,8.34665601703248e-05,0.178005
2019-06-06,0.17001,0.17,0.17001,0.17,0.170002622964025,2,0,2,296.71775618,50.4427968306,0,0,296.71775618,50.4427968306,7.07106781186273e-06,0.170005
2019-06-07,0.1807,0.188,0.188,0.1807,0.184579845295886,4,3,1,366.9535585,68.1373272330242,204.99685546,37.6894670615042,161.95670304,30.44786017152,4.94974746830588e-05,0.188
2019-06-08,0.188,0.188,0.188,0.188,0.188,3,0,3,277.65667794,52.19945545272,0,0,277.65667794,52.19945545272,NA,0.188
2019-06-09,0.17802,0.17801,0.17802,0.17801,0.178012012633131,4,0,4,149.67953935,26.6447560496935,0,0,149.67953935,26.6447560496935,5.77350269190604e-06,0.178015
2019-06-10,0.17801,0.18082,0.18082,0.17801,0.17988,4,3,1,510.60829825,91.906060889565,360.85829825,65.249063389565,149.75,26.6569975,0,0.18082
2019-06-11,0.17801,0.179,0.18001,0.17801,0.179007487797851,6,1,5,330.17268791,59.2608261748591,40,7.16,290.17268791,52.1008261748591,7.07106781187255e-06,0.179
2019-06-12,0.178,0.15636,0.17898,0.15636,0.17186387631143,3,1,2,339.06224382,59.64187811996,24,4.29552,315.06224382,55.34635811996,0.0159947553904397,0.16767
2019-06-13,0.1775,0.17899,0.17899,0.1775,0.178481763287312,18,18,0,529.387,94.3628243063978,529.387,94.3628243063978,0,0,0,0.17899
2019-06-14,0.16003,0.18215,0.192,0.16002,0.184599027771709,29,22,7,9880.76655336,1861.34060597808,8622.21513621,1639.17063291132,1258.55141715,222.169973066752,8.53912563829925e-05,0.1822025
2019-06-15,0.18202,0.162,0.1965,0.16135,0.183494438972757,98,25,73,20417.83668565,3766.0338838513,9675.86373108,1857.46744146025,10741.97295457,1908.56644239105,7.07106781186273e-06,0.162005
2019-06-16,0.16447,0.19034,0.192,0.1522,0.184801857367565,76,46,30,26879.57825544,4550.53066885436,7581.64203436,1426.41602707563,19297.93622108,3124.11464177873,0.00191444508931441,0.19034
2019-06-17,0.1893,0.22,0.22,0.17489,0.190991051287134,45,36,9,6819.32185989,1369.80812308905,6218.25917757,1263.73272908609,601.06268232,106.075394002961,0.00354894726174772,0.217706666666667
2019-06-18,0.19526,0.1821,0.19526,0.1812,0.189929060916599,18,6,12,1382.24254562,265.878296870228,438.41381226,85.4595487031904,943.82873336,180.418748167038,0.000381837661840725,0.1821
2019-06-19,0.18211,0.1821,0.18211,0.1821,0.182100980632508,2,0,2,244.74,44.567394,0,0,244.74,44.567394,7.07106781186273e-06,0.182105
2019-06-20,0.1826,0.1826,0.217,0.1826,0.18734875759249,4,1,3,199.664,37.2842464,24,5.208,175.664,32.0762464,0.0243244732728172,0.1826
2019-06-21,0.1826,0.16492,0.1826,0.16489,0.176270151041924,20,0,20,3057.50993255,543.43644113333,0,0,3057.50993255,543.43644113333,0.00555664647066914,0.16492
2019-06-22,0.16294,0.16501,0.18,0.154,0.16879776680576,61,13,48,12214.28141254,1963.98998291474,929.72165551,162.563370635485,11284.55975703,1801.42661227926,7.07106781187255e-06,0.165015
2019-06-23,0.16601,0.16823,0.20642,0.16499,0.184609220361368,45,33,12,7580.93727681,1357.31867578156,4383.57697781,828.630170642063,3197.360299,528.688505139495,7.07106781186273e-06,0.16823
2019-06-24,0.1704,0.2,0.2,0.17039,0.182047193366613,51,29,22,7867.65596648,1489.62142304657,6488.08848343,1251.93890856288,1379.56748305,237.682514483691,0.00274694223941217,0.1971475
2019-06-25,0.19899,0.17001,0.20697,0.166,0.180111059672947,42,15,27,5919.59343761,1117.1611692273,3624.02572917,719.702509381537,2295.56770844,397.458659845764,0.000190087699058456,0.170203333333333
2019-06-26,0.192,0.175,0.21499,0.17113,0.184206600621102,44,26,18,3850.80210236,726.209875949589,2339.21230705,464.148995545456,1511.58979531,262.060880404133,5.77350269190003e-06,0.175003333333333
2019-06-27,0.17501,0.15501,0.185,0.15501,0.173612839800297,31,5,26,2656.18807991,454.403716187762,497.29224062,91.9830524481328,2158.89583929,362.420663739629,0.00235540513146536,0.15806
2019-06-28,0.158,0.156,0.18,0.1543,0.167319091052346,24,7,17,1479.14237905,235.134852096397,215.30081138,38.5845222229641,1263.84156767,196.550329873433,7.0710678118647e-05,0.156
2019-06-29,0.169,0.162,0.19198,0.1543,0.173979954611395,22,14,8,4227.45675820888,729.220406832415,2592.65284041888,471.228889553941,1634.80391779,257.991517278474,7.07106781186273e-06,0.162005
2019-06-30,0.16201,0.184,0.186,0.16201,0.175679403423616,38,15,23,13130.5609457499,2276.8829612878,1422.43718767,261.352744854323,11708.1237580799,2015.53021643348,0.000832706430862644,0.18238
2019-07-01,0.1724,0.1575,0.1807,0.1575,0.173488980823595,29,8,21,1367.3077746,235.96842097435,156.79882902,27.9948865644187,1210.50894558,207.973534409931,7.07106781187255e-06,0.1575
2019-07-02,0.17765,0.1767,0.17778,0.15749,0.165596301202861,14,3,11,3224.7730741,515.132141010067,353.529842,62.5736030814,2871.2432321,452.558537928667,3.04959013639525e-05,0.1767
2019-07-03,0.15911,0.17522,0.17522,0.1591,0.165541727510596,17,9,8,2275.24200028,376.98102988196,929.70006228,162.882584313461,1345.541938,214.098445568498,1.52752523165079e-05,0.1752
2019-07-04,0.16181,0.1561,0.17359,0.1561,0.16325041121914,53,15,38,9304.8441711,1497.15046486569,743.17309702,125.454521610913,8561.67107408,1371.69594325478,7.07106781186568e-05,0.1561
2019-07-05,0.16254,0.1561,0.16254,0.1561,0.158987246044634,13,6,7,321.18546988,51.0378131391956,166.9106158,26.946330660337,154.27485408,24.0914824788586,0.00346482322781409,0.15855
2019-07-06,0.1561,0.156,0.1561,0.156,0.156062990051248,5,0,5,943.8900167,147.275289500781,0,0,943.8900167,147.275289500781,4.57347424466887e-05,0.1560325
2019-07-07,0.15624,0.152,0.16317,0.15,0.157326007038427,37,12,25,5531.06055704,863.0261311622,1463.55668598,235.45446716631,4067.50387106,627.57166399589,0,0.152
2019-07-08,0.16507,0.15,0.16507,0.15,0.158003139324441,5,2,3,343.279856,54.03638790998,157.259928,25.887998192,186.019928,28.14838971798,0.0014142135623731,0.151
2019-07-09,0.1512,0.15031,0.15977,0.15,0.155265945890609,50,33,17,3970.59668209,624.179996476277,2953.77342628,471.30086413458,1016.82325581,152.879132341698,7.07106781187255e-06,0.150315
2019-07-10,0.1588,0.14801,0.1599,0.14801,0.153041576144229,25,11,14,3116.74558393773,484.902088502237,1846.1919793,294.641398987523,1270.55360463773,190.260689514714,7.07106781187255e-06,0.148015
2019-07-11,0.14802,0.148,0.1599,0.148,0.149697345778383,20,9,11,1698.11274583,262.861521282961,1044.54004347,165.878337539521,653.57270236,96.9831837434396,5.77350269190604e-06,0.148
2019-07-12,0.13901,0.157,0.157,0.1301,0.136219334760315,15,5,10,1127.33694154,156.329448815459,413.25386698,63.06819924653,714.08307456,93.2612495689285,0.00465564173879391,0.1519
2019-07-13,0.131,0.13,0.13201,0.13,0.131408342264457,9,0,9,1469.406,192.14892697994,0,0,1469.406,192.14892697994,0.000955416139700375,0.131042
2019-07-14,0.12983,0.1256,0.152,0.1256,0.140746670861509,45,26,19,6297.66882205,871.06607106225,3609.69967971,528.153672304521,2687.96914234,342.91239875773,7.07106781187255e-06,0.125605
2019-07-15,0.12561,0.121,0.12561,0.11982,0.121473071817883,22,5,17,3524.29300328,427.187813117297,748.79623918,90.0850132605669,2775.4967641,337.10279985673,0.00100334440746934,0.121
2019-07-16,0.12096,0.095,0.1299,0.091201,0.11063426672912,38,6,32,23812.25303706,2657.48172298455,726.30065889,83.904984644109,23085.95237817,2573.57673834044,5.77350269191205e-07,0.0950003333333333
2019-07-17,0.1295,0.11999,0.1295,0.111,0.116548119568279,32,30,2,4893.8581672,581.679769264739,4768.10102641,567.720726637049,125.75714079,13.95904262769,7.07106781185783e-06,0.119985
2019-07-18,0.11998,0.16,0.16,0.111,0.132020494823493,57,42,15,6873.00969525,1014.10051986091,4417.10400138,626.290508943001,2455.90569387,387.81001091791,0,0.16
2019-07-19,0.15009,0.15009,0.15009,0.1044,0.132085827180784,7,5,2,2146.02389569,312.561661180482,1936.914624,290.71127591616,209.10927169,21.8503852643219,7.07106781187255e-06,0.150085
2019-07-20,0.149,0.161,0.161,0.149,0.154272972242304,5,5,0,700.96558487,108.14004421746,700.96558487,108.14004421746,0,0,0.00591565972652247,0.153996
2019-07-21,0.16099,0.161,0.161,0.16099,0.160999744680851,2,2,0,940,151.33976,940,151.33976,0,0,7.07106781187255e-06,0.160995
2019-07-22,0.12001,0.111,0.12501,0.111,0.117402693078078,9,0,9,3348.65204888,397.079630378702,0,0,3348.65204888,397.079630378702,7.07106781187255e-06,0.111
2019-07-23,0.111,0.15662,0.15662,0.111,0.13381,2,1,1,153.227465,21.570248615,100,15.662,53.227465,5.908248615,NA,0.15662
2019-07-24,0.11111,0.106,0.11111,0.106,0.108507092852469,10,5,5,4020.23512249,433.14357954639,2434.46381,258.05316386,1585.77131249,175.09041568639,0,0.106
2019-07-25,0.14955,0.11111,0.15,0.11111,0.130335305108515,5,4,1,1050.000087,155.1161198836,1000,149.56061021703,50.000087,5.55550966657,0.000220151463012777,0.11111
2019-07-26,0.11121,0.11121,0.11121,0.11121,0.11121,1,0,1,268.49563876,29.8593999864996,0,0,268.49563876,29.8593999864996,NA,0.11121
2019-07-27,0.143,0.11111,0.14808,0.11111,0.123821398054549,13,3,10,834.07014994,98.55008072594,120.738402,17.509431486,713.33174794,81.04064923994,0.0261417377004666,0.11111
2019-07-29,0.11155,0.1055,0.11155,0.1055,0.108270044088098,6,0,6,1064.1246396,116.014609249105,0,0,1064.1246396,116.014609249105,7.07106781187255e-06,0.105505
2019-07-31,0.14,0.14,0.14,0.14,0.14,1,1,0,25,3.5,25,3.5,0,0,NA,0.14
2019-08-03,0.13731,0.10601,0.13731,0.10601,0.125071350310468,5,3,2,148.62222142,18.0716416927342,74,10.16094,74.62222142,7.9107016927342,0.0221324422511389,0.12166
2019-08-04,0.13731,0.13915,0.13915,0.10601,0.12532071039377,9,6,3,1220.80250998,157.347903041668,920.52,125.514454158688,300.28250998,31.8334488829798,0.00147078210486801,0.13811
2019-08-09,0.12071,0.10805,0.12071,0.10805,0.11438,4,3,1,259.94,28.8453574,59.94,7.2353574,200,21.61,0,0.10805
2019-08-10,0.13493,0.14,0.14,0.13493,0.13739862237986,3,3,0,1230,169.000305527227,1230,169.000305527227,0,0,0.00254917633756475,0.13731
2019-08-11,0.11051,0.14927,0.14927,0.11051,0.132420121956199,10,9,1,4977.59816731,719.523258077135,4950.06788731,716.480886834335,27.53028,3.0423712428,0.00207298496537401,0.14653
2019-08-12,0.146,0.15,0.153,0.146,0.149623849485536,24,10,14,12253.13994317,1841.14015897159,2654.12680383,400.283447846374,9599.01313934,1440.85671112522,0.000707106781186548,0.15
2019-08-13,0.15,0.12593,0.15,0.12593,0.138123973026662,5,2,3,430.96868606,61.6937286507521,66.66666666,9.996159999,364.3020194,51.6975686517521,0.0138508639923051,0.12593
2019-08-14,0.13034,0.13,0.13034,0.13,0.1301868,3,0,3,4528.902609,590.26652605706,0,0,4528.902609,590.26652605706,9.89949493661273e-05,0.13007
2019-08-15,0.13014,0.13199,0.15384,0.13,0.141129138279829,6,3,3,943.95888998,124.504944576536,96.04794554,14.1778190199006,847.91094444,110.327125556636,0.0154502831689261,0.142915
2019-08-18,0.13335,0.13335,0.13335,0.13335,0.13335,6,6,0,1234.85287101,164.667630349183,1234.85287101,164.667630349183,0,0,0,0.13335
2019-08-20,0.15384,0.13,0.154,0.13,0.144852730738842,9,4,5,247.85,34.70258,95.9,14.75708,151.95,19.9455,9.89949493661273e-05,0.13007
2019-08-21,0.133,0.13,0.133,0.13,0.131501244209809,3,1,2,1481.254586,192.95945618,131,17.423,1350.254586,175.53645618,9.89949493661273e-05,0.13007
2019-08-22,0.133,0.13,0.133,0.13,0.131524,3,1,2,238.75065814,31.54719753262,168.75065814,22.44383753262,70,9.10336,9.89949493661273e-05,0.13007
2019-08-26,0.13105,0.13131,0.13131,0.13,0.130495514471591,13,5,8,2504.46138212,325.935043343335,245.75017932,32.1847008865092,2258.7112028,293.750342456826,0.000296984848098362,0.1311
2019-08-27,0.13015,0.13,0.13015,0.13,0.130074395155164,5,0,5,131.009016,17.0385755527551,0,0,131.009016,17.0385755527551,9.89949493661273e-05,0.13007
2019-08-28,0.13,0.13,0.13,0.13,0.13,1,0,1,172.009001,22.36117013,0,0,172.009001,22.36117013,NA,0.13
2019-08-29,0.13,0.13,0.13,0.13,0.13,2,0,2,1253.537325,162.95985225,0,0,1253.537325,162.95985225,NA,0.13
2019-08-30,0.13,0.13,0.13,0.13,0.13,2,0,2,3021.898807,392.84684491,0,0,3021.898807,392.84684491,NA,0.13
2019-09-01,0.13,0.13,0.13,0.13,0.13,3,0,3,343.62424506,44.6711518578,0,0,343.62424506,44.6711518578,0,0.13
2019-09-02,0.13066,0.1256,0.13066,0.1256,0.127520126811907,6,1,5,1853.69555006,240.459021903769,24,3.08064,1829.69555006,237.378381903769,0.00195161471607487,0.1256
2019-09-03,0.1256,0.11828,0.1256,0.11828,0.12483335347432,2,0,2,456.78,57.0213792,0,0,456.78,57.0213792,0.00517602163828552,0.12194
2019-09-04,0.11841,0.1095,0.13036,0.1095,0.115175884397822,6,1,5,296.47324,33.74144835118,28.783469,3.75221301884,267.689771,29.98923533234,0.000636396103067886,0.10995
2019-09-05,0.12,0.12,0.12,0.12,0.12,1,0,1,125.517788,15.06213456,0,0,125.517788,15.06213456,NA,0.12
2019-09-07,0.1095,0.1095,0.1095,0.1095,0.1095,1,0,1,39.92,4.37124,0,0,39.92,4.37124,NA,0.1095
2019-09-08,0.1095,0.1055,0.1095,0.1055,0.105976282051282,7,2,5,1101.75423141,116.866621413755,420.92196774,44.40726759657,680.83226367,72.459353817185,0,0.1055
2019-09-09,0.11617,0.129,0.129,0.11617,0.127794046236642,5,5,0,741.51400009,95.0150890104553,741.51400009,95.0150890104553,0,0,0,0.129
2019-09-10,0.12785,0.12785,0.12785,0.12785,0.12785,1,1,0,76.157067,9.73668101595,76.157067,9.73668101595,0,0,NA,0.12785
2019-09-14,0.10251,0.10251,0.10251,0.10251,0.10251,1,0,1,58.311895,5.97755235645,0,0,58.311895,5.97755235645,NA,0.10251
2019-09-15,0.10253,0.11011,0.11011,0.10251,0.106319793327306,3,1,2,2010.90755392,207.038861158671,113.62716192,12.5114867990112,1897.280392,194.52737435966,1.41421356237255e-05,0.11011
2019-09-16,0.11011,0.101,0.11011,0.101,0.105874238286988,3,0,3,47.99865065,5.0061302705588,0,0,47.99865065,5.0061302705588,0.00644174277660945,0.105555
2019-09-17,0.1021,0.1021,0.1021,0.1021,0.1021,3,0,3,705.247403,72.0057598463,0,0,705.247403,72.0057598463,0,0.1021
2019-09-18,0.11,0.11,0.11,0.11,0.11,2,0,2,764.5647003,84.102117033,0,0,764.5647003,84.102117033,NA,0.11
2019-09-19,0.11,0.1232,0.1232,0.11,0.118393333333333,3,0,3,304.15271407,35.463794373424,0,0,304.15271407,35.463794373424,NA,0.1232
2019-09-20,0.12059,0.12059,0.12059,0.12059,0.12059,1,0,1,389.4,46.957746,0,0,389.4,46.957746,NA,0.12059
2019-09-22,0.1269,0.1269,0.1269,0.1269,0.1269,1,1,0,26,3.2994,26,3.2994,0,0,NA,0.1269
2019-09-23,0.1269,0.1269,0.1269,0.1269,0.1269,1,1,0,256,32.4864,256,32.4864,0,0,NA,0.1269
2019-09-24,0.12101,0.1269,0.1269,0.12,0.121946681844222,5,2,3,1912.0513502,236.349535593788,1000,126.776727376886,912.0513502,109.572808216902,0.000678822509939097,0.12642
2019-09-25,0.12101,0.13131,0.13131,0.1165,0.122190604588835,13,8,5,10550.57598302,1245.19159526657,1373.1395848,174.420702187184,9177.43639822,1070.77089307939,0.00209508949689507,0.1285
2019-09-26,0.11828,0.11828,0.11828,0.11828,0.11828,1,0,1,260.804633,30.84797199124,0,0,260.804633,30.84797199124,NA,0.11828
2019-09-30,0.11744,0.1025,0.11744,0.1025,0.108534751891292,6,0,6,1220,137.119503782584,0,0,1220,137.119503782584,0.00501743759303491,0.1025
2019-10-02,0.1052,0.1052,0.1052,0.1052,0.1052,1,0,1,56.026915,5.894031458,0,0,56.026915,5.894031458,NA,0.1052
2019-10-04,0.125,0.1,0.131,0.1,0.118276323879703,11,3,8,4995.71855996,590.92671959781,2500,325.758490000008,2495.71855996,265.168229597802,0.00414245074977189,0.10384125
2019-10-06,0.12239,0.10014,0.12239,0.10014,0.10776,4,1,3,1350.3169467,137.128218845288,58.313699,7.13701362061,1292.0032477,129.991205224678,0.000353553390593274,0.10014
2019-10-07,0.12416,0.10659,0.13,0.10659,0.122812563294206,9,8,1,5056,647.7070957992,5026,644.5093957992,30,3.1977,0.0164614458660228,0.11823
2019-10-08,0.1299,0.131,0.131,0.12633,0.128832421132586,12,9,3,4342.42785632,553.384759049394,4225.26742307,538.462034666341,117.16043325,14.9227243830525,0.00148365427239637,0.131
2019-10-09,0.131,0.13608,0.13608,0.131,0.133818885610219,9,8,1,1034.28616116,137.143550607279,1005.2294852,133.189518142643,29.05667596,3.9540324646368,0.0016800892833418,0.13608
2019-10-11,0.135,0.12,0.135,0.12,0.127526576919031,6,0,6,585.60246011,77.0136947784,0,0,585.60246011,77.0136947784,0.0106066017177982,0.12
2019-10-12,0.12,0.115,0.12,0.115,0.115326197833517,3,0,3,1758.98360973,202.856891761635,0,0,1758.98360973,202.856891761635,0.00275378527364304,0.116833333333333
2019-10-13,0.1151,0.115,0.135,0.115,0.119623326403291,10,5,5,1729.75047673,207.95155376595,488.8449471,65.2448178585,1240.90552963,142.70673590745,0,0.115
2019-10-14,0.1155,0.115,0.14317,0.115,0.124556666666667,3,1,2,468.35152544,57.6747804038611,133.33333333,19.0893333328561,335.01819211,38.585447071005,NA,0.115
2019-10-15,0.11551,0.12947,0.12947,0.115,0.119993333333333,6,3,3,617.81794791,72.8956040152797,117.77670861,15.2485504637367,500.0412393,57.647053551543,0,0.12947
2019-10-16,0.115,0.115,0.115,0.115,0.115,2,0,2,2403.42624913,276.39401864995,0,0,2403.42624913,276.39401864995,NA,0.115
2019-10-17,0.13499,0.115,0.15,0.115,0.121674115947999,33,6,27,7507.38832527,899.699434396968,841.44409063,118.196932974235,6665.94423464,781.502501422732,0,0.115
2019-10-19,0.116,0.116,0.13273,0.116,0.121576666666667,3,1,2,268.92187477,31.62991747332,26,3.45098,242.92187477,28.17893747332,NA,0.116
2019-10-21,0.116,0.11,0.116,0.11,0.112,4,0,4,372.06031101,41.4135415317,0,0,372.06031101,41.4135415317,0,0.11
2019-10-23,0.105,0.105,0.105,0.1025,0.104166666666667,4,3,1,550.656075,57.5688726875,450.656075,47.0688726875,100,10.5,0,0.105
2019-10-29,0.1248,0.1248,0.1248,0.1248,0.1248,1,1,0,173.73913043,21.682643477664,173.73913043,21.682643477664,0,0,NA,0.1248
2019-10-30,0.1248,0.1248,0.1248,0.10111,0.117295784800135,3,2,1,170.948,20.26949228,126,15.7248,44.948,4.54469228,0.0167513596463093,0.1248
2019-10-31,0.12459,0.125,0.12734,0.11172,0.117940565498722,10,5,5,2291.0855381,262.951328411216,701.64154206,84.8921494809821,1589.44399604,178.059178930234,0.00219682346430781,0.125
2019-11-01,0.125,0.125,0.125,0.125,0.125,3,0,3,1888.3524,236.04405,0,0,1888.3524,236.04405,NA,0.125
2019-11-02,0.125,0.125,0.125,0.125,0.125,1,0,1,49.9,6.2375,0,0,49.9,6.2375,NA,0.125
2019-11-03,0.125,0.13072,0.154,0.125,0.136369124883537,33,25,8,18861.76635779,2801.45793962451,15579.25880398,2379.81162784375,3282.50755381,421.646311780764,0.00310202487632407,0.13072
2019-11-04,0.15058,0.13076,0.15058,0.13076,0.140525,4,2,2,492.55752329,69.1337230309482,239.55752329,36.0492530309482,253,33.08447,NA,0.13076
2019-11-05,0.14998,0.12503,0.154,0.12502,0.134808168217018,9,4,5,2024.6432901,282.470087914747,1000,151.412930355782,1024.6432901,131.057157558965,0.00250344262966022,0.12503
2019-11-09,0.14318,0.14318,0.14318,0.14318,0.14318,1,1,0,50,7.159,50,7.159,0,0,NA,0.14318
2019-11-10,0.127,0.127,0.127,0.127,0.127,1,0,1,49,6.223,0,0,49,6.223,NA,0.127
2019-11-11,0.14348,0.127,0.14348,0.127,0.132857694798317,2,1,1,84.40180259,11.21342892893,30,4.3044,54.40180259,6.90902892893,0.0116531197539543,0.13524
2019-11-12,0.135,0.135,0.135,0.135,0.135,1,1,0,131,17.685,131,17.685,0,0,NA,0.135
2019-11-13,0.127,0.125,0.127,0.125,0.126208,5,2,3,1397.19999999,175.238202458766,285.70015277,36.28391940179,1111.49984722,138.954283056976,NA,0.125
2019-11-14,0.135,0.125,0.135,0.125,0.128693333333333,3,1,2,165.47689303,21.536374955262,80.04184537,10.80564912495,85.43504766,10.730725830312,NA,0.125
2019-11-15,0.11106,0.11106,0.11106,0.11106,0.11106,1,0,1,299.689861,33.28355596266,0,0,299.689861,33.28355596266,NA,0.11106
2019-11-17,0.12911,0.13,0.13,0.12911,0.129555,2,2,0,193.92466426,25.167978999238,193.92466426,25.167978999238,0,0,NA,0.13
2019-11-18,0.113,0.13,0.13,0.11053,0.120920431898293,3,1,2,278.49,31.6186997,26,3.38,252.49,28.2386997,0.00174655374953077,0.13
2019-11-19,0.13,0.111,0.1485,0.111,0.122949692181389,5,2,3,937.52830277,120.119553481946,750,98.425,187.52830277,21.6945534819462,0.0265165042944955,0.111
2019-11-20,0.1485,0.122,0.154,0.10628,0.130969151454648,26,12,14,21427.4100687,2841.15396920795,10299.599,1573.81326085287,11127.8110687,1267.34070835508,0.010513597318303,0.132715714285714
2019-11-21,0.122,0.1,0.122,0.1,0.106012699730859,14,4,10,4954.72086228,526.458348517061,1031.1178036,103.576017059401,3923.60305868,422.88233145766,4.49073119510246e-05,0.100018333333333
2019-11-23,0.1,0.1,0.1,0.1,0.1,1,0,1,1100,110,0,0,1100,110,NA,0.1
2019-11-24,0.122,0.1358,0.1358,0.1,0.132005120703845,12,5,7,3306.73654173,436.506156326884,2325.40731762,305.052393814226,981.32922411,131.453762512658,0.0105662975869966,0.130655833333333
2019-11-26,0.12,0.10681,0.12,0.10681,0.113405,2,0,2,250.45057304,28.7923621184694,0,0,250.45057304,28.7923621184694,NA,0.10681
2019-11-28,0.105,0.10022,0.105,0.1,0.100130594755769,3,0,3,5512.455675,551.4815455,0,0,5512.455675,551.4815455,0.00353553390593274,0.10022
2019-11-29,0.10513,0.1,0.10513,0.1,0.102022196874406,8,0,8,3996.134171,403.912362915333,0,0,3996.134171,403.912362915333,0.000257189942779001,0.100183333333333
2019-11-30,0.11336,0.13,0.13,0.11336,0.120258942744017,12,12,0,2599.29715024,308.79215241031,2599.29715024,308.79215241031,0,0,0.005,0.1275
2019-12-03,0.12999,0.13488,0.13488,0.12999,0.130480978025194,3,3,0,218.08063321,28.4553743095944,218.08063321,28.4553743095944,0,0,0.00282036049705234,0.131623333333333
2019-12-08,0.132,0.132,0.132,0.132,0.132,2,0,2,482.54532424,63.69598279968,0,0,482.54532424,63.69598279968,0,0.132
2019-12-09,0.10452,0.1035,0.10452,0.1035,0.10418,3,0,3,648.28921275,67.589662777785,0,0,648.28921275,67.589662777785,NA,0.1035
2019-12-10,0.10357,0.1,0.10357,0.1,0.101688673911514,7,0,7,2000,203.377347823027,0,0,2000,203.377347823027,0.00155876477348174,0.101831428571429
2019-12-11,0.105,0.10154,0.105,0.10154,0.10466376006915,8,3,5,1292.50571249,134.701030046235,292.50571249,29.7010300462346,1000,105,0.00189512004896787,0.10327
2019-12-14,0.10118,0.09,0.10118,0.09,0.0949366953723041,14,0,14,3073.43157157,295.112109230574,0,0,3073.43157157,295.112109230574,0.000692318809027557,0.0904486666666667
2019-12-16,0.095,0.095,0.095,0.095,0.095,1,0,1,50,4.75,0,0,50,4.75,NA,0.095
2019-12-17,0.1095,0.1095,0.1095,0.1095,0.1095,1,1,0,46,5.037,46,5.037,0,0,NA,0.1095
2019-12-19,0.065,0.062866,0.065,0.062866,0.0643902857142857,2,0,2,140,9.01464,0,0,140,9.01464,0.00150896587105209,0.063933
2019-12-21,0.066,0.063829,0.066,0.063829,0.0648123834268896,2,0,2,1103.8420725,71.5426356456025,0,0,1103.8420725,71.5426356456025,0.001535128821956,0.0649145
2019-12-23,0.066622,0.071103,0.071103,0.066622,0.0688625,3,2,1,211.78,14.3777983,59.94,4.26191382,151.84,10.11588448,0,0.071103
2019-12-27,0.089,0.068776,0.089,0.068776,0.0731609692825158,3,1,2,178.3425,13.347740725,52,4.628,126.3425,8.719740725,0.0139993000539313,0.068776
2019-12-30,0.087,0.087654,0.087654,0.087,0.08734620144,2,2,0,250,21.83655036,250,21.83655036,0,0,0.000462447834896008,0.087327
