"time","open","close","high","low","vwap","n_trades","n_buy","n_sell","vol_base","vol_quote","vol_buy_base","vol_buy_quote","vol_sell_base","vol_sell_quote","stddev","mean"
2019-01-02,0.012,0.005,0.012,7e-04,0.00580529348004048,69,4,65,3538926.32712347,6406.2984473989,11671.51065833,140.05812789996,3527254.81646514,6266.24031949894,0,0.005
2019-01-03,0.0095,0.0097,0.01012,0.008,0.00941676224483546,25,20,5,243835.68686635,2309.56403474861,224562.22481635,2129.74387880261,19273.46205,179.820155946,0.000154219988976786,0.0097
2019-01-04,0.0080456,0.0093176,0.0093176,0.00557,0.0076444,3,1,2,17703.20345617,145.426201776464,10513.39132394,97.9595749999434,7189.81213223,47.4666267765211,NA,0.0093176
2019-01-05,0.0061001,0.0080081,0.0089132,0.0061001,0.0076738,3,1,2,13796.03276259,106.575081332282,5131,45.7336292,8665.03276259,60.841452132282,NA,0.0080081
2019-01-06,0.0082999,0.006244,0.0082999,0.006244,0.00727195,3,0,3,6145.62474095,46.9044943874109,0,0,6145.62474095,46.9044943874109,0,0.006244
2019-01-07,0.0075,0.0089,0.0089,0.0075,0.00816666666666667,3,3,0,12235.74096954,99.920511569952,12235.74096954,99.920511569952,0,0,NA,0.0089
2019-01-08,0.00871,0.0088999,0.0088999,0.00871,0.00879766153535135,2,2,0,3700,32.5513476808,3700,32.5513476808,0,0,0.000134279577747325,0.00880495
2019-01-09,0.0087,0.00859,0.0088158,0.00859,0.00862291047972814,5,5,0,93507.81451047,806.760130071794,93507.81451047,806.760130071794,0,0,8.18829652614035e-05,0.00859
2019-01-10,0.006711,0.0065008,0.00811,0.0065008,0.00700123444313257,3,1,2,25430.8540289,172.249527743948,1340,10.8674,24090.8540289,161.382127743948,0.00113787623228539,0.0073054
2019-01-12,0.0073,0.00571,0.0073,0.00571,0.00634403687292202,6,0,6,50614.16410852,301.853575007168,0,0,50614.16410852,301.853575007168,7.07106781191548e-08,0.00571
2019-01-14,0.0069989,0.005733,0.007485,0.005733,0.00694261885480573,6,4,2,49018.28380449,320.011309756608,24568.28380449,179.541309756608,24450,140.47,4.73761543394982e-05,0.0057665
2019-01-17,0.0051455,0.0051455,0.0051455,0.0051455,0.0051455,1,0,1,5321.16819664,27.3800709558111,0,0,5321.16819664,27.3800709558111,NA,0.0051455
2019-01-18,0.0071,0.00678,0.0071,0.0055,0.006376,5,2,3,25877.2,169.014968,13882.2,95.542468,11995,73.4725,NA,0.00678
2019-01-19,0.00791,0.00791,0.00791,0.00791,0.00791,1,1,0,8030,63.5173,8030,63.5173,0,0,NA,0.00791
2019-01-20,0.0078224,0.0077,0.007895,0.0077,0.00782053876526636,5,5,0,39476.05029216,310.363664817973,39476.05029216,310.363664817973,0,0,4.05493937480358e-05,0.0077
2019-01-21,0.0077,0.0077,0.0077,0.0077,0.0077,1,1,0,1864,14.3528,1864,14.3528,0,0,NA,0.0077
2019-01-22,0.00577,0.00577,0.00577,0.00577,0.00577,1,0,1,5955,34.36035,0,0,5955,34.36035,NA,0.00577
2019-01-25,0.0059,0.00578,0.0059,0.00578,0.0058122,3,0,3,5696.2,33.168756,0,0,5696.2,33.168756,7.86302740679435e-05,0.00578
2019-01-26,0.0077,0.0077,0.0077,0.0077,0.0077,1,1,0,4194.84693966,32.300321435382,4194.84693966,32.300321435382,0,0,NA,0.0077
2019-01-28,0.00766,0.0046,0.00766,0.004,0.00481449827123494,96,21,75,2974533.03272539,13710.9982230621,512881.1757185,2990.47096495938,2461651.85700689,10720.5272581027,3.25883414735996e-06,0.0046
2019-01-29,0.00422,0.00542,0.0058,0.004111,0.00465921790746819,19,12,7,278243.60808418,1334.57633067007,162408.55289166,846.03884649638,115835.05519252,488.537484173693,5.25198375219627e-05,0.0053725
2019-01-30,0.0052,0.00435,0.00528,0.0043,0.00487624740816867,18,9,9,239393.01229743,1135.25339806848,120300.17564476,607.394002508248,119092.83665267,527.859395560229,7.87465978101061e-05,0.004391
2019-01-31,0.004713,0.0048771,0.0048771,0.004713,0.00478198347872676,4,4,0,41939,199.575281939902,41939,199.575281939902,0,0,9.33332916666574e-05,0.00482073333333333
2019-02-01,0.00531,0.006245,0.0065,0.00531,0.00600211291150917,14,14,0,222322.91787573,1305.61135761938,222322.91787573,1305.61135761938,0,0,0.000353553390593273,0
2019-02-03,0.0061495,0.0061495,0.0061495,0.0061495,0.0061495,1,1,0,6546.77231385,40.2593763440206,6546.77231385,40.2593763440206,0,0,NA,0.0061495
2019-02-04,0.00478,0.00502,0.00502,0.0045046,0.00480802738855305,6,0,6,232042.61812005,1066.24495544962,0,0,232042.61812005,1066.24495544962,3.81837661840768e-06,0.00502
2019-02-05,0.005512,0.00601,0.00601,0.005255,0.00550441117932275,6,4,2,57646.68373274,331.999434544309,45615.02981282,268.772390029738,12031.65391992,63.2270445145716,1.44049759921127e-05,0.00600163333333333
2019-02-08,0.005985,0.007191,0.008389,0.005985,0.00684921653512214,16,15,1,386925.73141918,2566.80645290957,382373.71338586,2534.07289123197,4552.01803332,32.7335616776041,1.4142135623647e-07,0.007191
2019-02-09,0.00719,0.008121,0.00854,0.00719,0.00806,4,3,1,40685.58548953,336.460590071667,31685.58548953,263.371590071667,9000,73.089,NA,0.008121
2019-02-10,0.008121,0.007542,0.008121,0.007542,0.00779846666666667,6,2,4,16194.16417155,126.991083039249,9676.27732326,77.8205917407606,6517.88684829,49.170491298488,NA,0.007542
2019-02-11,0.008094,0.00852,0.008529,0.0070242,0.00814447045902493,15,12,3,52620.02469136,430.610999866683,43474.02469136,358.837066666683,9146,71.7739332,0.000147785317267989,0.00852
2019-02-12,0.0085399,0.00891,0.00891,0.0085399,0.00869021262555707,4,4,0,15964.53733458,137.795323432982,15964.53733458,137.795323432982,0,0,0.000261629509039022,0.008725
2019-02-13,0.008901,0.0089182,0.0089182,0.008901,0.00891234355768823,4,4,0,20015,178.38055630713,20015,178.38055630713,0,0,7.02489620326744e-06,0.008909775
2019-02-16,0.0089182,0.0080112,0.0093149,0.0080112,0.00858584529152817,3,2,1,4697.9161809,40.102323699665,2146,19.6584127912389,2551.9161809,20.4439109084261,0.000280509260096703,0.0080112
2019-02-17,0.0093149,0.0080112,0.0093149,0.0080112,0.00866305,9,8,1,41165.96300609,377.986764345428,36970.16300609,344.373371385428,4195.8,33.61339296,0,0.0080112
2019-02-18,0.0093176,0.00865,0.0093176,0.0080255,0.00866436666666667,3,2,1,10210.49293728,87.2329010820009,6174.41219193,54.8413350601945,4036.08074535,32.3915660218064,NA,0.00865
2019-02-19,0.0081272,0.008026,0.0081272,0.008026,0.00807752326120034,5,2,3,15984,128.912623558783,5994,48.7144368,9990,80.1981867587828,1.24230967690549e-06,0.00802743333333333
2019-02-20,0.0093175,0.00965,0.00965,0.0093175,0.00943493288495063,3,3,0,16156.27144352,152.433336740656,16156.27144352,152.433336740656,0,0,0.00019194010350454,0.00942836666666667
2019-02-21,0.00808,0.0087088,0.0088,0.00808,0.0085972,4,2,2,22786.19423019,192.11320343607,9253.79101731,81.433360952328,13532.40321288,110.679842483742,NA,0.0087088
2019-02-22,0.008026,0.0080112,0.008026,0.0080112,0.00802430150510873,2,0,2,3395.38839764,27.2456202296114,0,0,3395.38839764,27.2456202296114,1.04651803615619e-05,0.0080186
2019-02-23,0.0096499,0.009899,0.009899,0.00964,0.00973167525930568,4,4,0,23591.62042743,229.270207164249,23591.62042743,229.270207164249,0,0,7.0710678118658e-06,0.009899
2019-02-25,0.0080112,0.00801,0.0080112,0.00801,0.00801076577327611,2,0,2,11224.13410702,89.9139093391769,0,0,11224.13410702,89.9139093391769,8.48528137423724e-07,0.0080106
2019-03-02,0.00801,0.00801,0.00801,0.00801,0.00801,1,0,1,17934,143.65134,0,0,17934,143.65134,NA,0.00801
2019-03-03,0.0095,0.0098,0.009899,0.0095,0.00979135268389607,6,6,0,43646,426.678628610186,43646,426.678628610186,0,0,0.000105358910396795,0.0098
2019-03-05,0.0098,0.009899,0.009899,0.0098,0.00985188284147044,2,2,0,6873.69330213,67.7188211007849,6873.69330213,67.7188211007849,0,0,7.00035713374677e-05,0.0098495
2019-03-06,0.0080115,0.0071,0.0080115,0.0071,0.00762275877984071,10,0,10,80460.36,611.517114504658,0,0,80460.36,611.517114504658,0.000236742481401205,0.007305025
2019-03-11,0.0097,0.0097,0.0097,0.0097,0.0097,1,1,0,4297.21229775,41.682959288175,4297.21229775,41.682959288175,0,0,NA,0.0097
2019-03-14,0.00711,0.00711,0.00711,0.00711,0.00711,1,0,1,4288.61787315,30.4920730780965,0,0,4288.61787315,30.4920730780965,NA,0.00711
2019-03-17,0.0073,0.0073,0.0073,0.0073,0.0073,2,2,0,172321.20767978,1257.94481606239,172321.20767978,1257.94481606239,0,0,0,0.0073
2019-03-20,0.008799,0.008799,0.008799,0.008799,0.008799,1,1,0,3117.46450882,27.4305702131072,3117.46450882,27.4305702131072,0,0,NA,0.008799
2019-03-24,0.0086,0.0074258,0.0086,0.0074258,0.0080129,2,1,1,4359.43951683,34.971346644738,2213.43951683,19.035579844738,2146,15.9357668,NA,0.0074258
2019-03-25,0.0089,0.0089,0.0089,0.0089,0.0089,2,2,0,3900,34.71,3900,34.71,0,0,0,0.0089
2019-03-26,0.0089,0.0089,0.0089,0.0086,0.0088,4,3,1,6529.18895,57.453095635,4340.23555,38.628096395,2188.9534,18.82499924,0,0.0089
2019-03-27,0.0086,0.0078,0.0086,0.0057506,0.00678954439062058,36,4,32,161704.56382519,1014.32375849052,9920.12915125,62.171885487786,151784.43467394,952.151873002737,5.02045814642411e-06,0.0078
2019-03-28,0.007,0.007,0.007,0.007,0.007,1,0,1,2501.71036637,17.51197256459,0,0,2501.71036637,17.51197256459,NA,0.007
2019-03-29,0.0075998,0.0076,0.0076,0.0075998,0.00759996162696933,3,3,0,29885,227.124853221978,29885,227.124853221978,0,0,9.99999999999482e-08,0.0075999
2019-03-30,0.0076,0.0081,0.0081,0.0076,0.00783333333333333,3,3,0,22662.32096797,175.528247270694,22662.32096797,175.528247270694,0,0,NA,0.0081
2019-03-31,0.008,0.008,0.008,0.008,0.008,4,0,4,133000,1064,0,0,133000,1064,NA,0.008
2019-04-01,0.0083351,0.0083351,0.0083351,0.0083351,0.0083351,2,2,0,4513.71991263,37.6223068437623,4513.71991263,37.6223068437623,0,0,NA,0.0083351
2019-04-02,0.0083351,0.009699,0.010148,0.0083351,0.00943118983323506,22,18,4,130003.17749681,1235.12142742035,94689.83676577,915.616942477441,35313.34073104,319.504484942906,0.000140714249456122,0.0095995
2019-04-03,0.0096702,0.00968,0.00968,0.0096702,0.00967192645216329,3,3,0,5626.88536364,54.425126007604,5626.88536364,54.425126007604,0,0,6.9296464556281e-06,0.0096751
2019-04-04,0.0081852,0.0081852,0.0081852,0.0081852,0.0081852,5,0,5,10984.6753758,89.9117648859982,0,0,10984.6753758,89.9117648859982,0,0.0081852
2019-04-07,0.0101,0.0101,0.0101,0.0101,0.0101,1,1,0,2146,21.6746,2146,21.6746,0,0,NA,0.0101
2019-04-11,0.010098,0.010098,0.010098,0.010098,0.010098,1,1,0,10000,100.98,10000,100.98,0,0,NA,0.010098
2019-04-14,0.0071054,0.0085842,0.008593,0.0062309,0.00686367894713116,20,11,9,410588.21482782,2779.02121801308,314422.59712108,2117.80305676028,96165.61770674,661.218161252794,5.08068236886858e-06,0.00858713333333333
2019-04-15,0.00845,0.00845,0.00845,0.00845,0.00845,2,0,2,3551.44545799,30.0097141200155,0,0,3551.44545799,30.0097141200155,0,0.00845
2019-04-22,0.0060501,0.0060501,0.0060501,0.0060501,0.0060501,1,0,1,1334,8.0708334,0,0,1334,8.0708334,NA,0.0060501
2019-04-23,0.0060501,0.0060501,0.0060501,0.0060501,0.0060501,1,0,1,5000,30.2505,0,0,5000,30.2505,NA,0.0060501
2019-04-24,0.0060501,0.0060501,0.0060501,0.0060501,0.0060501,1,0,1,1347.30299716,8.15131786311771,0,0,1347.30299716,8.15131786311771,NA,0.0060501
2019-04-25,0.0079883,0.0060411,0.0079883,0.0060411,0.0070147,2,1,1,5364.50476155,35.7987568422851,1741.60185255,13.9124380787252,3622.902909,21.8863187635599,NA,0.0060411
2019-04-26,0.0078545,0.0078544,0.0078545,0.0078544,0.00785445,3,3,0,5569.54846383,43.7457943145749,5569.54846383,43.7457943145749,0,0,0,0.0078544
2019-04-27,0.0079999,0.00672,0.008,0.00672,0.00757331234190356,4,3,1,20630.17514035,161.400100298244,17786.17514035,142.288420298244,2844,19.11168,7.07106781182348e-08,0.00672
2019-04-29,0.0068366,0.006,0.0068366,0.006,0.00645532282438754,6,0,6,67046.59061083,417.42491510812,0,0,67046.59061083,417.42491510812,9.60701930881789e-05,0.00609642
2019-04-30,0.00713,0.0094706,0.0094706,0.00713,0.0083003,2,1,1,5311.30558911,40.2102088503543,1000,9.4706,4311.30558911,30.7396088503543,NA,0.0094706
2019-05-01,0.0094899,0.00949,0.00949,0.00712,0.00819576359497007,15,8,7,283213.81895253,2107.24419900429,33077.81895253,313.703991004295,250136,1793.540208,5.31290880779981e-06,0.00948418
2019-05-03,0.0072,0.0062,0.0094,0.0062,0.0076,3,1,2,7139,53.1568,2000,18.8,5139,34.3568,NA,0.0062
2019-05-04,0.0094,0.0094,0.0094,0.0094,0.0094,1,1,0,490.01,4.606094,490.01,4.606094,0,0,NA,0.0094
2019-05-06,0.0094,0.00947,0.00947,0.0094,0.00943931730232558,3,3,0,3660,34.47549016,3660,34.47549016,0,0,4.94974746830582e-05,0.00947
2019-05-07,0.0074001,0.0078,0.0078,0.0074001,0.0076667,3,0,3,17644.7,136.57104447,0,0,17644.7,136.57104447,NA,0.0078
2019-05-08,0.0078102,0.0078102,0.0078102,0.0078102,0.0078102,1,0,1,5374.80123257,41.9782725866182,0,0,5374.80123257,41.9782725866182,NA,0.0078102
2019-05-09,0.0079102,0.0074,0.0079102,0.0074,0.00774016194304616,4,0,4,33838.9338764,262.972677903449,0,0,33838.9338764,262.972677903449,7.07106781182348e-08,0.00740005
2019-05-12,0.009336,0.00925,0.0093361,0.00925,0.00932034339029234,5,2,3,52408.67844326,487.449371767048,13345.0687611,124.590229207068,39063.60968216,362.85914255998,4.59383645043371e-05,0.00930233333333333
2019-05-13,0.0095,0.009519,0.009519,0.0095,0.0095095,2,1,1,10742,102.234117,999,9.4905,9743,92.743617,NA,0.009519
2019-05-14,0.010795,0.0108,0.0108,0.010795,0.0107986764696967,5,5,0,68650,741.221271924963,68650,741.221271924963,0,0,2.64575131106543e-06,0.0108
2019-05-15,0.0072001,0.0075396,0.01049,0.0071113,0.00885716468017604,9,4,5,57210,477.861878745541,20400,213.428652635541,36810,264.43322611,7.07106781186641e-07,0.0075396
2019-05-16,0.00771,0.00771,0.00771,0.00771,0.00771,1,0,1,20782.28943568,160.231451549093,0,0,20782.28943568,160.231451549093,NA,0.00771
2019-05-19,0.00771,0.006213,0.00771,0.0062,0.00650562238998889,5,0,5,58926.36558057,399.425039662485,0,0,58926.36558057,399.425039662485,0.000705705009192934,0.006213
2019-05-20,0.0063,0.0087,0.0087,0.006215,0.00709863729794487,4,1,3,65805.78463222,421.522953682057,3000,26.1,62805.78463222,395.422953682057,6.01040764008565e-05,0.0087
2019-05-23,0.00865,0.00865,0.00865,0.00865,0.00865,1,1,0,1000,8.65,1000,8.65,0,0,NA,0.00865
2019-05-24,0.0067395,0.0067395,0.0067395,0.0067395,0.0067395,1,0,1,998,6.726021,0,0,998,6.726021,NA,0.0067395
2019-05-28,0.0085,0.00921,0.00921,0.0085,0.00898556381721277,3,3,0,8626.93826679,77.5179043433965,8626.93826679,77.5179043433965,0,0,0.000385883833988071,0.00876766666666667
2019-05-30,0.0071001,0.0071,0.0071001,0.0068205,0.00706895293672928,10,6,4,52501.49230509,372.482569698567,38450.16802287,272.996192962377,14051.32428222,99.4863767361902,7.07106781182348e-08,0.0071
2019-05-31,0.00675,0.0071,0.0071,0.0064211,0.00667008274703062,9,2,7,35584.35211268,233.054613921496,4895.35211268,34.757000000028,30689,198.297613921468,7.07106781191548e-08,0.0071
2019-06-01,0.0064211,0.0064211,0.0064211,0.0064211,0.0064211,1,0,1,2147.46969058,13.7891176301832,0,0,2147.46969058,13.7891176301832,NA,0.0064211
2019-06-03,0.0064377,0.0064377,0.0064377,0.0064377,0.0064377,1,0,1,668.66,4.304632482,0,0,668.66,4.304632482,NA,0.0064377
2019-06-04,0.0085,0.0064211,0.00883,0.0064211,0.00749170779896563,37,20,17,76639.62408512,565.158859417411,35371.04749631,286.37074998203,41268.57658881,278.788109435381,0.000277915051469569,0.006661825
2019-06-08,0.00873,0.00873,0.00873,0.00873,0.00873,1,1,0,1000,8.73,1000,8.73,0,0,NA,0.00873
2019-06-09,0.0066001,0.0066,0.0066001,0.0066,0.00660005545545546,2,0,2,999,6.5934554,0,0,999,6.5934554,7.07106781185415e-08,0.00660005
2019-06-10,0.0066601,0.00666,0.0066601,0.00666,0.00666002970596988,2,0,2,1864.945,12.4205891,0,0,1864.945,12.4205891,7.07106781191548e-08,0.00666005
2019-06-12,0.00873,0.00873,0.00873,0.00873,0.00873,1,1,0,1260,10.9998,1260,10.9998,0,0,NA,0.00873
2019-06-16,0.0076053,0.00673,0.0086,0.00673,0.007635175,4,3,1,4162.18,31.67350143768,3554,27.58045003768,608.18,4.0930514,NA,0.00673
2019-06-17,0.00858,0.0067,0.0091099,0.0067,0.00813342544389641,6,2,4,15738.52982384,120.212983971109,7128.84543359,62.4387616154615,8609.68439025,57.7742223556478,1.43493031189668e-05,0.006708525
2019-06-18,0.0091099,0.0091099,0.0091099,0.0091099,0.0091099,2,2,0,11419.8857629,104.034017311443,11419.8857629,104.034017311443,0,0,0,0.0091099
2019-06-19,0.0070011,0.0090999,0.0090999,0.0067,0.00760027243164806,6,1,5,7607.25570277,54.8135582800231,1000,9.0999,6607.25570277,45.7136582800231,7.07106781182348e-08,0.0090999
2019-06-22,0.0090908,0.0090888,0.0090908,0.0067555,0.0083117,3,2,1,2628.391,21.3831516005,1554,14.1251032,1074.391,7.2580484005,NA,0.0090888
2019-06-23,0.00898,0.00898,0.00898,0.00898,0.00898,2,2,0,2230.9829353,20.034226758994,2230.9829353,20.034226758994,0,0,NA,0.00898
2019-06-24,0.0087999,0.0087999,0.0087999,0.0087999,0.0087999,1,1,0,576.06424886,5.06930778354311,576.06424886,5.06930778354311,0,0,NA,0.0087999
2019-06-25,0.0070281,0.0089,0.0089,0.006754,0.00790450604790916,22,14,8,221885.57471297,1756.83285513091,159836.17365345,1324.16131596625,62049.40105952,432.671539164657,8.28530848349452e-05,0.00876311666666667
2019-06-26,0.0068111,0.0068111,0.0068111,0.0068111,0.0068111,1,0,1,1657.69836729,11.2907493494489,0,0,1657.69836729,11.2907493494489,NA,0.0068111
2019-06-27,0.0070001,0.007,0.0070001,0.007,0.00700004980523237,6,0,6,17005.55564169,119.039863487885,0,0,17005.55564169,119.039863487885,5.7735026919496e-08,0.00700003333333333
2019-06-28,0.0084999,0.00869,0.0089,0.0076501,0.00842046111758421,65,61,4,705397.06495274,6263.16763253361,698869.07641274,6207.58735552101,6527.98854,55.5802770126,5.77350269186197e-08,0.00869
2019-06-29,0.00865,0.00869,0.00869,0.00865,0.00868348029490931,2,2,0,7742.78619751,67.2343313737739,7742.78619751,67.2343313737739,0,0,2.82842712474614e-05,0.00867
2019-06-30,0.0070505,0.0070181,0.0070505,0.0070081,0.00702882954462764,5,0,5,18004.36447232,126.489947702392,0,0,18004.36447232,126.489947702392,2.3661220030534e-05,0.0070181
2019-07-04,0.0088,0.0088,0.0088,0.0088,0.0088,1,1,0,2300,20.24,2300,20.24,0,0,NA,0.0088
2019-07-05,0.008777,0.008777,0.008777,0.008777,0.008777,1,1,0,1334.0660279,11.7090975268783,1334.0660279,11.7090975268783,0,0,NA,0.008777
2019-07-06,0.0087111,0.0070777,0.0087111,0.0070777,0.0078944,2,1,1,14812.9339721,114.09623932436,5665.9339721,49.3565174243603,9147,64.7397219,NA,0.0070777
2019-07-09,0.0071,0.0070777,0.0071,0.0070777,0.00709555785785786,2,0,2,999,7.0884623,0,0,999,7.0884623,1.57684812204605e-05,0.00708885
2019-07-10,0.0085,0.0145,0.0147,0.0085,0.0122688602066902,61,60,1,488888.96366128,5703.21037117784,481888.96366128,5642.52037117784,7000,60.69,4.34971263418634e-05,0.014463
2019-07-11,0.009777,0.00761,0.009777,0.00761,0.0086290914447191,9,0,9,41117.25089131,338.534602963975,0,0,41117.25089131,338.534602963975,0.000202603068420331,0.00782755
2019-07-13,0.010777,0.010777,0.010777,0.010777,0.010777,2,2,0,888,9.569976,888,9.569976,0,0,NA,0.010777
2019-07-14,0.0105,0.0080001,0.011,0.0080001,0.00973347675943532,8,6,2,22971.16874549,218.67963175199,13907.11274549,146.16627734639,9064.056,72.5133544056,7.07106781186641e-07,0.0080001
2019-07-15,0.0081601,0.00816,0.0109,0.00816,0.00907360215235136,6,1,5,34813.88733252,286.802798783921,989.04373252,10.780576684468,33824.8436,276.022222099453,1.12694276695814e-06,0.0081607
2019-07-16,0.0083001,0.00816,0.0109,0.00816,0.00888852001948431,8,1,7,12340.738345,110.16912457246,3359.247999,36.6158031891,8981.490346,73.55332138336,1.89568808967445e-05,0.00817445
2019-07-17,0.00816,0.0081,0.00816,0.0081,0.00815930840924515,2,0,2,86756.509654,707.87311877664,0,0,86756.509654,707.87311877664,4.24264068711936e-05,0.00813
2019-07-19,0.0081,0.0072,0.0081,0.0072,0.00760361226661886,9,0,9,12215.70669157,90.9925387510702,0,0,12215.70669157,90.9925387510702,5.77350269192457e-08,0.00720006666666667
2019-07-22,0.01,0.01,0.01,0.01,0.01,1,1,0,1000,10,1000,10,0,0,NA,0.01
2019-07-26,0.0069696,0.0069696,0.0069696,0.0069696,0.0069696,1,0,1,1500,10.4544,0,0,1500,10.4544,NA,0.0069696
2019-07-27,0.0095,0.006973,0.0099599,0.006973,0.00844313347830775,3,2,1,9838.31,93.14288573,8346.3,82.7391,1492.01,10.40378573,0.000325198408667693,0.006973
2019-07-28,0.00701,0.00701,0.00701,0.00701,0.00701,1,0,1,1840.842523,12.90430608623,0,0,1840.842523,12.90430608623,NA,0.00701
2019-07-29,0.0073001,0.0073001,0.0073001,0.0073001,0.0073001,1,0,1,444,3.2412444,0,0,444,3.2412444,NA,0.0073001
2019-07-30,0.0073037,0.0073,0.0073037,0.0073,0.00730042261456785,4,0,4,44503.157477,324.891857264765,0,0,44503.157477,324.891857264765,1.81727818453842e-06,0.007300975
2019-08-01,0.0075076,0.0075,0.0075076,0.0075,0.00750016888888889,2,0,2,19980,149.8533744,0,0,19980,149.8533744,5.37401153701774e-06,0.0075038
2019-08-02,0.0075076,0.0075,0.0075076,0.0075,0.00750530998767875,6,0,6,3173.13378448,23.8086265836,0,0,3173.13378448,23.8086265836,5.37401153701774e-06,0.0075038
2019-08-05,0.0076,0.0076,0.0076,0.0076,0.0076,1,0,1,2994,22.7544,0,0,2994,22.7544,NA,0.0076
2019-08-10,0.0076077,0.0075,0.0076077,0.0075,0.00750336241438935,5,0,5,18536.86621552,139.0882898164,0,0,18536.86621552,139.0882898164,5.37401153701774e-06,0.0075038
2019-08-12,0.0095061,0.0075,0.0096084,0.0061,0.00817291605593482,18,9,9,62876.91666226,430.167494647857,6806.06556304,62.505394626696,56070.85109922,367.662100021161,0.000259686786340776,0.0075
2019-08-13,0.005211,0.005211,0.005211,0.005211,0.005211,1,0,1,2991.9051,15.5908174761,0,0,2991.9051,15.5908174761,NA,0.005211
2019-08-14,0.00527,0.0058,0.0059,0.0048049,0.00529133599600237,22,3,19,245514.10319622,1272.8242382423,33322.27150325,195.96917471885,212191.83169297,1076.85506352345,2.82901631902939e-06,0.0058
2019-08-17,0.0028013,0.0057,0.0057,0.00245,0.00272760386654197,5,2,3,118432.74890078,323.145582032467,3700,21.09,114732.74890078,302.055582032467,0.00187638837486628,0.00461666666666667
2019-08-19,0.0055,0.0055,0.0055,0.0055,0.0055,2,2,0,5000,27.5,5000,27.5,0,0,NA,0.0055
2019-08-24,0.00247,0.00247,0.00247,0.00247,0.00247,1,0,1,1067.86,2.6376142,0,0,1067.86,2.6376142,NA,0.00247
2019-08-28,0.00539,0.00539,0.00539,0.00539,0.00539,1,1,0,702,3.78378,702,3.78378,0,0,NA,0.00539
2019-09-01,0.0031273,0.0031295,0.0031295,0.0031273,0.0031284,2,0,2,11699.198,36.608240141,0,0,11699.198,36.608240141,NA,0.0031295
2019-09-07,0.0031295,0.003129,0.0031295,0.003129,0.00312925,2,2,0,1416,4.431015,1416,4.431015,0,0,NA,0.003129
2019-09-08,0.003,0.003,0.003,0.003,0.003,1,0,1,2000,6,0,0,2000,6,NA,0.003
2019-09-12,0.0026,0.0025,0.0026,0.0025,0.002518,4,1,3,30500,76.988,10000,25,20500,51.988,5.00133315560295e-05,0.0025
2019-09-23,0.003058,0.00271,0.0031295,0.00271,0.0029842422,4,3,1,24104,74.803411,22990,71.784471,1114,3.01894,5.0558134854838e-05,0.00271
2019-09-26,0.0028424,0.0029,0.0043,0.00271,0.00354328120586202,14,8,6,136782.991597,452.160530545387,50622.991597,205.69738900888,86160,246.463141536507,0.00059223168045397,0.00326676666666667
2019-09-27,0.0027875,0.002762,0.0027875,0.002762,0.00277475,2,0,2,12922.794257,35.7815670533875,0,0,12922.794257,35.7815670533875,NA,0.002762
2019-09-28,0.00271,0.00271,0.00271,0.00271,0.00271,1,0,1,3240.25375845,8.7810876853995,0,0,3240.25375845,8.7810876853995,NA,0.00271
2019-09-30,0.0023559,0.0023703,0.0023703,0.0022574,0.00232935911182951,4,1,3,99109.41095943,227.175255308957,4536.70095943,10.7533422841369,94572.71,216.42191302482,5.68401559932179e-05,0.0023703
2019-10-02,0.0023703,0.0023703,0.0023703,0.0023703,0.0023703,1,1,0,453.29904057,1.07445471586307,453.29904057,1.07445471586307,0,0,NA,0.0023703
2019-10-06,0.0023123,0.0022001,0.0023123,0.0022001,0.00221754566977098,4,0,4,181860.6600199,403.284319128821,0,0,181860.6600199,403.284319128821,5.54251071266444e-05,0.002229175
2019-10-07,0.00388,0.0024091,0.00388,0.0024091,0.00291671542750929,3,1,2,3228,9.4151574,1114,4.32232,2114,5.0928374,0.000849224510951021,0.0028994
2019-10-10,0.00241,0.0010631,0.00241,0.0010631,0.00176719400743953,29,13,16,801337.76281841,1357.46874553754,109907.16712042,217.569617882657,691430.59569799,1139.89912765488,4.46891485709897e-05,0.0010631
2019-10-15,0.00199,0.00199,0.00199,0.00199,0.00199,2,2,0,5104.5463839,10.158047303961,5104.5463839,10.158047303961,0,0,NA,0.00199
2019-10-17,0.0011,0.0011,0.0011,0.0011,0.0011,1,0,1,8329.6074,9.16256814,0,0,8329.6074,9.16256814,NA,0.0011
2019-10-18,0.00195,0.00285,0.00285,0.00195,0.00213313236384293,6,6,0,14994.4018011,33.806341656789,14994.4018011,33.806341656789,0,0,2.8284271247462e-05,0.00285
2019-10-19,0.001607,0.00278,0.00278,0.0016,0.002191079649259,3,1,2,33531.935462,55.0356167392,1114,3.09692,32417.935462,51.9386967392,4.94974746830565e-06,0.00278
2019-10-23,0.002,0.002,0.002,0.002,0.002,3,0,3,11259.35,22.5187,0,0,11259.35,22.5187,NA,0.002
2019-10-25,0.00201,0.00149,0.00201,0.00149,0.00175432022673653,6,0,6,325000,541.47782049918,0,0,325000,541.47782049918,5.34069517946867e-05,0.001520275
2019-10-29,0.00293,0.00293,0.00293,0.00293,0.00293,1,1,0,9980,29.2414,9980,29.2414,0,0,NA,0.00293
2019-11-04,0.0014987,0.003845,0.003845,0.00125,0.00151436212375897,8,1,7,312912.714538,467.07490466162,9300,35.7585,303612.714538,431.31640466162,0.00183494209717909,0.0025475
2019-11-07,0.0012512,0.0029,0.0029,0.0012512,0.00247605,4,2,2,29501.290734,81.6847139863808,17069.08,49.09920862,12432.210734,32.5855053663808,NA,0.0029
2019-11-09,0.0027037,0.00266,0.0027037,0.00132,0.00188955561461905,15,4,11,239229.23126689,410.86626034961,65306.01653053,135.204895440667,173923.21473636,275.661364908943,0.000127279220613579,0.00266
2019-11-10,0.00133,0.00133,0.00133,0.00133,0.00133,1,0,1,14025.11961723,18.6534090909159,0,0,14025.11961723,18.6534090909159,NA,0.00133
2019-11-12,0.0023787,0.0023787,0.0023787,0.0023787,0.0023787,1,1,0,6072.56853784,14.44481878096,6072.56853784,14.44481878096,0,0,NA,0.0023787
2019-11-14,0.0025,0.0025,0.0025,0.0025,0.0025,1,1,0,1633.82586243,4.084564656075,1633.82586243,4.084564656075,0,0,NA,0.0025
2019-11-18,0.0025,0.0025,0.0025,0.0025,0.0025,1,1,0,2419.684396,6.04921099,2419.684396,6.04921099,0,0,NA,0.0025
2019-11-20,0.0025,0.0014576,0.0028503,0.0013774,0.00216957276228127,5,3,2,83062.82626057,173.210278542259,41462.82626057,112.702438542259,41600,60.50784,0.000154290699654905,0.0014576
2019-11-30,0.0015129,0.0015129,0.0015129,0.0015129,0.0015129,1,0,1,2994.554,4.5304607466,0,0,2994.554,4.5304607466,NA,0.0015129
2019-12-03,0.001554,0.00148,0.001554,0.00148,0.00150641586371673,4,0,4,4e+05,602.566345486692,0,0,4e+05,602.566345486692,2.8284271247462e-05,0.0015
2019-12-04,0.0027027,0.0015,0.0027027,0.0015,0.00210135,2,1,1,7960,15.487965,2950,7.972965,5010,7.515,NA,0.0015
2019-12-05,0.0025,0.0025,0.0025,0.0025,0.0025,1,1,0,4000,10,4000,10,0,0,NA,0.0025
2019-12-13,0.0015456,0.00148,0.0015456,0.00148,0.00152192296672469,4,0,4,94833.118,144.328700290312,0,0,94833.118,144.328700290312,3.13653736892558e-05,0.0014988
2019-12-14,0.00148,0.00148,0.00148,0.00148,0.00148,1,0,1,24950.004152,36.92600614496,0,0,24950.004152,36.92600614496,NA,0.00148
2019-12-17,0.0016,0.001319,0.0016,0.001319,0.00146633333333333,4,0,4,36572.23679208,50.3427741267814,0,0,36572.23679208,50.3427741267814,0,0.001319
2019-12-18,0.00131,0.00131,0.00131,0.00131,0.00131,1,0,1,31720.118,41.55335458,0,0,31720.118,41.55335458,NA,0.00131
2019-12-23,0.0024702,0.0012654,0.0024702,0.0012654,0.0017047542523019,2,1,1,6855.515758,11.6869696401732,2500,6.1755,4355.515758,5.5114696401732,0.000851922249973553,0.0018678
2019-12-25,0.002345,0.0024702,0.0024702,0.002345,0.0024076,2,2,0,9846.804727,23.779357084815,9846.804727,23.779357084815,0,0,NA,0.0024702
