"time","open","close","high","low","vwap","n_trades","n_buy","n_sell","vol_base","vol_quote","vol_buy_base","vol_buy_quote","vol_sell_base","vol_sell_quote","stddev","mean"
2019-01-01,0.0067808,0.0073,0.0073,0.0067317,0.00699885322658727,46,5,41,162060.01106357,1140.85572419403,80840.68477216,580.071355642678,81219.32629141,560.784368551349,0,0.0073
2019-01-02,0.0068,0.0072789,0.0072789,0.0068,0.00716315320149125,10,10,0,59072.46070276,423.41096362688,59072.46070276,423.41096362688,0,0,0,0.0072789
2019-01-04,0.0067018,0.0072789,0.0072789,0.0066152,0.00698307983506088,3,1,2,4321,29.6789808313549,1324,9.6372636,2997,20.0417172313549,6.12354472507547e-05,0.0072789
2019-01-05,0.0072789,0.0072789,0.0072789,0.0072789,0.0072789,4,4,0,30189.83850349,219.748815483053,30189.83850349,219.748815483053,0,0,0,0.0072789
2019-01-06,0.0072858,0.0072858,0.0072858,0.0072858,0.0072858,1,0,1,3019.57231875,21.9999999999487,0,0,3019.57231875,21.9999999999487,NA,0.0072858
2019-01-07,0.0067,0.0067,0.0067,0.0067,0.0067,2,2,0,2441.11096262,16.355443449554,2441.11096262,16.355443449554,0,0,NA,0.0067
2019-01-09,0.00666,0.0073271,0.0073271,0.00666,0.00720656161868365,6,6,0,30900.11554492,220.594014318011,30900.11554492,220.594014318011,0,0,0,0.0073271
2019-01-10,0.0066165,0.0063398,0.0066165,0.0063398,0.00650821041497639,30,0,30,151679.72456459,981.726018235336,0,0,151679.72456459,981.726018235336,5.31162247654481e-06,0.00634286666666667
2019-01-11,0.0062685,0.0062319,0.0062685,0.0062319,0.00625132023374407,5,0,5,22429.78141416,140.174318090792,0,0,22429.78141416,140.174318090792,2.03963231980666e-05,0.006245
2019-01-12,0.0062319,0.0058973,0.0062319,0.0058973,0.00606199289365921,20,1,19,266777.97074471,1619.08452564916,50063.39448281,301.22643826362,216714.5762619,1317.85808738554,4.41954371702176e-05,0.00595705
2019-01-13,0.0058974,0.0056827,0.0065499,0.0056827,0.00595104478453295,93,59,34,2911810.70006349,17224.4539326348,2600509.0922793,15327.7288336873,311301.60778419,1896.72509894752,4.44063058585152e-05,0.0057141
2019-01-14,0.0056827,0.0062999,0.0062999,0.0056241,0.00587699389584878,20,12,8,212685.6158593,1248.06029293122,164132.8609998,973.922800147171,48552.7548595,274.137492784047,7.00000000000059e-07,0.0062999
2019-01-15,0.0058063,0.0055848,0.0058533,0.0055848,0.00574226911586836,49,7,42,272952.11740365,1569.80126622537,69725.65716029,407.08954303629,203226.46024336,1162.71172318908,1.69705627484769e-05,0.0055968
2019-01-16,0.0059019,0.0058319,0.0059774,0.0057,0.0057956392008279,27,27,0,243493.39286328,1432.64153596569,243493.39286328,1432.64153596569,0,0,1.76062962222799e-05,0.00580991666666667
2019-01-17,0.0055848,0.0056841,0.0057408,0.0055775,0.00565690391453382,40,33,7,118133.24032324,667.148366147124,94447.75370455,534.899636440313,23685.48661869,132.248729706811,1.06809799800084e-05,0.0056841
2019-01-18,0.0056841,0.0057735,0.0057735,0.0056841,0.00574774458036344,9,9,0,29950.03097641,172.368892742722,29950.03097641,172.368892742722,0,0,6.36396103067916e-06,0.0057735
2019-01-19,0.0057735,0.0059583,0.0059583,0.0057735,0.00587277543548406,41,41,0,171511.46083259,1009.53456010978,171511.46083259,1009.53456010978,0,0,1.34070699188719e-05,0.0059583
2019-01-20,0.0055719,0.0055599,0.0055719,0.0055599,0.00557188258881018,3,0,3,10106.72283349,56.3134290450425,0,0,10106.72283349,56.3134290450425,8.48528137423847e-06,0.0055659
2019-01-21,0.0055599,0.0052,0.0055599,0.0052,0.00546532604477711,74,0,74,426681.84381521,2311.69790768314,0,0,426681.84381521,2311.69790768314,3.70853332794037e-05,0.00526947777777778
2019-01-22,0.005,0.0053406,0.0053406,0.0031,0.00468142064447733,11,7,4,50271.07698542,254.009591731398,35573.73726364,189.126651604409,14697.33972178,64.8829401269885,1.27986327394766e-05,0.00533155
2019-01-24,0.0052859,0.0052693,0.0052859,0.0052693,0.00527759635874202,3,0,3,19971.22450168,105.400061709686,0,0,19971.22450168,105.400061709686,9.58401446854733e-06,0.00528036666666667
2019-01-27,0.0052693,0.0051068,0.0052693,0.0051068,0.0052151927274885,39,0,39,180208.901627,934.913191126339,0,0,180208.901627,934.913191126339,1.62747613544054e-05,0.005136025
2019-01-28,0.0051068,0.0021,0.0051068,0.0021,0.00495893139898356,20,0,20,86900.26615623,411.642720080604,0,0,86900.26615623,411.642720080604,0.00131134584873709,0.0044458
2019-01-31,0.005,0.005,0.005,0.005,0.005,1,1,0,4990,24.95,4990,24.95,0,0,NA,0.005
2019-02-02,0.0053406,0.0053406,0.0053406,0.0053406,0.0053406,2,2,0,11500,61.4169,11500,61.4169,0,0,0,0
2019-02-04,0.0053511,0.0053511,0.0053511,0.0053511,0.0053511,10,3,7,192988.9612902,1032.70323075999,25844.80217817,138.298120935605,167144.15911203,894.405109824384,0,0.0053511
2019-02-07,0.0031081,0.0031081,0.0031081,0.0031081,0.0031081,1,0,1,23592.0323546,73.3263957613323,0,0,23592.0323546,73.3263957613323,NA,0.0031081
2019-02-08,0.0050733,0.0053541,0.0053541,0.0050733,0.00528167011662014,16,16,0,206796.83061383,1103.34736536889,206796.83061383,1103.34736536889,0,0,1.1338934190275e-06,0.00535152857142857
2019-02-10,0.0053541,0.0054207,0.0054207,0.0053541,0.00538926819049936,14,14,0,99037.90253804,533.855966596597,99037.90253804,533.855966596597,0,0,3.95979797464446e-06,0.0054179
2019-02-13,0.0054391,0.0054504,0.0054504,0.0054391,0.00544316091505898,3,3,0,15697.34661677,85.4431835745357,15697.34661677,85.4431835745357,0,0,6.52405804184309e-06,0.00544286666666667
2019-02-16,0.0054504,0.0055096,0.0055096,0.0054504,0.00549256495356378,3,3,0,20000,109.851299071276,20000,109.851299071276,0,0,3.22329541515097e-05,0.00548736666666667
2019-02-17,0.0055096,0.005411,0.0055695,0.004931,0.00527370346154322,22,14,8,186935.25899154,1000.44186318859,133778.96935418,720.88204820871,53156.28963736,279.55981497988,0,0.005411
2019-02-18,0.0055878,0.0057082,0.0057082,0.0055878,0.00567997017710034,15,15,0,104614.11311654,590.745681653637,104614.11311654,590.745681653637,0,0,0,0.0057082
2019-02-19,0.0058916,0.0060514,0.0060514,0.0058916,0.0060141922393498,32,32,0,152272.56363926,914.424159648621,152272.56363926,914.424159648621,0,0,7.21248916810288e-06,0.0060463
2019-02-21,0.006,0.0051955,0.006,0.0051955,0.00559775,3,0,3,34723.90099998,196.498027645396,0,0,34723.90099998,196.498027645396,0,0.0051955
2019-02-28,0.006,0.00585,0.006,0.0056,0.00572688487160229,29,0,29,162949.9040683,933.748329640188,0,0,162949.9040683,933.748329640188,2.88675134594811e-05,0.00585
2019-03-01,0.00582,0.0060407,0.0060407,0.00573,0.00586644924218747,9,1,8,63800.97572962,369.230571548125,2635.96803877,15.9230921317979,61165.00769085,353.307479416327,2.60768096208106e-05,0.0060407
2019-03-02,0.00577,0.00577,0.00577,0.00577,0.00577,3,0,3,17186.8785629,99.168289307933,0,0,17186.8785629,99.168289307933,0,0.00577
2019-03-03,0.00572,0.00571,0.00572,0.00571,0.00571526302270436,9,0,9,85531.91709463,488.597246610337,0,0,85531.91709463,488.597246610337,3.77964473009234e-06,0.00571142857142857
2019-03-04,0.00565,0.0055,0.00565,0.0055,0.00557615321900175,9,0,9,46714.0214495,262.068261014046,0,0,46714.0214495,262.068261014046,5.00000000000002e-05,0.0055
2019-03-05,0.0055,0.0057,0.0059,0.0055,0.00574615384615385,28,0,28,444315.50713749,2591.36150094603,0,0,444315.50713749,2591.36150094603,0,0.0057
2019-03-06,0.0057,0.006312,0.00739,0.0057,0.0062711043830199,99,26,73,1311057.85261196,8010.61204878941,169981.86930981,1081.49406992569,1141075.98330215,6929.11797886372,1.01499999999999e-05,0.006312
2019-03-07,0.006322,0.00632,0.0064034,0.0063,0.00633269491986813,33,15,18,276845.71618915,1751.98408049699,69384.48539124,440.630929520824,207461.23079791,1311.35315097617,0,0.00632
2019-03-08,0.00632,0.00632,0.00632,0.00632,0.00632,11,0,11,205638.80454809,1299.63724474393,0,0,205638.80454809,1299.63724474393,0,0.00632
2019-03-09,0.0064034,0.0062,0.0064034,0.0062,0.00635519602033663,3,1,2,14820.51659124,94.1594976664844,7122.00000563,45.6050148360511,7698.51658561,48.5544828304333,7.77817459305204e-05,0.006255
2019-03-11,0.0062,0.0061831,0.0062,0.0061831,0.00619362434765318,11,0,11,49802.12168428,308.432940855721,0,0,49802.12168428,308.432940855721,3.35012437580065e-06,0.00618643333333333
2019-03-12,0.0061831,0.00619,0.00619,0.0061627,0.00617599853160183,18,0,18,68420.09917481,422.434537363831,0,0,68420.09917481,422.434537363831,1.69999999999981e-06,0.00619
2019-03-15,0.0064237,0.0064237,0.0064237,0.0064237,0.0064237,1,1,0,10000,64.237,10000,64.237,0,0,NA,0.0064237
2019-03-17,0.0062,0.0062,0.0062,0.0062,0.0062,1,0,1,2500,15.5,0,0,2500,15.5,NA,0.0062
2019-03-18,0.0062,0.0062,0.0062,0.0062,0.0062,2,1,1,10000,62,8607.19563243,53.364612921066,1392.80436757,8.635387078934,0,0.0062
2019-03-20,0.00642,0.00642,0.00642,0.00642,0.00642,1,1,0,2620,16.8204,2620,16.8204,0,0,NA,0.00642
2019-03-21,0.0056,0.0056,0.0056,0.0056,0.0056,1,0,1,2500,14,0,0,2500,14,NA,0.0056
2019-03-27,0.00642,0.00642,0.00642,0.00642,0.00642,1,1,0,3600,23.112,3600,23.112,0,0,NA,0.00642
2019-03-28,0.00642,0.00642,0.00642,0.00642,0.00642,1,1,0,2446,15.70332,2446,15.70332,0,0,NA,0.00642
2019-03-29,0.00642,0.0057111,0.0065254,0.005015,0.00570201225200167,9,7,2,107900,619.590350400334,54000,346.941850400334,53900,272.6485,3.90533353249116e-05,0.0057111
2019-03-30,0.0058222,0.0070949,0.0070949,0.0058222,0.00681980034246924,108,49,59,810421.93022768,5487.83353182967,359654.68647019,2434.80681703916,450767.24375749,3053.02671479052,8.40957308336425e-05,0.00699187777777778
2019-03-31,0.0070949,0.0073899,0.0074303,0.0070949,0.00728550470378339,30,29,1,254981.31352664,1864.68565012297,245197.31352664,1792.38286852297,9784,72.3027816,1.27756017470802e-05,0.0073899
2019-04-01,0.0073899,0.0076667,0.0079354,0.0073095,0.00764332400469141,186,113,73,979886.47715077,7464.93783685589,527341.5999937,4053.96549106221,452544.87715707,3410.97234579368,7.21248916810288e-06,0.0076718
2019-04-02,0.0076667,0.0085808,0.009,0.0076667,0.00807768326041488,156,151,5,849085.42164653,6895.42182655158,821587.02261412,6673.08704522019,27498.39903241,222.334781331384,5.83123771881452e-06,0.00857743333333333
2019-04-03,0.0085808,0.0083421,0.0087828,0.0083421,0.00862971565378823,199,107,92,878196.86259595,7555.03745415414,435388.30276685,3771.35006992279,442808.5598291,3783.68738423135,8.83277985687377e-06,0.00835474
2019-04-04,0.0087555,0.0081718,0.0087556,0.0080737,0.00819738453472081,80,32,48,451102.28891801,3714.94160937478,232776.82981087,1905.92559558679,218325.45910714,1809.016013788,7.28319984622051e-06,0.00816665
2019-04-05,0.0081718,0.008367,0.0084076,0.0081054,0.0082883932680442,84,55,29,423501.61269385,3513.12338596756,290480.30341267,2411.37347469127,133021.30928118,1101.74991127628,2.33345237791557e-05,0.00833675
2019-04-06,0.0083,0.0081862,0.0084281,0.0081862,0.00833627905695108,41,15,26,200797.91976477,1663.70530836977,61735.34473475,518.278746254641,139062.57503002,1145.42656211513,1.35808242709649e-05,0.0081862
2019-04-07,0.0084281,0.0087963,0.0087963,0.0084281,0.00860948994696643,19,19,0,117590.35245751,1009.12868181966,117590.35245751,1009.12868181966,0,0,7.2124891681035e-06,0.0087963
2019-04-08,0.0087963,0.009,0.009,0.008701,0.00888959300724944,70,70,0,404918.65446234,3584.36675512155,404918.65446234,3584.36675512155,0,0,1.64806813312691e-05,0.00898544285714286
2019-04-09,0.0091,0.0089462,0.0091,0.0089462,0.00905709615983994,15,0,15,63123.72531399,569.811245472199,0,0,63123.72531399,569.811245472199,3.22747217906938e-05,0.00899231666666667
2019-04-10,0.0094033,0.0092069,0.0094135,0.0092069,0.00927045593177249,30,6,24,159716.2569609,1483.72421501326,32403.72120013,303.396429517424,127312.53576077,1180.32778549583,9.2573574343148e-06,0.00921723333333333
2019-04-11,0.0092069,0.0093654,0.0093654,0.0086474,0.00883178880803211,39,0,39,137330.88478159,1206.76999778284,0,0,137330.88478159,1206.76999778284,0,0.0093654
2019-04-12,0.0086474,0.0087426,0.0094135,0.0085842,0.0087496110580162,27,15,12,118421.66746238,1033.68791579831,58440.65614102,516.589834378481,59981.01132136,517.098081419824,7.35391052433997e-06,0.0087426
2019-04-13,0.0087426,0.0087633,0.0087633,0.0087426,0.00875484555322156,6,6,0,17410.59510336,152.438989651394,17410.59510336,152.438989651394,0,0,7.28319984622173e-06,0.0087633
2019-04-14,0.0087,0.0087841,0.0087841,0.0086556,0.00870027681632876,20,8,12,70376.47798981,613.206585901639,24991.32675162,219.260870844362,45385.15123819,393.945715057277,0,0.0087841
2019-04-15,0.0087945,0.0086,0.0088569,0.0086,0.00876068556805408,49,11,38,248301.9814447,2169.08562601558,70000,617.799,178301.9814447,1551.28662601558,7.84888527117068e-06,0.00860555
2019-04-17,0.0086,0.00894,0.00894,0.0085737,0.00882515128136605,28,23,5,155585.108,1379.8800231322,138409.108,1232.3472424576,17176,147.532780674597,7.50555349946513e-06,0.00893566666666667
2019-04-18,0.0094135,0.0096284,0.0096284,0.0094135,0.00947469262190156,28,28,0,196361.23464053,1870.00863719753,196361.23464053,1870.00863719753,0,0,4.57563495463697e-05,0.00955677333333333
2019-04-20,0.0092239,0.0091172,0.0092931,0.0091172,0.00918950828875116,27,9,18,183406.8333007,1688.32497788474,64748.13709834,599.560912868584,118658.69620236,1088.76406501616,7.35391052433874e-06,0.0091224
2019-04-22,0.0091172,0.0088,0.0091172,0.0087453,0.00887793749291143,55,0,55,329512.57828161,2940.22978611031,0,0,329512.57828161,2940.22978611031,9.86149920989038e-06,0.0088
2019-04-23,0.0088,0.0087865,0.0088,0.0087865,0.00879259054379854,8,0,8,30473.73279711,267.951912675942,0,0,30473.73279711,267.951912675942,7.79422863406048e-06,0.0087865
2019-04-24,0.0086787,0.0085031,0.0086787,0.0085031,0.00855963086712692,43,0,43,132392.47990594,1132.80935780222,0,0,132392.47990594,1132.80935780222,2.61629509039125e-06,0.00850495
2019-04-25,0.0085031,0.0083341,0.0085031,0.0083341,0.00843865923388874,64,0,64,264276.11229132,2226.44570014687,0,0,264276.11229132,2226.44570014687,7.58767798096768e-06,0.0083341
2019-04-26,0.0083341,0.0083,0.0083341,0.0083,0.00831652047815965,43,0,43,67215.54678569,558.748342946401,0,0,67215.54678569,558.748342946401,0,0.0083
2019-04-28,0.0082,0.0084499,0.00845,0.0082,0.00837200806321186,24,24,0,82069.05188986,683.605911885506,82069.05188986,683.605911885506,0,0,4.58062690656451e-05,0.0084499
2019-04-29,0.00845,0.00845,0.00845,0.0084499,0.00844994402934877,4,4,0,15646.72459173,132.213945253157,15646.72459173,132.213945253157,0,0,7.07106781182348e-08,0.00844995
2019-04-30,0.00845,0.0087714,0.0087714,0.00845,0.00858818348977176,25,25,0,63924.70249205,548.486423061513,63924.70249205,548.486423061513,0,0,0,0.0087714
2019-05-01,0.0087714,0.0088285,0.0088285,0.0087714,0.00878589862754087,4,4,0,12644.91302567,111.096923997608,12644.91302567,111.096923997608,0,0,2.85499999999997e-05,0.008785675
2019-05-02,0.008201,0.0086898,0.0087334,0.008201,0.00862075,16,11,5,29366,253.0598644,9366,79.1618644,20000,173.898,5.58677008655261e-06,0.00869592
2019-05-03,0.0087334,0.0086797,0.009,0.0086797,0.00885361974417282,18,17,1,53523.05703206,477.63947861292,52558.15444762,469.264413650756,964.90258444,8.37506496216387,0.000226486302014051,0.00883985
2019-05-04,0.0086796,0.008649,0.0086796,0.008649,0.00867125533959995,12,0,12,30566,264.977334,0,0,30566,264.977334,5.09999999999925e-06,0.008649
2019-05-05,0.008649,0.0088827,0.0088827,0.0085571,0.00862526908357264,37,1,36,100434,864.295366,1000,8.8827,99434,855.412666,0,0.0088827
2019-05-06,0.009,0.0088,0.0092179,0.0086782,0.00901911846478875,126,112,14,559192.87477926,4955.17471869467,435021.61105392,3857.85152341984,124171.26372534,1097.32319527483,0,0.0088
2019-05-07,0.0088,0.0085163,0.0092282,0.0085163,0.00876446123943777,150,124,26,528710.31617133,4633.28266927196,451521.37059848,3972.3944520899,77188.94557285,660.888217182062,5.88897274573351e-06,0.0085197
2019-05-08,0.0085163,0.0084551,0.0085163,0.0084551,0.00847970848389692,29,0,29,79648.84451062,675.589981752685,0,0,79648.84451062,675.589981752685,0,0.0084551
2019-05-10,0.0084449,0.0081759,0.0084449,0.0081759,0.00826540436022809,39,0,39,268469.83176136,2232.13598457605,0,0,268469.83176136,2232.13598457605,1.14310479459617e-05,0.00820058
2019-05-11,0.0087385,0.0099284,0.0099284,0.0087384,0.00886917723976944,33,33,0,82374.22456108,725.815399230512,82374.22456108,725.815399230512,0,0,0,0.0099284
2019-05-12,0.0082639,0.0082639,0.0082639,0.0082639,0.0082639,1,0,1,24910,205.853749,0,0,24910,205.853749,NA,0.0082639
2019-05-13,0.0089956,0.01,0.013999,0.0089956,0.0109982,3,3,0,1866,20.3549436,1866,20.3549436,0,0,NA,0.01
2019-05-14,0.01,0.0095887,0.01,0.00945,0.009655825,4,3,1,13344.654,131.9266707284,12000,119.0387,1344.654,12.8879707284,NA,0.0095887
2019-05-15,0.01,0.0098581,0.01,0.0098581,0.0099871,47,46,1,148698.85107895,1486.8891807895,147998.85107895,1479.9885107895,700,6.90067,0,0.0098581
2019-05-16,0.0098581,0.011626,0.011626,0.0094704,0.01020315,4,0,4,3075.25926261,31.7706355367356,0,0,3075.25926261,31.7706355367356,NA,0.011626
2019-05-17,0.011628,0.0082699,0.011628,0.0082699,0.00994895,2,0,2,1358.229,12.5958066071,0,0,1358.229,12.5958066071,NA,0.0082699
2019-05-26,0.0084528,0.012999,0.013,0.0084528,0.0115452935706303,7,6,1,19521.18648548,234.14602392912,18173.39488145,222.753411058576,1347.79160403,11.3926128705448,0.000375473700810057,0.012999
2019-05-27,0.01188,0.012,0.012264,0.0117,0.0119623296021403,36,33,3,51713.08179826,619.533392179018,45465.4732367,546.022762713076,6247.60856156,73.5106294659416,0,0.012
2019-05-28,0.012,0.0118,0.012,0.011573,0.0117805384615385,74,72,2,196879.62484561,2324.40736976379,193199.00084561,2281.81088798996,3680.624,42.5964817738303,0,0.0118
2019-05-29,0.0118,0.0118,0.0118,0.0118,0.0118,55,55,0,266959.18584323,3150.11839295011,266959.18584323,3150.11839295011,0,0,0,0.0118
2019-05-30,0.0118,0.012557,0.012557,0.0118,0.0120226419312637,70,70,0,156432.13035957,1861.41840076282,156432.13035957,1861.41840076282,0,0,1.27279220613583e-05,0.012548
2019-05-31,0.011332,0.0115,0.0115,0.011332,0.011416,2,1,1,5484.67191372,62.91056490378,4513.46891372,51.90489250778,971.203,11.005672396,NA,0.0115
2019-06-01,0.011334,0.011334,0.011334,0.011334,0.011334,1,0,1,4708.83024612,53.3698820095241,0,0,4708.83024612,53.3698820095241,NA,0.011334
2019-06-07,0.010769,0.010769,0.010769,0.010769,0.010769,1,0,1,998,10.747462,0,0,998,10.747462,NA,0.010769
2019-06-12,0.012536,0.012536,0.012536,0.012536,0.012536,1,1,0,1000,12.536,1000,12.536,0,0,NA,0.012536
2019-06-22,0.01234,0.012034,0.012712,0.012034,0.0124756280855242,25,24,1,32349.27153649,404.618253211492,31384.70153649,393.010617831492,964.57,11.60763538,1.73205080756936e-06,0.012034
2019-06-23,0.012713,0.0126,0.012846,0.01248,0.0127070514703522,27,27,0,31832.05804289,404.939080248748,31832.05804289,404.939080248748,0,0,6.92820323027553e-05,0.0126
2019-06-24,0.011531,0.013,0.013343,0.001207,0.0101685855826736,41,22,19,156026.13222779,1978.45867414738,103161.22105956,1344.20862418096,52864.91116823,634.25004996642,1.22940171279723e-05,0.0129967142857143
2019-06-26,0.01303,0.0133,0.0133,0.01303,0.0131886362036945,11,11,0,24295.21529812,320.121712064029,24295.21529812,320.121712064029,0,0,1.41421356237304e-05,0.0133
2019-06-27,0.013342,0.013346,0.013346,0.013342,0.013343354753609,7,7,0,4042,53.9349416230979,4042,53.9349416230979,0,0,1.73205080756848e-06,0.013345
2019-07-03,0.010515,0.010564,0.010576,0.010515,0.0105426043106507,3,0,3,4238.06193611,44.610385759487,0,0,4238.06193611,44.610385759487,8.48528137423786e-06,0.01057
2019-07-04,0.00173,0.019999,0.019999,0.00173,0.0127895811845775,9,4,5,22013.26255358,302.478281484113,19657.58669708,284.493692985763,2355.6758565,17.98458849835,0,0.019999
2019-07-05,0.014999,0.015628,0.015628,0.014999,0.0153138796583224,4,4,0,2625.93461794,39.9940112691,2625.93461794,39.9940112691,0,0,0,0.015628
2019-07-06,0.010372,0.010171,0.0104,0.010171,0.0102994738458919,4,0,4,6468.6852727,66.2689017604444,0,0,6468.6852727,66.2689017604444,6.64680374315357e-05,0.010171
2019-07-09,0.011876,0.010752,0.011876,0.010751,0.0111475393708863,9,1,8,23864.37461014,265.424293605279,5267.23932127,62.5537341794025,18597.13528887,202.870559425877,8.48528137423908e-06,0.010758
2019-07-10,0.010761,0.010761,0.010761,0.010761,0.010761,2,0,2,1946.654,20.947943694,0,0,1946.654,20.947943694,0,0.010761
2019-07-11,0.01,0.01,0.01,0.01,0.01,2,0,2,5800,58,0,0,5800,58,0,0.01
2019-07-17,0.0075768,0.007,0.0075768,0.007,0.00703359743390171,6,5,1,79007.02,555.703573132221,74405.02081099,520.83514567693,4601.99918901,34.868427455291,0.000235477613939556,0.00709613333333333
2019-07-28,0.0062,0.0062,0.0062,0.0062,0.0062,1,0,1,966.283,5.9909546,0,0,966.283,5.9909546,NA,0.0062
2019-07-29,0.01,0.0026073,0.01,0.0026073,0.00761246,6,3,3,2773.450434,21.64394277,1414.350434,14.09850434,1359.1,7.54543843,0.00204353859762912,0.0026073
2019-07-31,0.0097,0.0029,0.01449,0.0029,0.00895110166506129,4,3,1,24034.94606718,304.206041358933,20834.94606718,294.926041358933,3200,9.28,0.000171119841047144,0.0029
2019-08-01,0.0079224,0.0079224,0.0079224,0.0079224,0.0079224,1,0,1,10975.8442617,86.9550285788921,0,0,10975.8442617,86.9550285788921,NA,0.0079224
2019-08-07,0.0070951,0.0070951,0.0070951,0.0070951,0.0070951,1,0,1,1296.556087,9.1991950928737,0,0,1296.556087,9.1991950928737,NA,0.0070951
2019-08-11,0.0088,0.00811,0.010503,0.006666,0.00889336486541522,37,22,15,77716.112,692.890185352,41614.6,340.9014516,36101.512,351.988733752,0.00109666753596723,0.00858342222222222
2019-08-12,0.0070093,0.0070093,0.0070093,0.0070093,0.0070093,1,0,1,8933.984,62.6209740512,0,0,8933.984,62.6209740512,NA,0.0070093
2019-08-14,0.0070094,0.0070094,0.0070094,0.0070094,0.0070094,1,0,1,1372.70307016,9.6218248999795,0,0,1372.70307016,9.6218248999795,NA,0.0070094
2019-08-15,0.006707,0.006707,0.006707,0.006707,0.006707,1,0,1,1000,6.707,0,0,1000,6.707,NA,0.006707
2019-09-01,0.0065097,0.0065097,0.0065097,0.0065097,0.0065097,2,0,2,9420.8590382,61.3269660809705,0,0,9420.8590382,61.3269660809705,0,0.0065097
2019-09-04,0.0065097,0.0065097,0.0065097,0.0065097,0.0065097,1,0,1,966,6.2883702,0,0,966,6.2883702,NA,0.0065097
2019-09-10,0.0062857,0.0062857,0.0062857,0.0062857,0.0062857,1,0,1,4558,28.6502206,0,0,4558,28.6502206,NA,0.0062857
2019-09-11,0.0063027,0.0062372,0.0063027,0.0062372,0.00626995,2,0,2,12902,81.1247344,0,0,12902,81.1247344,NA,0.0062372
2019-09-12,0.0055837,0.0055837,0.0055837,0.0055837,0.0055837,1,0,1,1500,8.37555,0,0,1500,8.37555,NA,0.0055837
2019-09-17,0.0056225,0.0056225,0.0056225,0.0056225,0.0056225,1,0,1,966,5.431335,0,0,966,5.431335,NA,0.0056225
2019-09-19,0.0072716,0.0080929,0.0081086,0.0072716,0.00782436666666667,3,0,3,10246.18476811,80.0565754805374,0,0,10246.18476811,80.0565754805374,NA,0.0080929
2019-09-24,0.0032023,0.0032023,0.0032023,0.0032023,0.0032023,1,0,1,724.59,2.320354557,0,0,724.59,2.320354557,NA,0.0032023
2019-09-26,0.0099,0.0064007,0.011,0.0055806,0.0086610713760188,18,13,5,29691.59,245.5135304,13892.59,141.423841,15799,104.0896894,0.00253094730190101,0.00819035
2019-09-30,0.0105,0.0105,0.0105,0.0105,0.0105,1,1,0,2000,21,2000,21,0,0,NA,0.0105
2019-10-01,0.007318,0.007318,0.007318,0.007318,0.007318,1,1,0,440,3.21992,440,3.21992,0,0,NA,0.007318
2019-10-13,0.0071527,0.0070617,0.0072421,0.0066387,0.00710005321888384,11,6,5,37838.38418652,262.926719817334,11596.19852668,82.2660876305175,26242.18565984,180.660632186816,0.000259933111588347,0.0070617
2019-10-14,0.0070191,0.0070191,0.0070191,0.0070191,0.0070191,1,0,1,9189.17231348,64.4997193855475,0,0,9189.17231348,64.4997193855475,NA,0.0070191
2019-10-15,0.0070037,0.0070037,0.0070037,0.0070037,0.0070037,1,0,1,24000,168.0888,0,0,24000,168.0888,NA,0.0070037
2019-10-17,0.007,0.007,0.007,0.007,0.007,1,0,1,900,6.3,0,0,900,6.3,NA,0.007
2019-10-20,0.0071214,0.0071214,0.0071214,0.0071214,0.0071214,1,1,0,458,3.2616012,458,3.2616012,0,0,NA,0.0071214
2019-10-22,0.0058315,0.0058315,0.0058315,0.0058315,0.0058315,1,0,1,1996,11.639674,0,0,1996,11.639674,NA,0.0058315
2019-10-23,0.0057573,0.0061321,0.0065454,0.0057573,0.00614493333333333,3,0,3,7585.08249199,48.3072678829422,0,0,7585.08249199,48.3072678829422,NA,0.0061321
2019-10-27,0.0093938,0.0061321,0.0093938,0.0061321,0.00776376583318195,2,1,1,4879.54553806,37.8836489298456,2440.99326606,22.9302025427144,2438.552272,14.9534463871312,0.00230637018819616,0.00776295
2019-11-14,0.0093734,0.0093951,0.0093951,0.0093734,0.00938425,2,1,1,12766.82065267,119.705275659315,11072.85965828,103.790342720922,1693.96099439,15.9149329383935,NA,0.0093951
2019-11-16,0.0094122,0.0094167,0.0094167,0.0094122,0.00941384878951647,2,1,1,11493.13590807,108.194643555933,7282.07768661,68.5403716019106,4211.05822146,39.6542719540224,3.18198051533835e-06,0.00941445
2019-11-22,0.0071737,0.007012,0.0071737,0.007012,0.00709285,4,0,4,13442.69148856,95.3664836714257,0,0,13442.69148856,95.3664836714257,0,0.007012
2019-11-25,0.007012,0.007,0.007012,0.007,0.007009977342202,5,0,5,8899.1820652,62.3830646411824,0,0,8899.1820652,62.3830646411824,6.57267069006173e-06,0.0070072
2019-11-27,0.0086382,0.0086382,0.0086382,0.0086382,0.0086382,7,0,7,30993.4149468,267.727316993448,0,0,30993.4149468,267.727316993448,0,0.0086382
2019-12-04,0.0070345,0.0075973,0.0075973,0.0070345,0.0073159,2,1,1,5101.44570715,36.1612676475003,488.89093915,3.7142511320043,4612.554768,32.447016515496,NA,0.0075973
2019-12-09,0.0075997,0.0077128,0.0077128,0.0075,0.00757915475026958,6,5,1,8708.52123,65.8316789881891,6708.52123,50.8316789881891,2000,15,9.25602776573189e-05,0.0077128
2019-12-11,0.007133,0.0072198,0.0073197,0.007133,0.00722755,4,4,0,7540.86,54.19621438,7540.86,54.19621438,0,0,NA,0.0072198
2019-12-12,0.0067358,0.0064551,0.0067358,0.0064551,0.00652208366502543,3,0,3,58242.88,379.864936252036,0,0,58242.88,379.864936252036,0.000140910645445971,0.0066027
2019-12-22,0.0062986,0.0062986,0.0062986,0.0062986,0.0062986,1,0,1,2500,15.7465,0,0,2500,15.7465,NA,0.0062986
2019-12-28,0.0037699,0.0037699,0.0037699,0.0037699,0.0037699,1,0,1,3000,11.3097,0,0,3000,11.3097,NA,0.0037699
