"time","open","close","high","low","vwap","n_trades","n_buy","n_sell","vol_base","vol_quote","vol_buy_base","vol_buy_quote","vol_sell_base","vol_sell_quote","stddev","mean"
2019-01-01,1.0371,1.0431,1.0462,1.036,1.03983011377174,3965,3031,934,5378992.36923017,5596467.81494467,4015919.34538124,4179210.85063862,1363073.02384893,1417256.96430605,0.000279284800875463,1.04356
2019-01-02,1.0432,1.0486,1.0495,1.0427,1.04530162603899,3203,2301,902,5242553.00683277,5480353.87483652,3209844.42984308,3357166.46221477,2032708.57698969,2123187.41262175,5.04524979110427e-05,1.0486
2019-01-03,1.0492,1.0429,1.0492,1.0428,1.04544204503675,2892,1843,1049,5281641.18350883,5520808.65422461,2606480.60968478,2725120.10039659,2675160.57382405,2795688.55382803,0,1.0429
2019-01-04,1.0428,1.0435,1.0456,1.038,1.0418326723096,3895,2356,1539,7578226.92357557,7893574.65701518,3394403.66898492,3536683.24391697,4183823.25459065,4356891.41309822,0,1.0435
2019-01-05,1.0436,1.0369,1.0469,1.0361,1.04382408604082,4344,2543,1801,7710766.67270685,8030005.72134678,3792796.33755559,3955353.85369705,3917970.33515126,4074651.86764973,7.81735959969913e-05,1.03678888888889
2019-01-06,1.0368,1.0442,1.0454,1.0341,1.03907985794858,7610,5722,1888,12148753.3027101,12631899.9210357,9576399.59923209,9963539.87113032,2572353.70347807,2668360.04990541,0,1.0442
2019-01-07,1.0449,1.0368,1.0454,1.036,1.03927595497419,3959,2518,1441,12316412.318471,12798643.1098769,7920361.18324975,8229604.20867119,4396051.13522122,4569038.90120574,0,1.0368
2019-01-08,1.0368,1.0374,1.04,1.0341,1.03646673558914,4649,3334,1315,7485362.43031295,7757053.6394358,4806687.27001914,4981899.70709121,2678675.16029381,2775153.9323446,0,1.0374
2019-01-09,1.0371,1.0313,1.0414,1.0266,1.03524277120593,3860,1152,2708,8228597.3133164,8518557.07533093,2086385.97540205,2159724.61302288,6142211.33791434,6358832.46230805,0.000353553390593392,1.0313
2019-01-10,1.0307,1.0367,1.0405,1.0301,1.03607614685121,7852,4419,3433,11735577.0973563,12158052.8400649,7747304.97122629,8028706.30142424,3988272.12613003,4129346.53864063,0,1.0367
2019-01-11,1.0366,1.0321,1.0405,1.0317,1.03720502965393,3363,1411,1952,5660797.16336224,5866292.91550201,2157605.97745053,2237683.40664482,3503191.18591171,3628609.50885718,0.00049497474683045,1.03245
2019-01-12,1.0325,1.0328,1.0354,1.0313,1.03352027671116,1813,1091,722,2572175.79507536,2657974.07367291,1620008.57897408,1674193.30253688,952167.21610128,983780.771136034,7.07106781185685e-05,1.03285
2019-01-13,1.0329,1.0331,1.034,1.0315,1.03267004386843,2427,1252,1175,2287308.03449932,2362162.5619665,1213098.94820025,1253204.59568633,1074209.08629907,1108957.96628017,0,1.0331
2019-01-14,1.0331,1.0343,1.0375,1.032,1.03424604142905,2935,1993,942,3286959.90508422,3400490.60553915,2188277.32097216,2264249.24909189,1098682.58411206,1136241.35644726,5.77350269189562e-05,1.03436666666667
2019-01-15,1.0343,1.0296,1.0361,1.029,1.03341121416709,2478,553,1925,3901122.90908034,4030185.77922134,653506.8519177,675813.915628539,3247616.05716264,3354371.86359281,0,1.0296
2019-01-16,1.0291,1.0237,1.0299,1.0226,1.02775644913261,2163,916,1247,3410976.20587564,3503734.45958071,1116386.17621731,1147142.49491866,2294590.02965833,2356591.96466205,0.000383405790253721,1.0237
2019-01-17,1.0236,1.0291,1.0291,1.019,1.02313301352811,4168,3164,1004,5922049.103515,6054701.31111737,3786107.9258499,3873338.91579361,2135941.1776651,2181362.39532376,0,1.0291
2019-01-18,1.0291,1.0213,1.0296,1.0199,1.02486494878229,1683,603,1080,2885664.24718911,2953702.14277477,907415.54381511,927673.863773883,1978248.703374,2026028.27900089,0.000141421356237294,1.0214
2019-01-19,1.0215,1.0264,1.0342,1.0213,1.0280515910361,3515,2956,559,5030540.36334685,5175362.64032498,4031695.7168035,4148334.50121758,998844.64654335,1027028.1391074,0,1.0264
2019-01-20,1.0264,1.0143,1.0282,1.0141,1.01939168625914,3987,592,3395,4563112.54509798,4652363.28825303,783252.36419239,797989.223371966,3779860.18090559,3854374.06488106,7.07106781185685e-05,1.01435
2019-01-21,1.0143,1.0148,1.0173,1.0119,1.0147317738677,2551,1292,1259,4913085.05995492,4983534.59501305,2602030.21892092,2639677.67030735,2311054.841034,2343856.92470569,0.000173205080756922,1.01495
2019-01-22,1.0148,1.0199,1.021,1.0132,1.01732254377849,2962,1996,966,4943671.52665134,5028647.00711371,3950147.81498533,4019449.54326173,993523.71166601,1009197.46385197,0.000172240142436813,1.0199
2019-01-23,1.0199,1.0194,1.0201,1.0184,1.01959449715141,1470,802,668,1988702.90551516,2027541.46649173,1101252.95069744,1123049.25120712,887449.95481772,904492.215284605,0,1.0194
2019-01-24,1.0194,1.0224,1.0234,1.0149,1.01899315242864,3482,2880,602,6152138.40457053,6262196.63316442,3831500.29836813,3901719.29929824,2320638.1062024,2360477.33386619,7.07106781187255e-05,1.0224
2019-01-25,1.0224,1.0177,1.0237,1.0164,1.01885574429862,2411,735,1676,3628407.60033069,3696012.41822374,1063128.94158127,1083010.97259114,2565278.65874942,2613001.4456326,0,1.0177
2019-01-26,1.0179,1.0185,1.023,1.017,1.02017061604793,2626,1937,689,3952501.19032987,4032208.99373908,2696795.09077665,2751841.80016223,1255706.09955322,1280367.19357685,0,1.0185
2019-01-27,1.0185,1.013,1.0186,1.013,1.0149908931687,2759,776,1983,3290534.76787707,3340061.34081397,1007696.36742873,1022985.59659099,2282838.40044834,2317075.74422298,0,1.013
2019-01-28,1.013,1.018,1.0193,1.013,1.01643785456265,3168,1971,1197,3500860.68056432,3558552.75980896,2158336.00946763,2195022.17243729,1342524.67109669,1363530.58737167,5.77350269189562e-05,1.01806666666667
2019-01-29,1.0184,1.0185,1.0196,1.0166,1.01827285224208,1379,592,787,2143872.88508057,2183150.82315781,1009303.21380789,1028065.85417305,1134569.67127268,1155084.96898475,0,1.0185
2019-01-30,1.0185,1.0206,1.0218,1.0181,1.02046069830282,4044,3411,633,3289631.94792868,3356465.76852402,2666837.5111449,2721003.22626479,622794.43678378,635462.542259231,5.00000000000377e-05,1.0206
2019-01-31,1.0206,1.0196,1.023,1.0181,1.02047327828188,1931,609,1322,2839709.24820974,2898444.93614462,1548062.79654981,1581338.72059392,1291646.45165993,1317106.2155507,0,1.0196
2019-02-01,1.0196,1.02,1.02,1.0158,1.01782828621563,3040,1147,1893,3383967.0133405,3444199.61498498,1508793.56793632,1535972.83983307,1875173.44540418,1908226.77515191,0,1.02
2019-02-02,1.02,1.0174,1.02,1.015,1.01745168640977,1995,952,1043,2291381.40908135,2330751.25124941,1173179.53752958,1193896.06667307,1118201.87155177,1136855.18457635,5.47722557505045e-05,1.0174
2019-02-03,1.0171,1.0113,1.0184,1.0111,1.01423384213094,2721,621,2100,3605151.32343586,3655787.6127623,707763.66536427,718802.585424582,2897387.65807159,2936985.02733772,0,1.0113
2019-02-04,1.0113,1.0092,1.0113,1.0092,1.0098945221219,1204,679,525,2773307.73098897,2801042.64009704,1202593.94956389,1214489.81833557,1570713.78142508,1586552.82176148,0,1.0092
2019-02-05,1.0092,1.0125,1.0125,1.008,1.0099258885501,2062,1393,669,3613524.40058711,3649022.70762895,2667451.79058822,2694650.9273536,946072.60999889,954371.780275358,0,1.0125
2019-02-06,1.0126,1.0129,1.0129,1.009,1.01103560210678,2194,1197,997,2287889.42337718,2312835.36974953,1312406.26732093,1327222.6606879,975483.15605625,985612.709061641,0,1.0129
2019-02-07,1.0129,1.0135,1.0154,1.0113,1.01337886864098,1858,867,991,2501700.26128328,2535776.40654511,1722884.82077839,1746741.34881442,778815.44050489,789035.057730692,7.07106781185685e-05,1.01345
2019-02-08,1.0134,1.017,1.0248,1.0129,1.01759138465365,5085,2847,2238,7529229.47188947,7667763.732675,5159339.7007019,5255935.03225,2369889.77118757,2411828.70042501,0,1.017
2019-02-09,1.017,1.0155,1.0187,1.0151,1.01667763073233,3078,1024,2054,3447977.26837654,3505869.34673496,1269599.78137849,1291461.37826556,2178377.48699805,2214407.96846939,0,1.0155
2019-02-10,1.0151,1.017,1.0193,1.0145,1.0157260448098,2978,1157,1821,2854725.07902193,2901262.49320492,1429845.43565309,1454303.71232007,1424879.64336884,1446958.78088484,0.00055000000000005,1.017825
2019-02-11,1.0185,1.0142,1.0196,1.014,1.01617292733218,1845,503,1342,2087076.13190363,2120957.37682588,667110.59602363,678617.73904328,1419965.53588,1442339.6377826,0,1.0142
2019-02-12,1.0144,1.0178,1.0192,1.0126,1.01592948549413,2136,1091,1045,2774612.46191231,2818205.97070189,1327494.17849247,1349666.12033156,1447118.28341984,1468539.85037033,0,1.0178
2019-02-13,1.018,1.0154,1.0196,1.0145,1.01650497077319,1884,780,1104,2681714.3840356,2726397.48323966,1074831.99624358,1093217.90757896,1606882.38779202,1633179.5756607,0,1.0154
2019-02-14,1.0153,1.0184,1.0193,1.0146,1.01710768883033,1479,1036,443,1382462.44725659,1405670.49769065,822679.089848181,836749.026514648,559783.35740841,568921.471176005,5.16397779494566e-05,1.0184
2019-02-15,1.018,1.0185,1.0192,1.017,1.01825928276941,1539,754,785,1473850.14565228,1500936.17524463,804876.44345074,819845.537031686,668973.70220154,681090.638212945,0,1.0185
2019-02-16,1.0191,1.0181,1.02,1.018,1.01953527690266,1641,1019,622,3277356.02406347,3341770.15544595,2678965.83169023,2731939.85817425,598390.19237324,609830.297271702,0,1.0181
2019-02-17,1.018,1.0195,1.0236,1.0161,1.01809732833223,3492,1450,2042,3933878.35762051,4009648.84943901,2040155.91625579,2081823.04694679,1893722.44136472,1927825.80249223,8.86405260427468e-05,1.019425
2019-02-18,1.0186,1.021,1.0243,1.0168,1.021025345729,5393,3352,2041,6728401.89863992,6867785.42476689,3409772.15303159,3482338.08071711,3318629.74560833,3385447.34404977,0,1.021
2019-02-19,1.0213,1.0191,1.0238,1.017,1.02121219989978,4511,1458,3053,4504115.28929591,4598617.00314685,1512846.51579308,1545822.35390435,2991268.77350283,3052794.6492425,0,1.0191
2019-02-20,1.0191,1.0195,1.025,1.0185,1.02147971772766,3335,1720,1615,4249064.14596282,4340643.72889952,2177725.76766068,2225839.48500513,2071338.37830214,2114804.2438944,0.000252982212813489,1.0197
2019-02-21,1.0196,1.0192,1.0229,1.0179,1.01935910914558,3318,713,2605,3643361.27263107,3714870.21875604,1319216.4821564,1345849.81406025,2324144.79047467,2369020.40469579,0.000286605752110648,1.018925
2019-02-22,1.0186,1.0246,1.0246,1.0166,1.02107464601199,2901,1587,1314,3912819.28231001,3994933.86816025,2286257.60209203,2335853.38924699,1626561.68021798,1659080.47891325,9.90430401872149e-05,1.02448666666667
2019-02-23,1.0246,1.024,1.025,1.0208,1.02332801271478,2459,1593,866,2840302.63700572,2906089.57408877,1589769.25478262,1627254.9069419,1250533.3822231,1278834.66714687,0,1.024
2019-02-24,1.0241,1.0225,1.0256,1.0181,1.02195568215618,8443,3793,4650,8948876.809839,9141558.62582097,4263606.87062902,4358784.04928912,4685269.93920997,4782774.57653185,0.000243812313972159,1.02217777777778
2019-02-25,1.0225,1.0243,1.0243,1.0193,1.02218111065549,3052,1552,1500,2629071.58171959,2685999.31942256,1185540.15336248,1211847.72112755,1443531.42835711,1474151.59829501,0,1.0243
2019-02-26,1.0238,1.0226,1.0256,1.0204,1.02272111684437,2448,1649,799,3206514.16204157,3278739.3345279,1718043.69012152,1757480.81196893,1488470.47192005,1521258.52255897,7.07106781187255e-05,1.0226
2019-02-27,1.0226,1.0213,1.027,1.0208,1.02407779459769,3554,2407,1147,4001958.2823302,4098708.76318727,2580124.34791764,2644059.22770546,1421833.93441256,1454649.53548181,0,1.0213
2019-02-28,1.0214,1.0214,1.0264,1.0204,1.0237972556799,2192,1261,931,2394065.31691682,2451928.90462886,1456045.32727562,1491838.24108274,938019.9896412,960090.663546121,0,1.0214
2019-03-01,1.0214,1.0237,1.0255,1.0206,1.02260262434148,1437,755,682,2300499.92140396,2351869.21020563,1059201.0412395,1083311.78588392,1241298.88016446,1268557.42432171,0,1.0237
2019-03-02,1.0237,1.0234,1.0242,1.0215,1.02317613065422,1613,575,1038,1600178.36132778,1636957.0024431,383040.1479075,391881.716325698,1217138.21342028,1245075.2861174,0,1.0234
2019-03-03,1.0238,1.0204,1.0259,1.0203,1.02287314824311,1246,411,835,2073305.26239978,2120004.95869869,722118.17025018,739325.176414169,1351187.0921496,1380679.78228452,5.47722557505232e-05,1.0204
2019-03-04,1.0204,1.021,1.0238,1.02,1.02174673337442,3170,2372,798,4942300.00081735,5048577.31739912,2798011.29045628,2858728.4548586,2144288.71036107,2189848.86254052,0,1.021
2019-03-05,1.021,1.023,1.0238,1.0199,1.02190353740864,3484,2604,880,4242092.16052345,4333938.12129074,2369654.70264958,2421779.90661902,1872437.45787386,1912158.21467173,0,1.023
2019-03-06,1.023,1.0226,1.0245,1.0224,1.02345696878881,2279,1357,922,3095217.60683098,3167974.84939503,1718115.90982281,1758812.49245939,1377101.69700817,1409162.35693565,7.07106781187255e-05,1.02265
2019-03-07,1.0229,1.023,1.0244,1.0222,1.02314153349404,1997,999,998,1934693.29204437,1979686.00882307,1187362.45120687,1215170.04289583,747330.8408375,764515.965927239,0,1.023
2019-03-08,1.0229,1.0202,1.0237,1.0195,1.02176694740079,2138,743,1395,2699672.98186681,2758180.66249379,925186.84439435,945713.341344169,1774486.13747246,1812467.32114962,3.23380833382368e-05,1.0202
2019-03-09,1.0202,1.0195,1.0225,1.019,1.02075971737758,1883,768,1115,1834890.21728179,1872797.65410525,902431.134418289,921186.703275846,932459.0828635,951610.950829398,0,1.0195
2019-03-10,1.0196,1.0209,1.0214,1.0189,1.02014919498928,1379,891,488,1386991.75282243,1414904.6853402,952142.763139581,971420.328127583,434848.98968285,443484.35721262,0,1.0209
2019-03-11,1.0208,1.0208,1.0224,1.0193,1.02054416736817,2899,1709,1190,2787784.97201029,2846436.02030978,1775322.86058744,1812866.58308586,1012462.11142285,1033569.43722392,0.000151185789203743,1.02085714285714
2019-03-12,1.0207,1.0202,1.0221,1.0191,1.02040900880481,3339,1497,1842,2298355.47348159,2345511.79056925,1279595.66082466,1306141.93796719,1018759.81265693,1039369.85260206,0,1.0202
2019-03-13,1.0203,1.0212,1.0218,1.018,1.0204823314312,1393,786,607,1027766.97087669,1048577.17095197,512294.92883277,522892.630820187,515472.04204392,525684.540131779,7.0710678118804e-05,1.02115
2019-03-14,1.0211,1.019,1.0215,1.0181,1.01950652424271,1884,969,915,2038261.26627207,2078440.19498234,958295.44532835,977365.925354336,1079965.82094372,1101074.269628,5.77350269189562e-05,1.019
2019-03-15,1.019,1.0202,1.0216,1.018,1.0197609531716,1891,1057,834,2130072.90364705,2172626.72520883,1487442.39575047,1517465.03860471,642630.507896579,655161.686604123,0,1.0202
2019-03-16,1.0201,1.0218,1.024,1.0189,1.02188577993735,2935,1081,1854,2785282.33660203,2846856.74942377,1582928.64157503,1618399.83961079,1202353.695027,1228456.90981298,0,1.0218
2019-03-17,1.0218,1.0219,1.0222,1.0205,1.02153236756378,1219,447,772,839986.447986689,857913.148757953,222215.98002096,227018.288558693,617770.46796573,630894.860199259,0,1.0219
2019-03-18,1.0216,1.0217,1.0221,1.0201,1.02128198826388,2414,739,1675,2021454.50987833,2064572.19955563,657535.80815473,671673.280521787,1363918.7017236,1392898.91903384,0,1.0217
2019-03-19,1.0217,1.022,1.0231,1.0212,1.02176442961606,5801,666,5135,1953270.94967339,1995916.07519125,589061.4894054,602068.921847892,1364209.46026799,1393847.15334336,0,1.022
2019-03-20,1.0223,1.0226,1.0231,1.0212,1.0223560263843,1690,500,1190,2835491.31424797,2899451.60810883,768084.84392405,785364.207110666,2067406.47032392,2114087.40099816,0,1.0226
2019-03-21,1.0226,1.0166,1.0227,1.0164,1.02001008956473,2745,590,2155,1746662.14989954,1781556.93641633,251144.4575734,256316.455686022,1495517.69232614,1525240.48073031,0,1.0166
2019-03-22,1.0166,1.0153,1.0172,1.0153,1.01616220763689,3447,578,2869,2366362.06416721,2404963.49324888,996324.08334067,1012625.61498438,1370037.98082654,1392337.8782645,0,1.0153
2019-03-23,1.0153,1.015,1.0159,1.0144,1.01496282538433,2007,625,1382,992777.754528001,1007634.58118845,336611.26603188,341691.22740311,656166.48849612,665943.353785338,0,1.015
2019-03-24,1.0149,1.0135,1.0152,1.0131,1.01410675403974,1481,570,911,1055971.20043992,1070933.01359059,446718.88290807,453068.438153154,609252.31753185,617864.57543743,0,1.0135
2019-03-25,1.0134,1.0114,1.0142,1.0113,1.01301195087564,4504,688,3816,3394541.60829851,3438102.93227206,598069.11574612,606231.308276976,2796472.49255239,2831871.62399508,0,1.0114
2019-03-26,1.0114,1.0125,1.0131,1.0098,1.01175377222126,2675,796,1879,2703157.75279106,2734136.80580239,1377968.07121972,1394391.5081445,1325189.68157134,1339745.2976579,0,1.0125
2019-03-27,1.0127,1.0155,1.0156,1.0115,1.01397552004451,2323,1233,1090,1408239.96944918,1427684.40850938,936686.1135582,949941.8094974,471553.85589098,477742.599011977,5.47722557505232e-05,1.01544
2019-03-28,1.0155,1.0154,1.0171,1.0141,1.01564934061634,1433,792,641,1424304.41276351,1446679.70187961,845221.64751154,858621.429858883,579082.76525197,588058.27202073,0,1.0154
2019-03-29,1.0154,1.018,1.018,1.015,1.01664364697922,2671,2013,658,1611339.07570793,1638584.89312621,1344006.80886091,1366902.80853439,267332.26684702,271682.084591818,0,1.018
2019-03-30,1.0179,1.0161,1.02,1.0159,1.0173672896023,1762,748,1014,843474.61344104,858414.172322021,417162.13093829,424797.564452598,426312.48250275,433616.607869422,5.47722557504726e-05,1.01604
2019-03-31,1.016,1.0154,1.0171,1.0154,1.01612547470369,1747,382,1365,657699.48390702,668345.889838026,196449.49983982,199675.588681049,461249.9840672,468670.301156977,0,1.0154
2019-04-01,1.0155,1.013,1.0171,1.013,1.0150215313456,2715,438,2277,1366102.78851195,1386606.23953051,309831.61103653,314600.309679002,1056271.17747542,1072005.92985151,3.77964473010025e-05,1.013
2019-04-02,1.013,1.014,1.0301,1.013,1.02062758094523,15789,9172,6617,14081018.4390163,14391684.842323,8977915.75458871,9185491.84296423,5103102.68442758,5206192.99935874,9.9999999999989e-05,1.0139
2019-04-03,1.0138,1.0083,1.0217,1.0057,1.01403119783329,12767,3461,9306,11013809.3649763,11148773.7655757,3344114.03677967,3387926.20594629,7669695.32819663,7760847.55962944,0.000530601980337805,1.0085
2019-04-04,1.0077,1.0103,1.0145,1.0065,1.01067807213359,6284,2972,3312,3711078.55886552,3748633.3059497,1769347.99365401,1788504.4773153,1941730.5652115,1960128.82863441,0,1.0103
2019-04-05,1.0102,1.0154,1.018,1.0082,1.01210941207404,3765,1648,2117,2515321.58964237,2545101.52424712,1444077.07553784,1461727.79829361,1071244.51410452,1083373.72595351,0,1.0154
2019-04-06,1.0154,1.01,1.019,1.0092,1.01374780052971,4046,1749,2297,2722597.24146335,2758144.59962731,1119747.41482283,1136233.66787549,1602849.82664052,1621910.93175182,0,1.01
2019-04-07,1.01,1.0135,1.017,1.0093,1.01151015115996,3366,1928,1438,2461436.94923194,2489438.23930983,1463935.72321537,1481313.94326202,997501.226016571,1008124.29604781,0,1.0135
2019-04-08,1.014,1.0144,1.019,1.0083,1.01355766893793,10110,5657,4453,7988675.19891155,8096074.45876539,3235076.77481267,3280601.92058914,4753598.42409888,4815472.53817625,0,1.0144
2019-04-09,1.0144,1.0123,1.0199,1.0123,1.01593602869487,3901,2459,1442,3494623.33338314,3549259.87786422,1807450.59052185,1836705.6206246,1687172.74286129,1712554.25723962,5.77350269188921e-05,1.0123
2019-04-10,1.0122,1.0027,1.016,1.0024,1.01168076678746,7121,2506,4615,6050718.22315837,6112334.22888859,1663165.43837114,1685428.9163375,4387552.78478723,4426905.3125511,0,1.0027
2019-04-11,1.0027,1.0092,1.013,1.0026,1.00715304247436,5315,2793,2522,4627580.63144535,4656115.2569444,2411734.95048809,2427064.92624912,2215845.68095726,2229050.33069529,7.07106781187255e-05,1.0092
2019-04-12,1.0091,1.012,1.015,1.0091,1.01224318952209,2124,1411,713,1639446.41474869,1659509.89406826,949117.67244422,960867.193509389,690328.74230447,698642.700558873,0,1.012
2019-04-13,1.012,1.0117,1.014,1.011,1.01263667430187,816,518,298,451754.46276117,457497.631157878,315696.25908233,319772.49091738,136058.20367884,137725.140240498,5.77350269189242e-05,1.01166666666667
2019-04-14,1.0118,1.0121,1.0129,1.0105,1.01159368268249,1399,662,737,1016354.94723616,1028185.34974475,555565.53956555,562245.908676466,460789.40767061,465939.44106829,0.000238746727726272,1.01202
2019-04-15,1.0118,1.0028,1.0134,1.0026,1.00851818620235,5003,1239,3764,3424319.87389483,3452451.12335682,685913.10515939,692902.404565714,2738406.76873544,2759548.71879111,0,1.0028
2019-04-16,1.0027,1.0116,1.0143,1.0026,1.00640273425999,2918,1361,1557,2907010.65235857,2924043.99722541,1739329.89129325,1751447.54989684,1167680.76106532,1172596.44732857,0,1.0116
2019-04-17,1.0116,1.0109,1.0143,1.0108,1.01266321852273,1623,896,727,1190905.58124748,1206223.14594199,840998.08346804,851955.275694206,349907.49777944,354267.870247785,0,1.0109
2019-04-18,1.0109,1.0106,1.0124,1.008,1.01017237525364,1741,1007,734,1250329.30247908,1263006.42880549,686453.54101178,693569.564723079,563875.7614673,569436.864082411,0,1.0106
2019-04-19,1.0109,1.011,1.0111,1.0085,1.00970764391181,750,418,332,1235604.63873918,1247916.80722142,898607.60507281,907646.601319251,336997.03366637,340270.205902171,4.47213595500178e-05,1.01098
2019-04-20,1.0111,1.0086,1.0124,1.0085,1.01054959338772,1052,372,680,814409.561815111,822891.171199544,281071.76063679,284094.18224497,533337.80117832,538796.988954573,0.000115470053837912,1.0086
2019-04-21,1.0088,1.0124,1.0143,1.0088,1.01251747091513,2029,1335,694,980852.88704231,993345.162045205,692023.52712142,700995.908298125,288829.35992089,292349.25374708,0.000106904496764944,1.01251428571429
2019-04-22,1.0124,1.011,1.0145,1.0091,1.01156172886241,2167,1318,849,2436286.73073053,2465153.86733341,1275329.08272464,1290368.60382285,1160957.64800589,1174785.26351056,0,1.011
2019-04-23,1.011,1.0097,1.0147,1.0085,1.0123571172536,3061,1709,1352,3014796.47940177,3052074.39430393,1627467.65077868,1648750.13551342,1387328.82862309,1403324.25879051,9.91031208965407e-05,1.0096125
2019-04-24,1.0097,1.0113,1.016,1.0093,1.01273375775518,3192,1992,1200,3245429.49629555,3288930.16502434,2481359.56135253,2514323.99398965,764069.93494302,774606.171034683,5.77350269189562e-05,1.01136666666667
2019-04-25,1.0118,1.0009,1.013,0.98056,1.00783831844941,4766,761,4005,9376928.81745052,9401341.89890641,828205.75580925,834077.643617175,8548723.06164127,8567264.25528923,0,1.0009
2019-04-26,1.0009,1.0184,1.0199,0.99901,1.01251075377576,5817,2932,2885,13329965.1556642,13453009.7553924,6127457.92187382,6212871.1069552,7202507.2337904,7240138.64843714,0.0001000000000001,1.0184
2019-04-27,1.0183,1.021,1.021,1.0156,1.0177816120719,3331,2987,344,5844857.19575181,5948084.96122352,4914452.15951045,5002170.04894498,930405.03624137,945914.912278537,5.77350269189349e-05,1.02095
2019-04-28,1.0208,1.0316,1.037,1.0208,1.03052370118759,2500,2093,407,2754271.78450299,2839598.49745501,2330070.91155167,2401635.48837866,424200.87295132,437963.009076349,0,1.0316
2019-04-29,1.0328,1.0458,1.0458,1.0252,1.03609983400758,4095,3213,882,5740402.12072627,5949636.44045029,4342215.2680353,4501618.20817088,1398186.85269097,1448018.23227942,0,1.0458
2019-04-30,1.0458,1.0523,1.0523,1.0369,1.04860896281348,4424,3595,829,6447635.08303269,6760751.8811382,4200867.20924258,4405478.52106426,2246767.87379011,2355273.36007394,0,1.0523
2019-05-01,1.0522,1.0461,1.0544,1.043,1.04859186941931,2757,2061,696,2833414.25756163,2969639.0475986,1647627.27627224,1727639.52347295,1185786.98128939,1241999.52412565,5.77350269189562e-05,1.04616666666667
2019-05-02,1.0461,1.0433,1.0528,1.0406,1.04765398004074,3607,2931,676,3767617.0081876,3948739.91260321,2719754.93088353,2852793.59476446,1047862.07730407,1095946.31783876,7.07106781185685e-05,1.04325
2019-05-03,1.0424,1.0434,1.054,1.0402,1.04699124630066,4769,3120,1649,5398075.1505019,5654925.88123537,3152872.91237931,3304769.94176043,2245202.23812259,2350155.93947493,4.8795003647508e-05,1.04332857142857
2019-05-04,1.0435,1.046,1.05,1.0413,1.0464431782908,2471,1361,1110,1998856.04138964,2091735.92680038,947359.287603109,991648.694226283,1051496.75378653,1100087.2325741,0.00113137084989859,1.046
2019-05-05,1.0466,1.0471,1.0485,1.04,1.04559342229146,2302,1895,407,2566932.75218405,2680422.44998423,1433636.54188166,1499264.22744101,1133296.21030239,1181158.22254322,0,1.0471
2019-05-06,1.0472,1.0506,1.0553,1.0457,1.05083402583659,2594,1907,687,3546248.24988677,3726630.02781404,2388857.17488788,2510504.83024792,1157391.07499889,1216125.19756611,0.000109544511500982,1.0507
2019-05-07,1.0504,1.0448,1.0569,1.0448,1.04936337065519,3114,1655,1459,10286957.0696156,10785223.5559594,7839155.39196686,8220375.38571341,2447801.67764874,2564848.17024599,0.000206155281280941,1.0448
2019-05-08,1.0461,1.0357,1.0475,1.032,1.03677939573407,3204,735,2469,3248162.39694806,3370175.50617279,896579.32454381,929657.118503741,2351583.07240425,2440518.38766905,0,1.0357
2019-05-09,1.0357,1.0142,1.045,1.0142,1.0277360591698,2319,1218,1101,4285721.50198279,4410888.41798813,1855933.56598442,1916419.50024963,2429787.93599837,2494468.91773851,8.34522960395651e-05,1.0143125
2019-05-10,1.0141,1.0089,1.018,1.0082,1.01225299140808,4203,815,3388,6834095.64322999,6917917.85508128,1368749.71560048,1385904.8442341,5465345.92762952,5532013.01084718,0,1.0089
2019-05-11,1.0089,0.99871,1.009,0.9987,1.00227027891965,16401,1856,14545,20341317.920479,20360116.8769086,2059988.3354078,2066709.98871877,18281329.5850712,18293406.8881898,5.9420351436913e-06,0.998705238095238
2019-05-12,0.99871,1.0016,1.0095,0.995,1.00014611922658,8365,2352,6013,11550255.6339408,11558181.3077107,3572805.8736746,3585595.32810258,7977449.76026622,7972585.97960811,0,1.0016
2019-05-13,1.0016,0.99771,1.0149,0.9956,0.999032462202731,13245,2047,11198,27271123.2367073,27263259.195218,7463593.26695434,7482949.80114441,19807529.969753,19780309.3940736,0,0.99771
2019-05-14,0.9977,0.99552,0.99966,0.98931,0.995477036989638,15762,1295,14467,19872459.5602337,19783620.4133359,2352157.19923912,2341908.27984057,17520302.3609945,17441712.1334954,1.41421356237843e-05,0.99553
2019-05-15,0.99552,0.99571,1.0029,0.99501,0.999129504151766,10726,2769,7957,10610658.4898386,10602266.1286773,3822232.58305278,3824632.19452447,6788425.90678587,6777633.93415285,0,0.99571
2019-05-16,0.99572,0.99882,1.003,0.99482,0.998776058237068,10670,3003,7667,10504610.3700525,10495768.4133831,4936296.74088744,4938355.05254573,5568313.62916507,5557413.36083736,0.000568884874117752,0.999356
2019-05-17,0.99882,1.0079,1.0144,0.997,1.0053413956809,10663,6355,4308,11635267.1346669,11691566.1799793,7526068.35060497,7574273.69924587,4109198.78406195,4117292.48073339,0.00070710678118647,1.0084
2019-05-18,1.009,1.0004,1.009,1.0004,1.00339997497706,2929,1111,1818,3265555.76795436,3275293.55626659,867013.35661541,870005.828711821,2398542.41133895,2405287.72755476,0,1.0004
2019-05-19,1.0004,1.0039,1.0065,0.9996,1.00250338883292,4227,1374,2853,6709708.66022948,6721967.07268894,2195828.23082407,2202228.763044,4513880.42940541,4519738.30964493,0.000208166599946653,1.0039
2019-05-20,1.0038,1.0059,1.0059,1.0003,1.0021521152473,7133,4235,2898,7708262.58593353,7721803.94309708,4376960.44833618,4386323.3335983,3331302.13759735,3335480.60949879,0,1.0059
2019-05-21,1.0059,1.0036,1.0064,1.0025,1.00447269487751,3846,2747,1099,3984387.88148068,4001138.36541408,2425096.38596597,2435949.53365563,1559291.49551471,1565188.83175845,7.52772652708978e-05,1.0036
2019-05-22,1.0036,0.99948,1.0049,0.999,1.00302119802293,4361,1725,2636,5929141.47325549,5941671.22579383,2078047.24039226,2083869.8279586,3851094.23286323,3857801.39783523,0,0.99948
2019-05-23,0.9993,1.0027,1.0029,0.99853,1.00071036465173,2701,969,1732,3473693.97574129,3474587.87016991,907332.09089999,908314.105159992,2566361.8848413,2566273.76500991,4.08248290463601e-05,1.0027
2019-05-24,1.0022,1.0032,1.0067,1.0021,1.00472531223003,3754,3083,671,3898489.63885404,3917779.69577608,3253994.91175417,3270608.61079,644494.72709988,647171.084986081,0,1.0032
2019-05-25,1.0032,1.0022,1.0057,1.0017,1.00348541212562,5449,4999,450,7085358.30647064,7110259.60308895,5896018.31878325,5916889.22131619,1189339.98768739,1193370.38177276,0,1.0022
2019-05-26,1.0022,1.009,1.0139,1.001,1.00478183292156,16166,14852,1314,21338629.8874526,21479764.4470398,18588981.8854824,18717994.0847392,2749648.00197019,2761770.36230059,4.69997463512975e-05,1.00903225806452
2019-05-27,1.009,1.0046,1.0139,1.0016,1.00795999533881,9058,7530,1528,10400839.7324066,10489255.2438337,7997951.30439504,8069976.43901324,2402888.42801158,2419278.80482052,0.000170782512766009,1.004625
2019-05-28,1.0047,1.002,1.006,1.0013,1.00398251410271,6180,4253,1927,7008197.47691805,7035377.86724558,3663697.73597967,3679714.23405477,3344499.74093838,3355663.6331908,8.16496580927636e-05,1.00216666666667
2019-05-29,1.002,1.0035,1.005,1.0018,1.00342229925927,7524,5586,1938,9433310.10193673,9466020.50106936,7513195.22499689,7539978.03036944,1920114.87693984,1926042.47069992,7.07106781186339e-05,1.0036
2019-05-30,1.004,1.0001,1.005,0.9995,1.0025978599217,12870,5107,7763,17513207.0338906,17543026.2432015,5876521.94958883,5893291.19781671,11636685.0843018,11649735.0453848,0.00025625508125046,1.0001
2019-05-31,1.0001,0.99824,1.001,0.99632,0.998612324761313,8247,611,7636,12454312.2225355,12438272.6126838,2701135.6339745,2697603.20189617,9753176.588561,9740669.41078764,0.000169705627484784,0.99824
2019-06-01,0.99772,0.99995,1.0026,0.9975,1.00007449396426,2744,1173,1571,4849026.0653625,4850721.81917714,2351642.54368534,2353139.97270471,2497383.52167716,2497581.84647243,0.00021360009363289,1.0002375
2019-06-02,1.0007,1.0007,1.0033,0.9993,1.00144621216039,2052,1027,1025,3716953.28098626,3723228.84975429,2123220.40521114,2127741.53783809,1593732.87577512,1595487.3119162,0,1.0007
2019-06-03,1.0004,0.9985,1.0021,0.9963,0.999392029475857,5824,1118,4706,9754203.31524175,9740403.08886902,2483539.18051215,2482388.15613594,7270664.13472959,7258014.93273308,5.77350269185396e-06,0.998506666666667
2019-06-04,0.9987,1.0012,1.0025,0.996,0.999424273896399,5355,1856,3499,6802999.99954862,6796480.70632116,3098544.29252078,3098374.22459608,3704455.70702784,3698106.48172506,0,1.0012
2019-06-05,1.0012,1.0024,1.0039,1.0005,1.00275086775031,2549,1966,583,3459123.86440835,3469223.09747489,2645388.69226758,2653458.30734691,813735.17214077,815764.790127976,7.07106781185685e-05,1.0024
2019-06-06,1.0019,1.0025,1.0032,1.0004,1.00187451818242,1988,972,1016,2335780.69825407,2339438.07023489,913971.64028919,915730.287144059,1421809.05796488,1423707.78309083,0.000115470053837912,1.00243333333333
2019-06-07,1.0025,1.0024,1.004,1.0007,1.00273491830579,4202,2703,1499,4051416.3325564,4062964.3318296,2645964.20829557,2654671.58327953,1405452.12426083,1408292.74855007,7.07106781187255e-05,1.0024
2019-06-08,1.0025,1.0038,1.004,1.0005,1.00231210975252,1347,779,568,1005276.03745315,1007800.2845679,735269.28211003,737326.844705763,270006.75534312,270473.439862133,0.000141421356237294,1.0037
2019-06-09,1.0036,1.001,1.0046,1.0005,1.00264430747255,2615,960,1655,3486080.57689527,3495089.73997844,1273447.83820163,1277845.09479991,2212632.73869364,2217244.64517853,0.000199999999999978,1.0007
2019-06-10,1.0007,1.0039,1.0046,1.0006,1.0026604590119,2476,1555,921,3175636.80780386,3185707.20543708,2161694.11637052,2169239.02425839,1013942.69143334,1016468.18117869,7.07106781187255e-05,1.00395
2019-06-11,1.004,1.0028,1.0041,1.0009,1.0030089807839,2060,967,1093,2453263.57437629,2460325.15912572,1068518.19509603,1072146.26993337,1384745.37928026,1388178.88919235,7.07106781187255e-05,1.00285
2019-06-12,1.0034,1.0037,1.0049,1.0021,1.00386639508049,11336,10478,858,11760596.8318967,11806255.0162432,10432680.4912526,10474162.7619766,1327916.34064405,1332092.25426664,0,1.0037
2019-06-13,1.0037,1.0015,1.0039,1.0015,1.0032481384302,5081,3926,1155,7260216.11403875,7283347.77378642,5548875.09451685,5567458.03059625,1711341.01952191,1715889.74319017,0,1.0015
2019-06-14,1.0016,1.0031,1.0034,1.0006,1.00210156864788,4748,3081,1667,5473076.6539978,5484788.34114856,3954513.63097289,3963867.02349304,1518563.02302491,1520921.31765551,7.07106781187255e-05,1.00315
2019-06-15,1.0032,1.0036,1.004,1.0027,1.00346230691223,3052,2756,296,9242292.51544798,9275402.09329566,8212585.70811878,8242090.51660704,1029706.80732922,1033311.57668864,0,1.0036
2019-06-16,1.0036,1.0026,1.0063,1.0019,1.00424984594245,8002,6371,1631,16109204.1364333,16176498.4742294,11821435.7617638,11873824.4143145,4287768.3746695,4302674.05991493,0,1.0026
2019-06-17,1.0027,1.0043,1.0048,1.001,1.00374554832985,2969,2290,679,9021665.07657626,9054111.82489106,6013680.93240266,6037667.61235557,3007984.14417361,3016444.21253549,0,1.0043
2019-06-18,1.0043,1.0008,1.0046,0.999,1.00178422438637,4094,1636,2458,9664808.38004076,9683722.9922319,3336612.9731404,3346398.40307692,6328195.40690037,6337324.58915498,0,1.0008
2019-06-19,1.0008,1.0039,1.0039,1.0007,1.00224758479238,1822,1285,537,5401063.12783208,5414185.84108199,3395657.89323492,3404099.68495176,2005405.23459716,2010086.15613023,0,1.0039
2019-06-20,1.0038,1.004,1.0047,1.0027,1.00392292830837,3095,2147,948,7607252.30695782,7638498.88969726,5453909.76724496,5476958.14113803,2153342.53971286,2161540.74855922,0.000100000000000026,1.00385
2019-06-21,1.0035,1.0041,1.0045,1.0009,1.00282776920068,6177,4192,1985,9903530.97515942,9935177.85166203,5732910.5312811,5754277.19041419,4170620.44387833,4180900.66124783,0.000137321312465134,1.00388
2019-06-22,1.0041,1.0023,1.0046,0.99861,1.00303354323812,14090,8542,5548,20816152.4023415,20883163.7080648,11564940.8134438,11608966.8178248,9251211.58889768,9274196.89024003,0,1.0023
2019-06-23,1.0023,1.0002,1.003,0.9999,1.00162456806609,6067,2338,3729,8736369.98271088,8748748.33381588,3632679.64868814,3639397.10908879,5103690.33402273,5109351.22472707,8.16496580927727e-05,1.00026666666667
2019-06-24,1.0003,0.9989,1.0013,0.998,0.999206054787181,8774,2015,6759,10944732.8225268,10936465.6731767,2550472.01962982,2550479.86658946,8394260.80289698,8385985.80658725,0,0.9989
2019-06-25,0.9989,0.9958,1.0007,0.9958,0.998295284567058,9113,1700,7413,13857060.0844133,13834021.4359195,2652641.19748358,2651300.52722102,11204418.8869297,11182720.9086985,0,0.9958
2019-06-26,0.9958,0.98658,0.9985,0.97962,0.992661875534943,29413,3633,25780,42420287.014731,42068102.0714112,5198008.20790736,5177051.39289465,37222278.8068236,36891050.6785166,0,0.98658
2019-06-27,0.98658,0.9892,0.9965,0.9856,0.990376256644353,18655,3838,14817,28486329.3960156,28215172.4564334,4527421.83776251,4492683.59031805,23958907.5582531,23722488.8661154,0.000404145188432784,0.9892
2019-06-28,0.9892,0.9924,0.996,0.987,0.991444521706462,17606,1935,15671,25365421.3155834,25113825.4092541,3575724.42810193,3550233.27706228,21789696.8874815,21563592.1321917,7.0710678119118e-06,0.992405
2019-06-29,0.99288,1,1,0.99201,0.994709563693009,8330,2641,5689,12864367.1207872,12787599.9075416,4604615.07543824,4586738.29384666,8259752.04534901,8200861.61369494,0,1
2019-06-30,1,0.99494,1.001,0.99296,0.997006258065829,5885,2566,3319,8828542.91981065,8798312.57404274,3357732.53651021,3353448.50767989,5470810.38330044,5444864.06636285,9.67815409397532e-05,0.994795
2019-07-01,0.99496,1.0015,1.0029,0.99401,0.999781219359307,5860,4528,1332,11528843.6441361,11525967.0735051,8938018.0741994,8936422.26524608,2590825.5699367,2589544.80825904,7.07106781185685e-05,1.0015
2019-07-02,1.0015,1.0033,1.0046,0.9981,1.00279101227298,7311,6446,865,11951749.2023774,11983990.7735894,9842315.34102242,9872077.00183379,2109433.86135493,2111913.77175556,0,1.0033
2019-07-03,1.0033,1.0031,1.0034,1.0006,1.00261311155034,7756,6457,1299,12426488.3135512,12459963.9083659,9780549.26484457,9809758.87268989,2645939.04870665,2650205.03567602,0,1.0031
2019-07-04,1.0031,1.002,1.0032,1.002,1.00296068447814,9740,8779,961,13067042.7603141,13105843.4862156,11500805.2489153,11536093.517905,1566237.5113988,1569749.96831064,0.000282842712474588,1.0022
2019-07-05,1.0027,1.0024,1.0034,0.99901,1.00196985966574,4832,3174,1658,7678020.15197985,7695873.9390833,5061529.36104124,5076337.58105983,2616490.79093861,2619536.35802347,5.77350269190203e-05,1.00243333333333
2019-07-06,1.0024,1.003,1.0047,1.0023,1.00421271929659,9982,9380,602,15647980.5899233,15716085.4355105,14729695.5164513,14794528.2867058,918285.07347195,921557.148804736,0,1.003
2019-07-07,1.003,1.0045,1.0045,1.0021,1.00354395750219,4549,3805,744,7491417.53766639,7519736.53957635,6225779.46688555,6250720.78327232,1265638.07078084,1269015.75630403,0,1.0045
2019-07-08,1.0045,1.0041,1.0048,1.0037,1.00450323574539,11224,10762,462,17450817.1997368,17531196.3950785,16155709.1742147,16230298.6448655,1295108.02552219,1300897.75021299,0,1.0041
2019-07-09,1.0041,1.0018,1.0043,1.0006,1.00233012163179,5430,3063,2367,9952567.50764784,9978387.98801563,4460528.69060375,4474479.23895552,5492038.8170441,5503908.74906012,0,1.0018
2019-07-10,1.0018,0.99833,1.0033,0.998,1.00020181046495,9424,4753,4671,12563340.0732971,12561997.3256479,4311455.4493804,4315454.62920572,8251884.62391668,8246542.69644212,0,0.99833
2019-07-11,0.99911,0.99965,1.0014,0.998,0.999800529880772,6543,3583,2960,7013267.74431937,7010068.44414068,3002395.84263173,3002277.44199264,4010871.90168764,4007791.00214805,5.77350269193408e-06,0.99965
2019-07-12,0.9991,1.0019,1.0024,0.9986,1.00044716436053,2618,1786,832,3059630.35624047,3062324.63639216,2322426.14168076,2324968.366155,737204.21455971,737356.270237158,0.000244948974278273,1.0016
2019-07-13,1.0013,0.99637,1.0021,0.995,0.998740151958756,4944,756,4188,9456750.09777587,9440375.42749767,1113553.75385533,1112797.89474761,8343196.34392053,8327577.53275007,4.24264068711568e-05,0.99634
2019-07-14,0.99641,0.99998,1.0001,0.99531,0.998066271960359,7398,3210,4188,8198482.9300461,8179108.5519859,4088007.51977411,4084095.78303976,4110475.41027199,4095012.76894613,0,0.99998
2019-07-15,0.99998,0.9973,1.002,0.99721,1.00022906169552,6560,4143,2417,6031539.45354827,6032310.15944238,3380686.32670029,3382831.43833369,2650853.12684798,2649478.7211087,0,0.9973
2019-07-16,0.9973,0.99954,0.99991,0.9961,0.998394102154092,8210,2600,5610,10287080.6334668,10265941.6941827,4533920.70354579,4528365.71465279,5753159.92992102,5737575.97952993,0.000235944908824081,0.99954
2019-07-17,0.9989,1.0012,1.0022,0.9984,1.00019418156107,4664,2434,2230,4920685.05437411,4922524.7463683,2851916.58601312,2853533.37724274,2068768.468361,2068991.36912556,0,1.0012
2019-07-18,1.0011,1.0008,1.0022,0.9979,0.999894335621828,4778,2421,2357,5473940.08736411,5473492.16181922,2436677.99968953,2438186.191578,3037262.08767459,3035305.97024123,0.000384293921604077,1.0008
2019-07-19,1.0008,1.0011,1.0032,0.9995,1.00096932708365,3930,2352,1578,4619082.61097468,4624378.90729953,2548868.37358653,2552817.44007132,2070214.23738815,2071561.46722821,0,1.0011
2019-07-20,1.0011,1.001,1.0018,0.9997,1.0007856647203,4147,2582,1565,4517452.01827588,4520552.70478426,2676555.9752222,2678771.20192133,1840896.04305368,1841781.50286293,0.000172240142436835,1.001
2019-07-21,1.0008,0.99909,1.0011,0.9975,0.999017755706644,2850,878,1972,4553127.28383794,4548550.76476594,1518763.33251333,1517094.65283408,3034363.95132461,3031456.11193186,0.000116040745195233,0.999006363636364
2019-07-22,0.9991,0.99862,0.9993,0.99702,0.99837516104382,3043,968,2075,4439122.79156141,4430412.2326468,1700594.08122114,1697875.50814489,2738528.71034027,2732536.72450191,1.41421356236666e-05,0.99861
2019-07-23,0.99858,0.9989,1,0.9973,0.998668193210326,1891,888,1003,4340044.8656127,4335481.48535733,3156602.96599166,3153780.59713174,1183441.89962104,1181700.88822559,2.16794833886765e-05,0.998922
2019-07-24,0.99891,0.9994,1.0002,0.9978,0.99923991059265,1935,963,972,5441698.66351105,5437937.41515211,3462611.4326735,3461165.36795722,1979087.23083756,1976772.0471949,0.000172626765016378,0.99965
2019-07-25,1.0002,1.0008,1.0016,0.99913,1.00061324669444,3131,1804,1327,5267543.58577455,5270434.95275586,2939079.63459082,2941512.20109723,2328463.95118373,2328922.75165864,0.000115470053837912,1.0008
2019-07-26,1.0005,1.0006,1.0016,0.9997,1.00068612639785,2983,1226,1757,5657266.71791748,5659544.24473046,3862946.91398448,3864613.41238333,1794319.803933,1794930.83234713,0,1.0006
2019-07-27,1.0007,0.99909,1.0022,0.996,0.999811398393992,8001,3254,4747,18052530.9471147,18039300.7661336,7817191.50551679,7816294.12518377,10235339.4415979,10223006.6409498,5.50757054728313e-05,0.999026666666667
2019-07-28,0.99899,0.9984,1.0007,0.99561,0.998406920862806,3371,1070,2301,8291726.83201676,8275823.79977034,3718934.0454622,3715335.71294575,4572792.78655456,4560488.08682459,7.07106781187647e-05,0.99845
2019-07-29,0.9984,0.99776,0.999,0.99631,0.997875390034572,3662,1002,2660,4145524.01019016,4135874.20242903,1289416.30792577,1287025.76988966,2856107.70226439,2848848.43253937,5.77350269193408e-06,0.997763333333333
2019-07-30,0.99839,1.0006,1.0007,0.9976,0.999328898698644,4139,2785,1354,4722936.76097924,4720392.48277287,3396124.57188088,3395160.34057606,1326812.18909836,1325232.14219682,0,1.0006
2019-07-31,1.0007,1.0014,1.0034,0.9991,1.00108814076023,3888,2505,1383,6247821.24395479,6255506.8352256,3496130.06537751,3501781.24529195,2751691.17857728,2753725.58993365,4.99999999999637e-05,1.001375
2019-08-01,1.0018,1.002,1.0025,0.9996,1.00152790985079,2459,430,2029,3396419.13801434,3400250.01637422,1338411.87713432,1340429.05340228,2058007.26088002,2059820.96297194,0,1.002
2019-08-02,1.002,1,1.0023,0.9996,1.00096735118854,2122,507,1615,3602849.19790542,3605064.23959689,1101658.01747145,1102747.07464267,2501191.18043397,2502317.16495422,0,1
2019-08-03,1,1.001,1.0017,0.9996,1.00059520307683,1436,864,572,2667176.96474895,2669272.84537272,1849031.47492393,1850798.6139619,818145.489825021,818474.231410812,0,1.001
2019-08-04,1.001,1.0025,1.0025,1.0003,1.00159423581309,2366,1271,1095,3891754.02939876,3897794.00842647,2297728.90081341,2301980.39944067,1594025.12858535,1595813.60898579,5.27046276695468e-05,1.0025
2019-08-05,1.0025,1.0006,1.0029,0.9998,1.00126111792203,3081,1409,1672,5953769.64746245,5962093.82613173,2854569.80144159,2860099.26509041,3099199.84602087,3101994.56104132,5.77350269189349e-05,1.0006
2019-08-06,1.0002,0.99965,1.003,0.9994,1.00058842422657,2653,804,1849,4525455.18867007,4528649.83804933,1857011.52524871,1859325.71577622,2668443.66342136,2669324.12227311,5.65685424948626e-05,0.99969
2019-08-07,0.9997,1.0012,1.0021,0.9991,1.00017150914009,2503,1296,1207,4198795.54287126,4200245.33653431,2068362.38926536,2069687.97210936,2130433.1536059,2130557.36442496,7.07106781187255e-05,1.00115
2019-08-08,1.0012,1.0017,1.0034,1.0003,1.00185931159938,5342,4670,672,8838634.48124754,8856216.68216539,7219462.84392899,7234206.04753737,1619171.63731855,1622010.63462802,0,1.0017
2019-08-09,1.0017,1.0016,1.002,1.0006,1.00148041698236,4966,3899,1067,9243092.42707637,9257180.46717267,7666593.14547965,7678932.67901544,1576499.28159674,1578247.78815722,0,1.0016
2019-08-10,1.0016,0.99966,1.0017,0.99828,1.00065932928215,3056,905,2151,4611995.0714238,4613095.53342563,1979600.82600296,1981168.47234986,2632394.24542084,2631927.06107576,0,0.99966
2019-08-11,0.99966,1.0014,1.0014,0.99941,1.00063795945929,1191,847,344,1672303.46647908,1673273.97036934,1240246.3294434,1241056.74934602,432057.13703568,432217.22102332,0,1.0014
2019-08-12,1.0014,1.0009,1.0014,1.0001,1.00076847269689,1001,306,695,902944.33497458,903600.807529031,360248.47201153,360598.877013772,542695.86296305,543001.930515259,0,1.0009
2019-08-13,1.0009,1.0007,1.0012,0.9994,1.00053561289031,1567,1050,517,1991557.68643656,1992396.2491357,905208.3085735,905875.226994875,1086349.37786306,1086521.02214083,5.0000000000013e-05,1.0007
2019-08-14,1.0007,1.0013,1.0013,0.9991,1.00050941753166,2912,1671,1241,4685716.3427021,4687055.28616838,3078862.25380962,3080500.36765294,1606854.08889248,1606554.91851545,0,1.0013
2019-08-15,1.0013,1.0018,1.0018,0.9994,1.00117497529335,2983,1877,1106,5963155.76795009,5969566.43672069,3873016.05945239,3878514.39206555,2090139.70849769,2091052.04465513,0,1.0018
2019-08-16,1.0015,1.0018,1.0018,1.0002,1.00132945865298,2344,1864,480,3734161.8743334,3739068.06991548,2655512.74562689,2659577.19077112,1078649.12870651,1079490.87914436,0,1.0018
2019-08-17,1.0018,1.0011,1.0019,1.0005,1.00162295692017,2448,2020,428,1883217.03037802,1886298.91849645,1479280.91909254,1481943.07774408,403936.11128548,404355.840752368,0,1.0011
2019-08-18,1.0011,1.0019,1.0019,1.0007,1.00160254698736,1356,1110,246,1165986.85198205,1168026.61647198,1068492.11502451,1070392.95489232,97494.73695754,97633.6615796622,0,1.0019
2019-08-19,1.0019,1.002,1.0021,1.0013,1.00185402648636,2379,1955,424,3423162.44998535,3429667.54439201,3279974.2370427,3286235.83329616,143188.21294265,143431.71109585,0,1.002
2019-08-20,1.0021,1.002,1.0022,1.0016,1.00201396118819,898,640,258,1608932.6176747,1612218.84991039,1281487.1051245,1284153.73421828,327445.5125502,328065.115692115,3.33333333333158e-05,1.002
2019-08-21,1.002,1.0008,1.002,0.99945,1.00057159750215,1614,386,1228,3899998.08091927,3901793.73641476,1138483.83804602,1139359.88045024,2761514.24287325,2762433.85596453,0,1.0008
2019-08-22,1.0008,1.0014,1.0014,1.0004,1.00104021961071,786,509,277,1031850.31304124,1032929.72199608,795638.266213869,796522.696426654,236212.04682737,236407.025569425,5.47722557505045e-05,1.0014
2019-08-23,1.0014,1.0019,1.002,1.0013,1.00171050864315,1533,1225,308,2036829.39326825,2040453.11165185,1792254.50454649,1795500.45225236,244574.88872176,244952.65939949,0.000141421356237294,1.0019
2019-08-24,1.0017,1.0006,1.002,1.0006,1.00156400181794,820,442,378,1132509.19472257,1134286.14446065,524274.36625759,525292.209997964,608234.82846498,608993.934462682,1.88982236503786e-05,1.00060357142857
2019-08-25,1.0011,1.0001,1.002,1,1.00128016774434,975,464,511,1623364.80256324,1624965.32990197,648760.24239426,649911.387516147,974604.56016898,975053.942385823,0,1.0001
2019-08-26,1.0001,1.001,1.0023,1.0001,1.00133258435677,2215,1601,614,3676631.89729418,3682998.72872621,2526728.82844107,2531601.32278151,1149903.06885311,1151397.4059447,0,1.001
2019-08-27,1.0011,1.0006,1.0014,1.0001,1.00058446458857,1182,134,1048,1752124.72991514,1753158.3737675,367302.07524701,367597.418288959,1384822.65466813,1385560.95547854,5.77350269189562e-05,1.0006
2019-08-28,1.0006,1.0009,1.0023,0.999,1.00096368147648,2146,464,1682,4603970.60001454,4606480.00628911,1544711.16751484,1546749.5319922,3059259.4324997,3059730.47429691,0,1.0009
2019-08-29,1.0004,1.0023,1.003,1.0004,1.00194434228935,1243,767,476,2102653.99820521,2106907.88282227,1688079.81624211,1691516.89274383,414574.1819631,415390.990078442,0,1.0023
2019-08-30,1.0023,1.0027,1.0028,1.0018,1.0024389084299,464,293,171,994536.49868186,996915.000575613,723397.11112389,725205.803694086,271139.38755797,271709.196881526,0.000264575131106409,1.0027
2019-08-31,1.0026,1.0029,1.0029,1.002,1.00236508342918,571,227,344,613169.11317824,614651.323869803,383014.95258051,383986.219602788,230154.16059773,230665.104267015,0,1.0029
2019-09-01,1.0029,1.0032,1.0033,1.0023,1.00298754952811,504,309,195,1069667.41476108,1072991.98685117,966294.10086903,969318.855858666,103373.31389205,103673.130992505,5.77350269189562e-05,1.00313333333333
2019-09-02,1.0031,1.0034,1.0034,1.0023,1.0029132035978,1918,1572,346,3861593.34283472,3873021.10413123,3150554.05159667,3159985.05495323,711039.29123805,713036.049178004,0,1.0034
2019-09-03,1.0034,1.0027,1.0034,1.0011,1.00239784912137,1177,553,624,2263984.14977837,2269378.35429677,1017552.48548858,1020382.39145418,1246431.66428979,1248995.96284259,0,1.0027
2019-09-04,1.0027,1.0027,1.0031,1.0011,1.00275429563218,916,666,250,1592680.57557123,1596888.57233112,911854.54636716,914453.99233439,680826.02920407,682434.579996729,0.000212132034356019,1.00285
2019-09-05,1.003,1.0021,1.0032,1.0015,1.002526821013,1113,355,758,1663613.05131192,1667490.81466943,506492.0469217,507805.915035608,1157121.00439022,1159684.89963382,0,1.0021
2019-09-06,1.0018,1.0019,1.0034,1.0013,1.00238196817144,2216,970,1246,5719217.40615882,5732808.02918665,3193661.16637348,3202129.05761333,2525556.23978534,2530678.97157332,0.000111269728052875,1.00177142857143
2019-09-07,1.0017,1.0031,1.0031,1.0016,1.0024265427976,1260,1044,216,1770271.95668143,1774628.98687719,1637825.65832052,1641950.53384783,132446.29836091,132678.453029361,0,1.0031
2019-09-08,1.0031,1.0027,1.0034,1.0025,1.00299286611665,586,362,224,1108742.54062365,1112080.15510797,580661.8950553,582504.450288184,528080.64556835,529575.704819784,0.000116904519444949,1.0027
2019-09-09,1.0028,1.0024,1.0035,1.0024,1.00302838300996,903,505,398,2430319.21545558,2437860.4463189,986840.53707549,990003.313531229,1443478.67838009,1447857.13278768,0,1.0024
2019-09-10,1.0024,1.002,1.0028,1.0014,1.00206046172819,1151,280,871,1637583.67464549,1640761.32729073,301129.66703668,301730.702688496,1336454.00760881,1339030.62460224,7.07106781187255e-05,1.00195
2019-09-11,1.0019,1.0018,1.0021,1.0013,1.00165562779809,1186,409,777,717605.45892206,718779.989865588,307201.7248292,307745.404011012,410403.73409286,411034.585854575,0,1.0018
2019-09-12,1.0018,1.0027,1.0029,1.0017,1.00235009266417,1333,1099,234,1461331.40563595,1464799.21067092,1362881.22560885,1366120.68652006,98450.1800271,98678.5241508635,5.0000000000013e-05,1.002775
2019-09-13,1.0029,1.0029,1.0033,1.0021,1.00276891882412,1117,629,488,1316348.2522208,1319962.5802598,644904.65547584,646781.534242432,671443.59674496,673181.046017371,0,1.0029
2019-09-14,1.0029,1.0036,1.0037,1.0025,1.00317229415951,794,644,150,1040397.44560959,1043789.69005877,927951.49924673,931019.140226765,112445.94636286,112770.54983201,7.07106781185685e-05,1.00365
2019-09-15,1.0037,1.0031,1.0039,1.003,1.00350378520927,975,695,280,1077136.4116701,1080936.67885776,600735.69255386,602964.760794937,476400.71911624,477971.91806282,0,1.0031
2019-09-16,1.0031,1.0036,1.0036,1.002,1.00294360509078,1558,945,613,3153668.03120458,3162831.42955087,1783411.7035683,1789036.87446939,1370256.32763628,1373794.55508149,0,1.0036
2019-09-17,1.0036,1.0031,1.0039,1.0027,1.00335347744338,1489,837,652,1656750.51676546,1662294.85939348,730577.61510368,733224.243821596,926172.90166178,929070.615571884,4.04519917477639e-05,1.0031
2019-09-18,1.0032,1.0027,1.0033,1.0023,1.00280500694026,1440,767,673,1022769.94962678,1025633.3851622,448611.02652404,449953.537699904,574158.92310274,575679.847462292,0,1.0027
2019-09-19,1.0027,1.0044,1.0045,1.0023,1.00295009880567,3198,1212,1986,4170070.17837343,4183729.41086213,2282540.95205106,2290529.87174168,1887529.22632237,1893199.53912045,0,1.0044
2019-09-20,1.0044,1.0025,1.0044,1.0023,1.00290474085575,1135,410,725,2086633.15151552,2092992.23059974,456374.76252694,457704.305364634,1630258.38898858,1635287.9252351,0,1.0025
2019-09-21,1.0025,1.0023,1.0026,1.0017,1.00218870393686,1033,745,288,3515530.02685318,3523160.12340335,2341474.76944425,2346615.96168385,1174055.25740893,1176544.16171951,7.07106781187255e-05,1.0023
2019-09-22,1.0022,1.0017,1.0023,1.0013,1.00167043506728,1460,887,573,2147978.01571299,2151472.58429304,1159483.28436895,1161384.07755041,988494.73134404,990088.506742625,5.77350269189349e-05,1.0017
2019-09-23,1.0016,1.0004,1.0017,1.0003,1.00136574751204,1693,637,1056,2750892.06404581,2753676.62235149,525414.43111632,526255.216687308,2225477.63292949,2227421.40566418,0,1.0004
2019-09-24,1.0004,1.003,1.0212,0.998,1.00213675308994,12020,7139,4881,26559860.8044175,26663633.2715697,17091471.5364765,17183828.7062789,9468389.26794092,9479804.56529076,0.000200000000000117,1.0032
2019-09-25,1.0034,1.0047,1.006,1.0022,1.00418634821439,3515,2626,889,5612708.66780115,5634962.5440668,3160205.59504281,3173515.32072317,2452503.07275834,2461447.22334362,0.000100000000000026,1.0047
2019-09-26,1.0045,1.0046,1.005,1.0017,1.00355900725757,3102,1140,1962,5062345.06656013,5078377.93241624,1803693.63368383,1810009.62712565,3258651.4328763,3268368.30529059,0,1.0046
2019-09-27,1.0046,1.0038,1.0048,1.0035,1.00409243583255,2327,1977,350,5155359.73453538,5175645.45002262,3981557.49944559,3997012.93630622,1173802.23508979,1178632.5137164,7.07106781185685e-05,1.0038
2019-09-28,1.0041,1.0029,1.0043,1.0008,1.00369535013945,2323,2065,258,6168308.76300986,6188022.98140092,3464182.51163907,3476863.94439817,2704126.25137079,2711159.03700274,0,1.0029
2019-09-29,1.0029,1.0037,1.0037,1.0025,1.00303062717198,2568,1964,604,3265500.88604995,3275546.57445194,2329181.49947483,2336566.94458584,936319.38657512,938979.629866092,0,1.0037
2019-09-30,1.0037,1.005,1.005,1.0028,1.00386238999303,4693,4004,689,7443698.72764706,7471717.97852285,6654691.77074799,6680136.73864271,789006.95689908,791581.239880136,0,1.005
2019-10-01,1.005,1.0041,1.0053,1.0041,1.00478971583813,1729,1049,680,2702015.56237037,2715015.06053297,1561089.86106776,1568851.48963306,1140925.70130261,1146163.57089991,0,1.0041
2019-10-02,1.0043,1.0047,1.0047,1.0034,1.00394107421578,1675,1402,273,3318309.75797126,3331055.82610259,2619166.09575103,2629249.46338965,699143.66222023,701806.362712942,0,1.0047
2019-10-03,1.0047,1.0037,1.0049,1.0033,1.00414491437445,1198,815,383,1448138.61180348,1454249.94528339,887787.828367651,891786.523519483,560350.78343583,562463.421763907,0,1.0037
2019-10-04,1.0037,1.0038,1.0039,1.0032,1.00344141058079,862,755,107,1722006.81605278,1727915.18152495,1510620.37003292,1515816.99315658,211386.44601986,212098.188368368,0,1.0038
2019-10-05,1.0039,1.0033,1.0039,1.0032,1.00348236507267,548,443,105,976124.17510823,979443.005675925,593262.00984787,595307.52306841,382862.16526036,384135.482607515,0,1.0033
2019-10-06,1.0033,1.0032,1.0039,1.0032,1.00352492053383,1844,1278,566,2187394.5091824,2194996.89455414,1566074.72741372,1571566.90806911,621319.78176868,623429.986485026,0,1.0032
2019-10-07,1.0032,1.0036,1.0048,1.0032,1.00405529973926,2457,2062,395,3612097.48956613,3627082.88941031,2858661.53965641,2870666.08946526,753435.94990972,756416.799945053,0,1.0036
2019-10-08,1.0036,1.0033,1.0039,1.003,1.00357821557913,2324,2170,154,3072705.67071703,3083546.70952733,2499941.09141753,2508888.98300651,572764.5792995,574657.726520823,8.16496580927334e-05,1.0034
2019-10-09,1.0033,1.0037,1.0037,1.0018,1.00341407582198,3889,3351,538,5815699.97673952,5834476.0807463,4237422.46668255,4251910.39524428,1578277.51005698,1582565.68550202,4.47213595500157e-05,1.00362
2019-10-10,1.0037,1.0039,1.004,1.0034,1.00381990753214,1460,1259,201,1659675.57161079,1666046.89574793,1499265.23637375,1505065.21135543,160410.33523704,160981.684392503,0,1.0039
2019-10-11,1.0039,1.0034,1.0043,1.0032,1.0037067079208,1985,1372,613,3286527.60957508,3299209.90272376,2112311.27669192,2120984.1065198,1174216.33288316,1178225.79620397,0,1.0034
2019-10-12,1.0033,1.0031,1.0035,1.003,1.00331869032079,806,430,376,594869.54206964,596817.892690148,135012.63488266,135468.568035528,459856.90718698,461349.32465462,0,1.0031
2019-10-13,1.003,1.0025,1.0037,1.0024,1.0030314034883,668,269,399,813295.10428091,815716.028651789,422402.06227854,423718.725324899,390893.04200237,391997.303326889,0,1.0025
2019-10-14,1.0024,1.0031,1.0031,1.0024,1.00269929203473,801,634,167,530754.25130532,532196.071466044,393528.21334563,394612.271227564,137226.03795969,137583.80023848,0,1.0031
2019-10-15,1.0031,1.0028,1.0033,1.0022,1.00272582199889,1108,491,617,1933071.68125265,1938163.35611369,719722.80575983,721775.423892174,1213348.87549282,1216387.93222151,5.47722557504633e-05,1.0028
2019-10-16,1.0028,1.0023,1.0031,1.0021,1.00241055548865,1148,598,550,2267847.01249414,2273223.06232283,1128754.238651,1131363.65211956,1139092.77384314,1141859.41020327,0,1.0023
2019-10-17,1.0023,1.003,1.003,1.0023,1.00278370225814,709,529,180,1157760.15591493,1160954.34598448,817193.79571331,819490.022585182,340566.36020162,341464.323399302,0,1.003
2019-10-18,1.003,1.0042,1.0042,1.0029,1.00365996485449,1780,1606,174,2816650.20401858,2826560.88896661,2440711.91731572,2449393.12546014,375938.28670286,377167.763506459,0,1.0042
2019-10-19,1.0042,1.0045,1.0048,1.0041,1.00443493085949,1550,1401,149,2343397.56622332,2353897.8110232,2114330.00298829,2123822.37115167,229067.56323503,230075.439871533,0,1.0045
2019-10-20,1.0045,1.0048,1.0048,1.0043,1.00467388387416,903,671,232,1102716.15477344,1107889.47082518,829132.45843863,833064.799190028,273583.69633481,274824.671635155,0,1.0048
2019-10-21,1.0048,1.0039,1.0048,1.0036,1.00410828431496,1111,641,470,1750510.84655141,1757743.1690932,723310.78920466,726401.777195865,1027200.05734675,1031341.39189734,0,1.0039
2019-10-22,1.0039,1.0038,1.0041,1.0036,1.00391454779001,1203,1082,121,1949736.06567577,1957387.95958096,1673250.84462426,1679858.00566374,276485.22105151,277529.953917227,5.77350269190203e-05,1.0038
2019-10-23,1.0037,1.0034,1.004,1.0024,1.00319587858537,2934,573,2361,6512608.86841527,6535280.44947389,2131401.77636856,2139002.61667689,4381207.09204671,4396277.832797,3.89249472080509e-05,1.00338333333333
2019-10-24,1.0029,1.004,1.004,1.0023,1.00342108535867,1750,1315,435,3048885.46256797,3058417.29454362,2015078.53400668,2021302.14081496,1033806.92856129,1037115.15372866,0,1.004
2019-10-25,1.0039,1.0036,1.0055,1.0034,1.00421731734793,4520,3137,1383,6840376.5641059,6870105.46879451,3961563.94627733,3979149.83528729,2878812.61782857,2890955.63350723,0,1.0036
2019-10-26,1.0036,1.0046,1.007,1.0016,1.00461341048217,7221,4744,2477,10298709.9680299,10344971.9654275,5949845.74990822,5979366.26246543,4348864.21812167,4365605.70296206,4.47213595500157e-05,1.0046
2019-10-27,1.0045,1.0038,1.005,1.0036,1.0041359429086,2556,1683,873,2564585.1954288,2575169.18943101,1505426.43791286,1511851.00090115,1059158.75751594,1063318.18852986,0,1.0038
2019-10-28,1.0039,1.0027,1.0052,1.0027,1.00416848518782,2660,1686,974,4956110.69009485,4976914.30505525,2932624.25161088,2945614.15598272,2023486.43848396,2031300.14907254,0,1.0027
2019-10-29,1.0027,1.0041,1.0042,1.0022,1.00293358580887,1615,864,751,2553196.46488653,2560620.76703826,1295786.56845215,1299915.41093395,1257409.89643438,1260705.35610432,0,1.0041
2019-10-30,1.0042,1.004,1.0052,1.0026,1.00385249478274,2123,608,1515,4948618.67502399,4967617.40562204,2678247.68998447,2689084.26102974,2270370.98503952,2278533.14459229,5.77350269189562e-05,1.00406666666667
2019-10-31,1.0041,1.0039,1.0042,1.0033,1.00370996237807,2478,2077,401,5195618.18245864,5214657.2666875,3893003.75347176,3907337.67721716,1302614.42898688,1307319.58947034,0,1.0039
2019-11-01,1.0039,1.0045,1.0046,1.0038,1.00430079761081,2944,2807,137,4476046.23727904,4495399.63515555,4389019.29546081,4408000.40213703,87026.94181823,87399.2330185249,0,1.0045
2019-11-02,1.0045,1.0042,1.0052,1.0041,1.00488199125481,1824,1550,274,2546362.97975628,2558660.04507551,1947985.17050416,1957550.24327204,598377.80925212,601109.801803468,0.000101379375504911,1.0042
2019-11-03,1.0041,1.003,1.0045,1.0028,1.00372946380257,1438,653,785,1633419.66883592,1639331.1432928,392302.1394976,393883.018627707,1241117.52933832,1245448.12466509,0,1.003
2019-11-04,1.0031,1.0051,1.0053,1.0028,1.00366210463693,2020,1402,618,3670352.11127033,3685630.28137592,2868003.08110073,2880433.94808269,802349.0301696,805196.333293227,0.000141421356237447,1.0051
2019-11-05,1.0053,1.0038,1.0053,1.002,1.00334843929691,1488,725,763,1740638.34603264,1746541.18457191,960326.36770092,963761.752921318,780311.978331719,782779.43165059,7.07106781185685e-05,1.00375
2019-11-06,1.0036,1.002,1.0052,1.0014,1.00264831047271,1258,471,787,1873603.13124457,1878227.3278615,564143.61914758,565969.923766166,1309459.51209699,1312257.40409533,7.07106781185685e-05,1.002
2019-11-07,1.002,1.0005,1.0021,1.0003,1.00089177010269,2915,640,2275,3517036.86451586,3519878.51000355,689049.67139054,689780.01230515,2827987.19312532,2830098.49769839,0,1.0005
2019-11-08,1.0005,1.0006,1.0012,1,1.00034217739501,3029,737,2292,5017636.5304384,5018742.04756081,605242.95755939,605605.567572988,4412393.57287901,4413136.47998782,0,1.0006
2019-11-09,1.0006,1.0012,1.0012,1.0001,1.00069791004024,1451,1117,334,1966964.3115802,1968265.20798041,1187456.75154694,1188362.58814299,779507.56003326,779902.61983741,0,1.0012
2019-11-10,1.0012,1.0027,1.0027,1.0006,1.00177717265329,2818,2260,558,2534634.94930807,2539536.83896965,2104004.36411207,2108205.0312779,430630.585196,431331.807691752,0,1.0027
2019-11-11,1.0027,1.0011,1.003,1.001,1.00197618964705,1580,843,737,2245538.4278035,2250231.50437522,825515.167297081,827616.469110605,1420023.26050642,1422615.03526461,0,1.0011
2019-11-12,1.0011,1.001,1.0017,1.0006,1.00111293551237,1788,1019,769,2082019.5282709,2084225.98919994,799129.300075599,800141.146356027,1282890.2281953,1284084.84284391,0,1.001
2019-11-13,1.001,1.0025,1.0025,1.0009,1.00187475751889,1376,918,458,1602065.41800366,1605025.17429244,1065611.04804132,1067703.2288295,536454.36996234,537321.945462939,0,1.0025
2019-11-14,1.0025,1.0008,1.0026,1.0008,1.00144678236798,1338,635,703,2128797.19330468,2131653.37692414,790239.09906383,791287.282037272,1338558.09424085,1340366.09488687,0,1.0008
2019-11-15,1.001,1.0018,1.0019,1.0008,1.00132677097733,1854,1287,567,2533645.40704193,2537043.50843247,1701957.61613892,1704362.62251025,831687.790903009,832680.885922226,0,1.0018
2019-11-16,1.0018,1.0024,1.0025,1.0012,1.00215727240587,1473,953,520,2895835.00488323,2901615.08937033,1970400.58796437,1974539.56263041,925434.41691886,927075.526739924,0,1.0024
2019-11-17,1.0025,1.0036,1.0036,1.0022,1.00287931784634,1873,1592,281,2297995.80512046,2304904.83202764,1921959.02095595,1927772.36219822,376036.78416451,377132.469829421,0,1.0036
2019-11-18,1.0036,1.0029,1.0039,1.0029,1.00339507108113,1930,1110,820,2343684.56886913,2351706.58369013,1292320.57658718,1296941.13844129,1051363.99228195,1054765.44524884,7.07106781185685e-05,1.0029
2019-11-19,1.003,1.0041,1.0044,1.0029,1.00402021049029,1385,1030,355,2007669.53387494,2015724.9328893,1467449.14137346,1473417.61947975,540220.39250148,542307.313409549,0,1.0041
2019-11-20,1.0042,1.0035,1.0045,1.0035,1.00402592252444,880,483,397,1636490.84779133,1643031.07481635,853698.00155441,857251.17361126,782792.84623692,785779.901205089,0,1.0035
2019-11-21,1.0035,1.0038,1.0038,1.0024,1.00327910513684,2712,2064,648,5934606.98838423,5954066.95139872,4833561.73507298,4849732.89682602,1101045.25331125,1104334.0545727,0,1.0038
2019-11-22,1.0038,1.005,1.0058,1.0036,1.0043573812577,6882,6210,672,9266140.89148676,9306634.65561398,8066987.55233869,8101982.63093837,1199153.33914807,1204652.0246756,0,1.005
2019-11-23,1.005,1.0055,1.0058,1.0049,1.00546214071641,2656,2359,297,5330228.55022172,5359290.18448994,4581530.60358379,4606468.03483989,748697.94663793,752822.149650056,0,1.0055
2019-11-24,1.0055,1.0071,1.0074,1.0052,1.00609621744781,2774,2472,302,7164388.54360816,7208989.87827532,6300551.52369742,6339428.51753877,863837.01991074,869561.360736545,5.00000000001025e-05,1.00706666666667
2019-11-25,1.0071,1.0069,1.0149,1.0067,1.00982427312221,8810,7784,1026,12854526.7384359,12975146.5580594,10656196.9805357,10757179.4168543,2198329.75790015,2217967.14120501,0,1.0069
2019-11-26,1.0069,1.0059,1.0069,1.004,1.00562630863201,1852,1083,769,3218531.31037839,3236948.82708329,2110910.87174132,2122536.90236898,1107620.43863707,1114411.92471431,0,1.0059
2019-11-27,1.0059,1.0048,1.0065,1.0045,1.00582984027052,1912,1176,736,3858658.73442557,3881764.85952672,2822937.97458398,2840052.47937315,1035720.75984159,1041712.38015357,7.07106781185685e-05,1.0048
2019-11-28,1.0049,1.0054,1.0054,1.0043,1.00489851484708,1035,795,240,2789739.2570614,2803405.05417998,2111031.1446053,2121512.28686376,678708.112456101,681892.767316213,0,1.0054
2019-11-29,1.0053,1.0063,1.0064,1.0049,1.0057112476981,1402,1226,176,3606783.80812068,3627355.54504111,3092486.30543831,3110327.93382684,514297.50268237,517027.611214272,0,1.0063
2019-11-30,1.0063,1.0059,1.0064,1.0043,1.0058285935661,472,338,134,715302.47779296,719500.181418986,470698.70077791,473531.060594849,244603.77701505,245969.120824139,0,1.0059
2019-12-01,1.006,1.0061,1.0061,1.0051,1.00570379448068,1083,976,107,2375115.14741558,2388726.77896709,1957129.5928935,1968392.9912995,417985.55452208,420333.787667591,0,1.0061
2019-12-02,1.0061,1.0059,1.0061,1.0053,1.00587411881396,934,784,150,1473510.95441468,1482180.35038551,1259440.4637519,1266851.26435473,214070.49066278,215329.086030779,0,1.0059
2019-12-03,1.0058,1.0056,1.0059,1.0055,1.00575547459606,599,514,85,945905.94339714,951346.5439399,656267.84773173,660056.635490542,289638.09566541,291289.908449357,7.07106781185685e-05,1.0056
2019-12-04,1.0056,1.0058,1.0071,1.0055,1.00608301726637,3814,3588,226,6542646.17972231,6583235.04141627,5895649.28174947,5932120.55965953,646996.89797285,651114.48175673,4.08248290463963e-05,1.00578333333333
2019-12-05,1.0058,1.0057,1.0058,1.0045,1.00532082857198,1571,1293,278,1626295.39639688,1635111.8390878,1333380.83974596,1340677.13627893,292914.55665092,294434.702808866,0,1.0057
2019-12-06,1.0058,1.006,1.006,1.0048,1.00545918170744,1574,1489,85,3839101.86243321,3860026.23523885,3760430.8264666,3780947.22761199,78671.03596661,79079.0076268655,0,1.006
2019-12-07,1.006,1.0058,1.006,1.0057,1.00590843988191,787,577,210,1120578.48684839,1127208.4483522,965471.41777659,971190.61372876,155107.0690718,156017.834623443,0,1.0058
2019-12-08,1.0058,1.0055,1.006,1.0054,1.00572660834062,2655,2413,242,2331059.22560675,2344394.83572705,1713712.30779384,1723538.65229286,617346.91781291,620856.183434188,0,1.0055
2019-12-09,1.0054,1.005,1.0055,1.0049,1.00524482366105,994,566,428,2427501.33103976,2440359.29060317,1342818.30673815,1350013.3781749,1084683.02430161,1090345.91242827,0,1.005
2019-12-10,1.005,1.0041,1.005,1.0039,1.00431585783412,1192,781,411,1641347.71640408,1648534.42801526,1056652.2075828,1061345.94665617,584695.50882128,587188.481359095,0,1.0041
2019-12-11,1.0041,1.0033,1.0042,1.0032,1.00366973461018,1065,574,491,2075183.68970016,2082845.60854508,731360.56230528,734111.515944878,1343823.12739488,1348734.0926002,0,1.0033
2019-12-12,1.0032,1.0034,1.004,1.003,1.00348041965737,2334,1704,630,2941752.82217865,2952056.94797822,1603839.38860311,1609582.66220714,1337913.43357554,1342474.28577108,0,1.0034
2019-12-13,1.0034,1.0034,1.0037,1.003,1.003316284883,1140,583,557,2912753.16068058,2922867.20704282,2295480.31988913,2303625.2489045,617272.840791449,619241.958138312,0.000173205080756869,1.0032
2019-12-14,1.0034,1.0036,1.0036,1.0029,1.00334971870359,929,564,365,908108.67674692,911166.352408038,587786.31970211,589823.264882179,320322.35704481,321343.087525859,0,1.0036
2019-12-15,1.0036,1.0032,1.0036,1.0029,1.00324949766002,1972,1114,858,1499694.61276041,1504495.50648286,578199.631381319,580126.575823174,921494.981379089,924368.93065969,0,1.0032
2019-12-16,1.0032,1.0044,1.0047,1.0032,1.00378500455946,4529,4069,460,8586352.30936455,8619160.55297828,7769121.54393993,7799001.50902175,817230.76542462,820159.043956536,0,1.0044
2019-12-17,1.0046,1.0054,1.0055,1.0043,1.00488092445745,5949,5573,376,10667676.1523489,10720596.012532,9417296.60267255,9464203.75448415,1250379.54967634,1256392.2580479,0,1.0054
2019-12-18,1.0053,1.0056,1.0056,1.0046,1.00527348887794,2601,2180,421,4413436.84461318,4436799.00045727,3679099.29790681,3698632.46121641,734337.546706371,738166.539240862,0,1.0056
2019-12-19,1.0056,1.0045,1.0056,1.0043,1.00519793370485,1416,682,734,2585278.42849492,2599027.82990635,1383338.55309101,1390914.68988832,1201939.87540391,1208113.14001803,0,1.0045
2019-12-20,1.0044,1.0039,1.0047,1.0037,1.00417466534206,1490,500,990,1208041.52894352,1213052.5149233,684376.77717603,687266.29848745,523664.75176749,525786.21643585,0.000282842712474588,1.0039
2019-12-21,1.0038,1.004,1.0056,1.0035,1.00395822587975,883,500,383,1451226.02676647,1458132.02274702,1203631.69853376,1209616.10526631,247594.32823271,248515.917480715,7.07106781187255e-05,1.004
2019-12-22,1.004,1.004,1.004,1.0032,1.00368008923168,2053,1531,522,850205.10671386,853310.040289586,400175.44181371,401707.604638412,450029.66490015,451602.435651174,0,1.004
2019-12-23,1.004,1.0031,1.004,1.0026,1.00335837589814,1594,832,762,2285645.97475832,2293198.32745867,581421.24875693,583594.032248017,1704224.72600139,1709604.29521066,7.0710678118804e-05,1.00305
2019-12-24,1.0031,1.0019,1.0035,1.0019,1.00256358911098,1703,696,1007,2133622.19670053,2138961.96527297,906794.26228385,909254.920520012,1226827.93441668,1229707.04475296,0.000230940107675825,1.00216666666667
2019-12-25,1.0021,1.0024,1.0034,1.0019,1.00264426525194,1345,720,625,1912351.34654253,1917531.49757113,640217.13052088,642076.781410484,1272134.21602165,1275454.71616065,0,1.0024
2019-12-26,1.0023,1.0038,1.004,1.0015,1.00294658470663,1959,921,1038,2962676.14888037,2970647.77236074,1370272.81813561,1374673.26125969,1592403.33074476,1595974.51110105,7.55928946018643e-05,1.00382857142857
2019-12-27,1.004,1.004,1.004,1.0023,1.00337349618838,2105,1454,651,2518591.91820259,2526889.61510756,1119633.32460941,1123882.55134826,1398958.59359318,1403007.06375931,0,1.004
2019-12-28,1.004,1.0034,1.004,1.0033,1.00394075974795,2308,1453,855,2093308.63621534,2101581.88965567,1448612.04327922,1454401.77597551,644696.59293612,647180.113680167,0,1.0034
2019-12-29,1.0034,1.0035,1.0037,1.0027,1.00330724457069,1183,652,531,695423.7010669,697772.371649896,471817.25788532,473449.383674431,223606.44318158,224322.987975465,0,1.0035
2019-12-30,1.0035,1.0017,1.0039,1.0016,1.00280690717109,978,386,592,1477799.07561541,1481944.1722928,485414.0486179,487070.414571851,992385.02699751,994873.757720944,0,1.0017
2019-12-31,1.0017,1.0017,1.002,1.0015,1.00168915055032,1026,664,362,905790.03931931,907331.862914763,419865.2106076,420588.59555373,485924.82871171,486743.267361032,0,1.0017
